<svg   viewBox="0 0 53 49"  xmlns="http://www.w3.org/2000/svg">
<path d="M34.1636 0.269429C34.3764 0.156052 34.5862 -0.0070403 34.839 0.000235212C35.0585 -0.000977374 35.2471 0.123919 35.4277 0.232445C39.6396 2.71218 43.8534 5.18889 48.0653 7.66741C48.3309 7.80565 48.4691 8.1094 48.4473 8.40164C48.4442 10.8874 48.4485 13.3732 48.4454 15.859C48.463 16.238 48.1417 16.6084 47.7549 16.6078C45.7123 16.6114 43.6691 16.6084 41.6265 16.6096C41.624 19.1354 41.6265 21.6613 41.6253 24.1871C41.1402 24.1889 40.6552 24.1877 40.1701 24.1877C40.1701 21.5315 40.1714 18.8753 40.1695 16.2192C40.1732 15.9997 40.1441 15.7669 40.2417 15.5626C40.3726 15.2964 40.6691 15.1369 40.9632 15.1545C42.9724 15.1539 44.9811 15.1551 46.9903 15.1539C46.9922 13.1125 46.9897 11.0717 46.9915 9.03097C44.9502 9.03097 42.9094 9.03036 40.868 9.03097C40.8668 9.53601 40.8686 10.0411 40.8674 10.5461C40.3824 10.5473 39.8973 10.5455 39.4123 10.5467C39.4141 9.79005 39.4093 9.03339 39.4141 8.27674C39.4135 7.89538 39.7633 7.57283 40.1398 7.57768C41.772 7.57101 43.4047 7.5795 45.0375 7.57344C41.8781 5.72 38.726 3.85444 35.5635 2.00646C35.5605 4.60503 35.5647 7.20421 35.5611 9.80338C35.5751 10.1714 35.2737 10.5212 34.9033 10.5467C34.4819 10.6007 34.0799 10.2229 34.1072 9.79914C34.1066 7.19147 34.109 4.5832 34.106 1.97554C29.4618 4.59836 24.8206 7.22543 20.1758 9.84704C23.7705 9.85189 27.3652 9.84704 30.96 9.84946C31.2176 9.83855 31.4868 9.93859 31.6348 10.1581C32.8813 11.9012 34.1248 13.6461 35.3719 15.3879C35.4877 15.5395 35.5708 15.7208 35.5617 15.9154C35.5635 26.7565 35.5623 37.5977 35.5623 48.4388C35.0773 48.4406 34.5923 48.4394 34.1072 48.4394C34.1078 37.8293 34.1072 27.2191 34.1072 16.6084C24.7406 16.6108 15.3734 16.6084 6.00615 16.6096C6.00555 18.2606 6.00676 19.9109 6.00555 21.5618C5.99281 21.8535 6.13469 22.1718 6.4245 22.276C7.09263 22.5652 7.65345 23.097 7.96387 23.7572C8.32583 24.4799 8.32644 25.3506 8.04209 26.0999C7.77774 26.7996 7.23693 27.3865 6.56516 27.7145C5.78668 28.1055 4.83176 28.1043 4.04419 27.74C2.98015 27.2592 2.24896 26.1211 2.27745 24.951C2.27867 24.5684 2.63274 24.238 3.01289 24.2519C3.32452 24.2532 3.61797 24.4745 3.70103 24.7752C3.74226 24.9656 3.73013 25.1638 3.7756 25.3536C3.87382 25.7719 4.15696 26.1381 4.5268 26.3534C5.01001 26.6323 5.65754 26.6286 6.11468 26.2964C6.69551 25.9193 6.94288 25.1214 6.69187 24.4787C6.53484 24.0646 6.18622 23.7402 5.77698 23.5808C5.01972 23.2516 4.55105 22.4343 4.55044 21.6218C4.55105 19.9509 4.54984 18.2806 4.55105 16.6096C3.27117 16.6078 1.99068 16.6114 0.710792 16.6084C0.295482 16.6205 -0.0513181 16.2083 0.00627972 15.802C0.0244685 15.5559 0.205144 15.3746 0.359142 15.1994C1.81485 13.5048 3.26571 11.806 4.72203 10.112C4.88027 9.91797 5.1337 9.83431 5.37864 9.84825C9.27892 9.85007 13.1792 9.84764 17.0795 9.85007C17.1619 9.85189 17.2462 9.83976 17.3172 9.79429C22.9308 6.61671 28.5493 3.4464 34.1636 0.269429ZM2.31322 15.1527C12.6814 15.1551 23.0503 15.1545 33.4185 15.1533C32.4981 13.8722 31.5863 12.5851 30.6653 11.3046C22.316 11.304 13.9674 11.3052 5.61813 11.304C4.51043 12.5814 3.41668 13.8716 2.31322 15.1527Z" />
<path d="M13.6436 25.0098C14.1292 25.0025 14.6149 25.008 15.0999 25.0061C15.1005 26.7747 15.0999 28.5432 15.1005 30.3118C16.8891 30.31 18.677 30.313 20.4656 30.3106C20.4662 28.5426 20.4656 26.7747 20.4662 25.0067C20.9506 25.0055 21.4357 25.0067 21.9207 25.0061C21.9207 26.7741 21.9213 28.5426 21.9207 30.3112C23.7093 30.3112 25.4978 30.3118 27.2858 30.3112C27.287 28.5432 27.2864 26.7753 27.2864 25.0073C27.7714 25.0049 28.2565 25.0067 28.7415 25.0061C28.7421 26.7747 28.7415 28.5432 28.7421 30.3118C29.5 30.31 30.2572 30.3124 31.0151 30.3106C31.0151 30.7956 31.0151 31.2807 31.0151 31.7657C24.4484 31.7669 17.8816 31.7681 11.3148 31.7651C11.3057 37.323 11.3136 42.8809 11.3106 48.4387C10.8256 48.4406 10.3405 48.4394 9.85549 48.4394C9.85549 42.6517 9.85609 36.864 9.85549 31.0757C9.82457 30.6701 10.1859 30.3033 10.5885 30.3136C11.6071 30.3076 12.6256 30.3136 13.6442 30.3112C13.6448 28.5439 13.646 26.7771 13.6436 25.0098Z" />
<path d="M42.4928 25.7537C43.3738 25.2105 44.4475 25.1201 45.4588 25.1674C46.3998 25.2153 47.3808 25.4815 48.0744 26.152C48.6079 26.685 48.9662 27.378 49.1512 28.1055C49.2094 28.3268 49.0839 28.5342 48.9444 28.6942C49.3694 28.8725 49.792 29.1623 49.9448 29.6194C50.1467 30.1863 49.9248 30.7902 49.6368 31.2837C49.749 31.6542 49.7538 32.0434 49.6889 32.4229C49.832 32.626 50.0194 32.8091 50.0764 33.062C50.2916 33.8695 50.0121 34.8918 49.2227 35.2834C48.9293 36.168 48.3969 36.9622 47.7221 37.6019C47.8264 37.9311 48.0792 38.2282 48.4297 38.2973C49.2554 38.4549 50.0879 38.5798 50.9149 38.7332C51.9959 38.9891 52.7792 40.0452 52.7938 41.1438C52.7986 43.2453 52.7968 45.3479 52.7944 47.4493C52.8089 47.7367 52.587 48.0016 52.3039 48.0435C51.9571 48.1089 51.606 47.804 51.6303 47.4499C51.6279 45.3667 51.6303 43.2835 51.6291 41.2002C51.6351 40.5745 51.1774 39.9416 50.5408 39.8476C49.8569 39.73 49.1736 39.6105 48.4897 39.4953C47.9598 39.8379 47.4481 40.2095 46.9073 40.5345C45.8469 41.1226 44.5039 41.1663 43.4077 40.6473C42.7651 40.3302 42.2097 39.8676 41.6028 39.4917C40.9298 39.6257 40.2502 39.7227 39.576 39.85C39.385 39.884 39.1879 39.9767 38.9939 39.9094C38.689 39.8203 38.501 39.4523 38.6205 39.1552C38.7059 38.9097 38.9594 38.7769 39.2013 38.732C40.0149 38.5865 40.8316 38.4543 41.6446 38.3076C41.9945 38.2494 42.2691 37.9693 42.3783 37.6401C41.6665 37.0053 41.1244 36.1844 40.8195 35.281C40.3284 35.0318 40.0095 34.5231 39.9264 33.9878C39.8276 33.4488 39.9197 32.8358 40.3375 32.4472C40.2538 32.0495 40.2671 31.6341 40.3908 31.2461C40.1192 30.7793 39.924 30.2142 40.0895 29.6764C40.2217 29.1902 40.6618 28.8707 41.1093 28.6936C40.962 28.5372 40.8462 28.3232 40.9104 28.1025C41.1499 27.1749 41.6574 26.2654 42.4928 25.7537ZM43.1901 26.6941C42.5383 27.0512 42.1988 27.7666 42.0145 28.456C42.1521 28.5281 42.311 28.5954 42.3843 28.7433C42.5523 29.0101 42.4431 29.403 42.1618 29.5443C41.8629 29.6964 41.5009 29.7255 41.2415 29.9505C41.1263 30.1033 41.2396 30.2961 41.2863 30.4537C42.7651 29.8832 44.3754 29.4806 45.9657 29.7267C46.923 29.862 47.864 30.1081 48.7656 30.4573C48.8068 30.2991 48.9171 30.1124 48.8165 29.9565C48.54 29.7522 48.2035 29.6467 47.8755 29.5606C47.6154 29.4891 47.3408 29.5145 47.0819 29.4485C46.6993 29.3266 46.5774 28.77 46.8745 28.5002C47.1831 28.1959 47.6542 28.3626 48.0307 28.4008C47.8816 27.8933 47.6645 27.3859 47.2789 27.0112C46.7702 26.5049 46.0197 26.3576 45.3279 26.3267C44.6046 26.3018 43.84 26.343 43.1901 26.6941ZM42.5662 31.2334C43.2277 31.2867 43.894 31.368 44.5257 31.582C44.8301 31.6899 45.1702 31.7021 45.4776 31.5966C46.1106 31.3807 46.7775 31.2916 47.4414 31.2376C46.8503 31.0594 46.244 30.9339 45.6316 30.8581C44.5973 30.718 43.5551 30.9412 42.5662 31.2334ZM41.5325 32.1331C41.5137 31.9537 41.4894 31.7748 41.4767 31.5953C41.4725 31.7748 41.3852 31.9882 41.5325 32.1331ZM42.2709 32.3829C42.3971 32.4532 42.5226 32.5254 42.6481 32.5975C42.6547 32.8601 42.6056 33.1626 42.7881 33.3809C42.9288 33.5652 43.1852 33.5518 43.3932 33.5482C43.6575 33.5549 43.88 33.3954 44.122 33.3142C44.7737 33.0759 45.517 33.1171 46.1439 33.4112C46.4338 33.5561 46.7787 33.5943 47.0904 33.504C47.4275 33.3293 47.3923 32.9037 47.3862 32.5836C47.5105 32.5181 47.6354 32.4526 47.7597 32.3859C47.1043 32.4241 46.4435 32.4963 45.8184 32.7079C45.3103 32.877 44.7489 32.8789 44.2408 32.7109C43.6072 32.4933 42.936 32.4247 42.2709 32.3829ZM41.0978 33.3366C41.0232 33.5628 41.0487 33.8235 41.1541 34.0369C41.2639 34.3243 41.6283 34.2188 41.8672 34.2703C41.8193 34.6765 41.9496 35.0682 42.137 35.4235C42.5862 36.3772 43.4108 37.1114 44.3439 37.5782C44.6876 37.7353 45.0854 37.7577 45.4497 37.6649C45.7553 37.5904 46.0142 37.403 46.2779 37.2405C47.1455 36.6955 47.8222 35.8448 48.1326 34.8663C48.192 34.6729 48.1714 34.4686 48.1738 34.2697C48.3684 34.2467 48.5709 34.2564 48.7601 34.1982C48.9747 34.0199 49.002 33.704 48.9729 33.4451C48.9638 33.2887 48.7904 33.2669 48.6764 33.2238C48.6382 33.2432 48.5624 33.2814 48.5242 33.3008C48.4097 33.8538 48.0526 34.3788 47.5136 34.5886C47.0898 34.7432 46.6181 34.7493 46.1803 34.6553C45.842 34.5904 45.5528 34.3697 45.2066 34.337C44.9035 34.297 44.5912 34.3546 44.3196 34.4928C43.8115 34.7438 43.2113 34.7735 42.6662 34.6383C42.0424 34.468 41.6101 33.8817 41.504 33.2608C41.3664 33.2208 41.1996 33.2208 41.0978 33.3366ZM43.3453 38.3513C43.2162 38.5677 43.0628 38.769 42.8888 38.9515C43.1107 39.1 43.3289 39.2552 43.5533 39.4002C44.2074 39.8324 45.0526 39.9592 45.805 39.7366C46.3355 39.5923 46.7678 39.2401 47.2189 38.943C47.0364 38.7557 46.88 38.5441 46.7551 38.3149C46.3798 38.5659 45.9645 38.7672 45.5158 38.8405C44.7628 38.9818 43.9704 38.786 43.3453 38.3513Z" />
<path d="M15.7457 34.8767C15.9251 34.8463 16.1088 34.8603 16.2901 34.8585C17.6621 34.8591 19.0336 34.8591 20.405 34.8579C20.405 35.3429 20.4056 35.8279 20.405 36.313C19.1421 36.3154 17.8792 36.313 16.6163 36.3142C16.6151 37.5771 16.6169 38.84 16.6157 40.1035C16.13 40.1035 15.645 40.1035 15.16 40.1035C15.1624 38.5902 15.1582 37.0769 15.1618 35.5642C15.1618 35.2338 15.4231 34.9349 15.7457 34.8767Z" />
<path d="M23.4995 35.5665C23.4947 35.1797 23.8518 34.8517 24.2319 34.8608C25.7355 34.8554 27.2392 34.8602 28.7428 34.859C28.7409 35.3434 28.7428 35.8285 28.7415 36.3135C27.4786 36.3141 26.2157 36.3135 24.9534 36.3141C24.951 37.577 24.9534 38.8399 24.9522 40.1028C24.4666 40.1034 23.9815 40.1028 23.4971 40.1034C23.4995 38.5907 23.4941 37.0786 23.4995 35.5665Z" />
<path d="M15.1618 43.928C15.1436 43.5187 15.5274 43.1707 15.93 43.1962C17.4214 43.1931 18.9135 43.1968 20.405 43.1943C20.405 43.6794 20.4056 44.165 20.405 44.65C19.1421 44.6513 17.8792 44.6488 16.6163 44.6513C16.6157 45.9142 16.6169 47.1765 16.6157 48.4394C16.1306 48.4406 15.6456 48.4388 15.1612 48.44C15.1612 46.9364 15.1594 45.4322 15.1618 43.928Z" />
<path d="M23.4983 43.9316C23.4789 43.5333 23.8421 43.1853 24.2349 43.1974C25.7373 43.1919 27.2397 43.1968 28.7415 43.195C28.7415 43.68 28.7427 44.165 28.7409 44.6507C27.478 44.6507 26.2157 44.6501 24.9528 44.6507C24.9522 45.9136 24.9528 47.1759 24.9522 48.4388C24.4671 48.4406 23.9821 48.4394 23.4971 48.4394C23.4983 46.937 23.4953 45.434 23.4983 43.9316Z" />
</svg>
