<svg   viewBox="0 0 51 62"  xmlns="http://www.w3.org/2000/svg">
<path fill-rule="evenodd" clip-rule="evenodd" d="M23.3458 1.74354C24.4686 1.87701 25.5284 2.2122 26.4204 2.82974L26.4269 2.83421L26.4269 2.83417C27.759 3.73588 28.7973 5.38651 29.3462 7.03323C29.4772 7.42619 29.902 7.63856 30.2949 7.50757C30.6879 7.37659 30.9002 6.95185 30.7693 6.55889C30.1554 4.71723 28.9615 2.74007 27.271 1.59423C25.5757 0.421958 23.509 0.111 21.6074 0.184138L19.8029 0.253543L21.1251 1.48244L21.1253 1.48258L21.1253 1.48261L21.1255 1.48276L21.1257 1.48295L21.1277 1.48482L21.1404 1.49692C21.1523 1.50833 21.171 1.52629 21.1954 1.55037C21.2443 1.59857 21.3163 1.671 21.4043 1.76402C21.5808 1.95071 21.8186 2.21701 22.0628 2.53407C22.5694 3.19186 23.0268 3.97052 23.1269 4.66703C23.2358 5.46297 22.2438 6.06343 21.5547 5.49594L21.548 5.49043L21.548 5.49047C21.3884 5.3621 21.2267 5.2206 21.0567 5.07192C20.1732 4.29893 19.0679 3.33196 16.8884 3.00726C14.952 2.69855 12.9492 3.16376 11.3331 4.24113L9.83851 5.23753L11.5979 5.59976C13.0465 5.898 14.889 6.85565 15.9181 7.88472C16.3791 8.34568 16.7318 8.81437 16.8654 9.29862C17.0007 9.78907 16.8857 10.2653 16.6285 10.5108L16.6257 10.5135C16.2978 10.8296 15.5811 10.8809 14.9993 10.5283L14.9909 10.5231L14.9909 10.5232C14.6805 10.3406 14.2816 10.0005 13.882 9.58704C13.4884 9.17973 13.1346 8.7435 12.9082 8.40399L12.0626 7.13547L11.5738 8.57956C11.0024 10.2676 11.0805 12.133 11.7805 13.7672C12.2272 14.8178 12.953 15.7434 13.7898 16.4788L13.7968 16.485L13.7968 16.4849C14.5639 17.1424 15.5 17.5354 16.4253 17.741C16.8297 17.8309 17.2303 17.5759 17.3202 17.1716C17.41 16.7672 17.1551 16.3666 16.7507 16.2767C16.0027 16.1105 15.3116 15.8065 14.7764 15.349C14.0797 14.7359 13.5043 13.9881 13.1606 13.1794L13.1597 13.1773C12.8016 12.3419 12.6488 11.4288 12.7062 10.5276C12.7384 10.5618 12.7708 10.5957 12.8034 10.6294C13.2401 11.0813 13.7468 11.5308 14.2262 11.8137C15.1796 12.3891 16.6921 12.5317 17.6656 11.5945C18.4307 10.863 18.5481 9.75807 18.3113 8.89973C18.0727 8.03468 17.4949 7.34019 16.9788 6.82406C16.1544 5.99974 14.9559 5.24544 13.7435 4.72582C14.6797 4.42185 15.682 4.3333 16.6556 4.48908L16.6639 4.49041L16.6639 4.49037C18.3857 4.74607 19.1631 5.41989 20.0226 6.16486C20.2092 6.32666 20.3998 6.49181 20.6047 6.65677C22.2883 8.03824 24.9207 6.68594 24.6125 4.45987L24.612 4.45667C24.4647 3.42494 23.8705 2.44583 23.3458 1.74354Z" />
<path fill-rule="evenodd" clip-rule="evenodd" d="M10.7784 43.1808C10.7784 42.7666 11.1142 42.4308 11.5284 42.4308H32.5909V43.9308H12.2784V61.1183H10.7784V43.1808Z" />
<path fill-rule="evenodd" clip-rule="evenodd" d="M16.2472 47.8683C16.2472 47.4541 16.583 47.1183 16.9972 47.1183H21.6534V48.6183H17.7472V52.5245H16.2472V47.8683Z" />
<path fill-rule="evenodd" clip-rule="evenodd" d="M24.8409 47.8683C24.8409 47.4541 25.1767 47.1183 25.5909 47.1183H30.2472V48.6183H26.3409V52.5245H24.8409V47.8683Z" />
<path fill-rule="evenodd" clip-rule="evenodd" d="M16.2472 56.462C16.2472 56.0478 16.583 55.712 16.9972 55.712H21.6534V57.212H17.7472V61.1183H16.2472V56.462Z" />
<path fill-rule="evenodd" clip-rule="evenodd" d="M24.8409 56.462C24.8409 56.0478 25.1767 55.712 25.5909 55.712H30.2472V57.212H26.3409V61.1183H24.8409V56.462Z" />
<path fill-rule="evenodd" clip-rule="evenodd" d="M16.1847 36.962V43.9308H14.6847V36.962H16.1847Z" />
<path fill-rule="evenodd" clip-rule="evenodd" d="M23.2159 36.962V43.9308H21.7159V36.962H23.2159Z" />
<path fill-rule="evenodd" clip-rule="evenodd" d="M30.2472 36.962V43.9308H28.7472V36.962H30.2472Z" />
<path fill-rule="evenodd" clip-rule="evenodd" d="M37.2784 27.587V61.1183H35.7784V27.587H37.2784Z" />
<path fill-rule="evenodd" clip-rule="evenodd" d="M41.2472 19.7433C41.2472 19.3291 41.583 18.9933 41.9972 18.9933H49.8097C50.2239 18.9933 50.5597 19.3291 50.5597 19.7433V27.5558C50.5597 27.97 50.2239 28.3058 49.8097 28.3058H43.5284V61.1183H42.0284V27.5558C42.0284 27.1416 42.3642 26.8058 42.7784 26.8058H49.0597V20.4933H42.7472V22.0558H41.2472V19.7433Z" />
<path fill-rule="evenodd" clip-rule="evenodd" d="M36.5284 11.1808C36.9427 11.1808 37.2784 11.5166 37.2784 11.9308V21.3058C37.2784 21.72 36.9427 22.0558 36.5284 22.0558C36.1142 22.0558 35.7784 21.72 35.7784 21.3058V11.9308C35.7784 11.5166 36.1142 11.1808 36.5284 11.1808Z" />
<path fill-rule="evenodd" clip-rule="evenodd" d="M5.49026 21.5989C5.63275 21.4327 5.84076 21.337 6.0597 21.337H32.6222C32.8644 21.337 33.0917 21.454 33.2325 21.6511L37.1388 27.1199C37.302 27.3485 37.3239 27.6492 37.1953 27.899C37.0668 28.1488 36.8094 28.3058 36.5285 28.3058H1.3722C1.07931 28.3058 0.813208 28.1353 0.690818 27.8692C0.568429 27.6031 0.612146 27.2901 0.802761 27.0677L5.49026 21.5989ZM6.40465 22.837L3.00287 26.8058H35.0711L32.2362 22.837H6.40465Z" />
<path fill-rule="evenodd" clip-rule="evenodd" d="M36.1594 11.2779C36.3924 11.1462 36.678 11.1486 36.9087 11.2843L50.19 19.0968C50.547 19.3068 50.6662 19.7665 50.4562 20.1236C50.2461 20.4806 49.7865 20.5998 49.4294 20.3897L36.521 12.7965L18.9287 22.74C18.5681 22.9438 18.1106 22.8167 17.9068 22.4561C17.703 22.0955 17.8301 21.6379 18.1907 21.4341L36.1594 11.2779Z" />
<path fill-rule="evenodd" clip-rule="evenodd" d="M6.05969 26.8058C6.47391 26.8058 6.80969 27.1416 6.80969 27.5558V33.4152C6.80969 33.7913 6.98734 34.0334 7.21194 34.1309C8.42358 34.6381 9.37038 35.9682 9.06308 37.5349C8.84958 38.783 7.8232 39.8061 6.57362 40.0143L6.56729 40.0154L6.56729 40.0154C4.60371 40.3254 2.96594 38.7733 2.96594 36.9308C2.96594 36.5166 3.30173 36.1808 3.71594 36.1808C4.13016 36.1808 4.46594 36.5166 4.46594 36.9308C4.46594 37.8997 5.32631 38.6907 6.33008 38.5342C6.95016 38.4294 7.48213 37.8966 7.58552 37.2762C7.58685 37.2683 7.5883 37.2604 7.58988 37.2524C7.7439 36.4824 7.28883 35.788 6.63061 35.5137L6.62361 35.5108L6.62363 35.5108C5.75569 35.1388 5.30969 34.2876 5.30969 33.4152V27.5558C5.30969 27.1416 5.64548 26.8058 6.05969 26.8058Z" />
</svg>
