<svg   viewBox="0 0 50 49"  xmlns="http://www.w3.org/2000/svg">
<path d="M32.1308 1.72709C37.5881 0.952507 43.1046 0.63465 48.6143 0.632798C48.9606 0.618603 49.2772 0.92535 49.2642 1.27407C49.2673 1.5302 49.0754 1.71536 48.947 1.91595C48.2761 2.91581 47.7916 4.02306 47.2645 5.10131C46.2104 7.2868 45.0655 9.43218 44.1563 11.6843C43.6058 13.0545 43.1497 14.4642 42.8226 15.9047C42.28 18.4383 41.7709 20.9818 41.4012 23.5475C41.0327 26.1132 40.7488 28.7079 40.0007 31.1995C39.5175 32.7931 38.8651 34.3602 37.8652 35.7038C36.7247 37.2486 35.2489 38.5232 33.6418 39.5631C31.8358 40.7296 29.8565 41.6122 27.8086 42.2591C25.0806 43.1114 22.218 43.5527 19.358 43.4947C16.2664 43.4268 13.1057 42.7528 10.4796 41.058C8.98718 43.083 7.53492 45.1383 6.11784 47.217C5.77714 47.7484 5.3772 48.3064 4.75568 48.523C4.05887 48.7847 3.28058 48.5458 2.69548 48.1323C2.1616 47.7361 1.62834 47.3392 1.09694 46.9393C0.522942 46.4603 0.377901 45.6141 0.613053 44.9272C0.746367 44.4575 1.07472 44.086 1.36171 43.7045C2.99482 41.5548 4.66434 39.4329 6.35484 37.3283C4.99083 35.6322 4.04776 33.6171 3.52499 31.5093C3.12134 29.917 2.9368 28.2777 2.85533 26.6403C2.7862 24.9979 2.75843 23.3475 2.92754 21.7101C3.15097 19.4981 3.68731 17.3089 4.602 15.2789C5.54261 13.1761 6.8881 11.2548 8.55515 9.66425C10.2475 8.00399 12.3275 6.79737 14.4926 5.86169C17.2453 4.67914 20.1492 3.88975 23.0722 3.25774C26.0681 2.61585 29.0986 2.15789 32.1308 1.72709ZM32.2037 2.99111C29.9207 3.50091 27.6315 3.98109 25.346 4.4767C22.281 5.15624 19.2086 5.85737 16.2572 6.94241C14.3938 7.6349 12.5768 8.49342 10.9579 9.65684C9.48094 10.7092 8.19038 12.0287 7.19608 13.547C6.34003 14.8438 5.69938 16.2744 5.22413 17.7514C4.6057 19.6906 4.26501 21.7082 4.08047 23.732C4.05516 24.0431 4.08849 24.3554 4.09219 24.6671C4.12614 25.6348 4.12367 26.6038 4.13663 27.5722C4.14589 28.4388 4.26563 29.2985 4.41005 30.1515C4.73408 32.4185 5.77159 34.5354 7.18127 36.3235C10.753 31.934 14.4839 27.671 18.4007 23.5864C21.7082 20.1603 25.1399 16.8472 28.8042 13.8013C30.6533 12.275 32.5518 10.8011 34.5675 9.49945C34.9403 9.24332 35.381 9.06742 35.8377 9.06371C36.2179 9.05507 36.6203 9.21431 36.8314 9.54266C37.0549 9.88088 37.0221 10.3271 36.8506 10.6802C36.5716 11.2523 36.0605 11.6535 35.6131 12.0867C26.6909 20.6615 18.6204 30.0966 11.2369 40.0205C13.2792 41.1308 15.5616 41.7684 17.8736 41.9671C20.8022 42.2226 23.7647 41.8295 26.5767 40.9956C28.8566 40.3118 31.0582 39.3459 33.0708 38.0701C34.5601 37.1178 35.9772 36.0019 37.0616 34.5928C37.6936 33.7732 38.0973 32.8085 38.4633 31.8482C39.3983 29.2856 39.6995 26.5576 40.0834 23.8734C40.4408 21.2589 40.9469 18.6673 41.4968 16.0874C42.2844 13.3903 43.0589 10.6678 44.3094 8.141C44.7914 7.18435 45.2988 6.24127 45.7703 5.27968C46.348 4.15453 46.8356 2.9837 47.4781 1.8925C42.3708 1.94805 37.261 2.26096 32.2037 2.99111ZM34.6935 10.9233C32.0389 12.7095 29.5645 14.7487 27.1686 16.8645C23.6975 19.9449 20.414 23.2315 17.2564 26.631C14.0494 30.0805 10.9789 33.6553 7.99905 37.3023C8.6755 38.0306 9.40935 38.7046 10.1969 39.3113C11.6979 37.2869 13.2292 35.2847 14.7919 33.3072C20.488 26.1008 26.5711 19.1919 33.1239 12.7521C33.9121 11.9547 34.7471 11.2054 35.5304 10.4043C35.2323 10.545 34.9724 10.7511 34.6935 10.9233ZM2.00175 44.9457C1.80054 45.2235 1.63637 45.6672 1.89621 45.9579C2.3591 46.3233 2.84114 46.664 3.30959 47.022C3.58794 47.2281 3.93357 47.4447 4.29463 47.3435C4.64829 47.2151 4.8353 46.8609 5.03527 46.5677C6.46902 44.4618 7.94104 42.3813 9.44947 40.3285C8.64588 39.7137 7.89475 39.0336 7.19855 38.2997C5.42719 40.484 3.70151 42.7053 2.00175 44.9457Z" />
<path d="M16.7781 11.8454C17.481 11.7219 18.2223 11.8287 18.8605 12.149C19.6462 12.5379 20.2757 13.2409 20.559 14.0722C20.8602 14.919 20.8003 15.8855 20.3985 16.6898C20.0134 17.4866 19.2987 18.1142 18.4618 18.4006C17.6181 18.6944 16.6565 18.6376 15.8566 18.2377C15.0481 17.8458 14.413 17.1156 14.1321 16.2633C13.8495 15.4257 13.9155 14.4777 14.3111 13.6877C14.7765 12.7261 15.7233 12.0176 16.7781 11.8454ZM16.7947 12.8496C16.1775 12.994 15.6295 13.3958 15.2986 13.9364C14.9005 14.5796 14.8345 15.4171 15.1314 16.1139C15.3369 16.6237 15.7319 17.049 16.2127 17.3119C16.8669 17.6686 17.6897 17.6927 18.3643 17.3755C19.2308 16.9872 19.8097 16.0473 19.7597 15.0968C19.7357 14.379 19.3672 13.6846 18.7889 13.2588C18.2291 12.8347 17.4761 12.6829 16.7947 12.8496Z" />
<path d="M29.5713 21.3082C30.4292 21.0613 31.4044 21.4655 31.8549 22.2315C32.2339 22.8579 32.2364 23.6912 31.8543 24.3176C31.4241 25.0607 30.4959 25.4668 29.6589 25.2644C28.7189 25.0731 28.0048 24.1405 28.0709 23.1832C28.0913 22.3173 28.7375 21.526 29.5713 21.3082ZM29.8021 22.2691C29.3115 22.4037 28.9775 22.9363 29.0683 23.4375C29.1355 24.0257 29.7762 24.4515 30.3459 24.2966C30.897 24.1794 31.2772 23.5689 31.1211 23.0227C30.9958 22.458 30.3545 22.0877 29.8021 22.2691Z" />
<path d="M8.75817 22.6462C9.63583 22.4314 10.6091 22.8881 11.014 23.693C11.3862 24.3892 11.2998 25.2983 10.7962 25.9075C10.2654 26.5876 9.28156 26.8598 8.4792 26.5358C7.65524 26.234 7.09359 25.3538 7.17568 24.4787C7.2269 23.6066 7.90644 22.8283 8.75817 22.6462ZM8.83162 23.6522C8.46192 23.7917 8.1885 24.1528 8.16073 24.5478C8.11814 24.9878 8.38971 25.4365 8.80076 25.6001C9.15503 25.755 9.59139 25.6877 9.88456 25.4359C10.2314 25.1489 10.3555 24.6317 10.1734 24.2194C9.96664 23.7146 9.33834 23.4473 8.83162 23.6522Z" />
<path d="M32.2116 28.0772C32.9554 27.947 33.7423 28.0766 34.4045 28.4407C35.1384 28.84 35.7216 29.5165 35.9901 30.309C36.2895 31.1539 36.2302 32.118 35.8297 32.9203C35.4439 33.7184 34.728 34.3479 33.8898 34.6337C33.0467 34.9268 32.0864 34.8694 31.2877 34.4701C30.4631 34.0714 29.8194 33.3209 29.546 32.4482C29.2756 31.6063 29.3565 30.6595 29.7632 29.8751C30.2366 28.9351 31.1723 28.2463 32.2116 28.0772ZM32.2252 29.0814C31.534 29.2425 30.9328 29.7282 30.6205 30.3633C30.323 30.9749 30.2934 31.7137 30.5594 32.3414C30.7581 32.8389 31.1377 33.2555 31.6006 33.5209C32.2462 33.8906 33.0677 33.9313 33.7478 33.6289C34.6385 33.253 35.2396 32.2988 35.1896 31.3323C35.1662 30.6139 34.7983 29.9183 34.2194 29.4918C33.6602 29.0672 32.9066 28.9153 32.2252 29.0814Z" />
<path d="M25.0534 29.435C25.9446 29.2171 26.934 29.6942 27.3272 30.5206C27.6784 31.2119 27.5845 32.1006 27.0889 32.6975C26.5606 33.3739 25.5842 33.6467 24.7849 33.3295C23.9554 33.032 23.3876 32.1494 23.4691 31.2699C23.5197 30.3972 24.2004 29.617 25.0534 29.435ZM25.1232 30.4422C24.6331 30.6225 24.3375 31.1989 24.4893 31.7019C24.6201 32.2228 25.1948 32.574 25.7194 32.4494C26.2693 32.3475 26.6606 31.7501 26.5267 31.2051C26.4199 30.591 25.6972 30.2028 25.1232 30.4422Z" />
</svg>
