<svg   viewBox="0 0 60 58"  xmlns="http://www.w3.org/2000/svg">
<path fill-rule="evenodd" clip-rule="evenodd" d="M31.8808 10.5234C33.3241 10.1117 35.0372 10.2334 37.0411 10.856C40.1761 11.83 41.9858 13.3956 42.5698 15.523C43.1352 17.5829 42.475 19.932 41.2877 22.3143C40.111 24.69 38.8155 27.0453 37.2114 28.6264C36.4001 29.426 35.4836 30.055 34.4339 30.3788C33.3749 30.7056 32.2286 30.7066 30.9933 30.3228C29.7579 29.939 28.814 29.2887 28.1265 28.4193C27.4452 27.5576 27.0464 26.5201 26.8311 25.4015C26.4052 23.1894 26.6726 20.5142 27.0493 17.8896L27.0511 17.8771L27.0512 17.8771C27.1952 16.9812 27.3708 16.116 27.6222 15.3068C27.7451 14.9112 28.1653 14.6902 28.5609 14.8131C28.9565 14.9359 29.1775 15.3562 29.0546 15.7518C28.8334 16.4638 28.6715 17.2494 28.5332 18.1089C28.1557 20.7405 27.9316 23.1833 28.304 25.1179C28.488 26.0734 28.8112 26.8669 29.3031 27.4889C29.7889 28.1032 30.4694 28.5893 31.4383 28.8903C32.4071 29.1913 33.2433 29.1764 33.9917 28.9455C34.7494 28.7117 35.4654 28.2411 36.1584 27.5581C37.5627 26.174 38.763 24.0319 39.9441 21.6475L39.9449 21.6458C41.0903 19.3479 41.5369 17.4269 41.1233 15.92C40.7281 14.4803 39.4725 13.1821 36.5961 12.2884C34.7527 11.7157 33.3562 11.6624 32.2922 11.9659C31.8939 12.0795 31.4789 11.8487 31.3652 11.4503C31.2516 11.052 31.4824 10.637 31.8808 10.5234Z" />
<path fill-rule="evenodd" clip-rule="evenodd" d="M25.6059 8.93549C27.2925 7.51355 29.6708 7.249 32.8058 8.22297C34.5254 8.7572 35.7324 9.71676 36.4808 10.918C36.6999 11.2695 36.5924 11.7321 36.2409 11.9511C35.8893 12.1702 35.4268 12.0628 35.2077 11.7112C34.6659 10.8417 33.7672 10.0924 32.3608 9.65543C29.4844 8.7618 27.7142 9.12 26.5727 10.0823C25.378 11.0896 24.6575 12.9254 24.2991 15.4678L24.2988 15.4697C23.9208 18.1036 23.696 20.5488 24.0687 22.4849C24.2527 23.4404 24.576 24.2338 25.0678 24.8559C25.5536 25.4702 26.2342 25.9563 27.203 26.2573C27.6013 26.381 27.9602 26.4527 28.282 26.4794C28.6948 26.5135 29.0017 26.8759 28.9676 27.2887C28.9334 27.7015 28.5711 28.0084 28.1583 27.9743C27.7089 27.9371 27.2414 27.8399 26.758 27.6898C25.5226 27.306 24.5787 26.6557 23.8912 25.7863C23.2099 24.9246 22.8111 23.887 22.5958 22.7685C22.17 20.5567 22.4373 17.8818 22.8139 15.2575C23.1855 12.6219 23.9727 10.3124 25.6059 8.93549Z" />
<path fill-rule="evenodd" clip-rule="evenodd" d="M41.5782 12.5185C40.1719 12.0815 39.0067 12.1896 38.0676 12.5991C37.6879 12.7646 37.2459 12.591 37.0804 12.2113C36.9148 11.8316 37.0884 11.3896 37.4681 11.2241C38.7655 10.6585 40.3037 10.5518 42.0233 11.086C45.1583 12.06 46.968 13.6256 47.5519 15.753C48.1174 17.8129 47.4572 20.1621 46.2699 22.5443C45.0932 24.92 43.7977 27.2753 42.1936 28.8564C41.3823 29.656 40.4658 30.285 39.4161 30.6089C38.357 30.9356 37.2108 30.9366 35.9754 30.5528C35.492 30.4026 35.0518 30.2177 34.6604 29.9937C34.3009 29.7879 34.1763 29.3297 34.3821 28.9702C34.5879 28.6107 35.0461 28.4861 35.4056 28.6919C35.6858 28.8523 36.0222 28.9966 36.4205 29.1203C37.3893 29.4213 38.2255 29.4064 38.9739 29.1755C39.7316 28.9417 40.4476 28.4711 41.1406 27.7881C42.5449 26.404 43.7452 24.262 44.9262 21.8775L44.9271 21.8758C46.0725 19.5779 46.5191 17.657 46.1054 16.15C45.7102 14.7103 44.4547 13.4121 41.5782 12.5185Z" />
<path fill-rule="evenodd" clip-rule="evenodd" d="M40.2327 9.33467C40.4629 8.99032 40.9287 8.89778 41.273 9.12798C42.3543 9.85085 43.1485 10.7608 43.4389 11.9515C43.537 12.3539 43.2903 12.7597 42.8879 12.8579C42.4855 12.956 42.0797 12.7093 41.9816 12.3069C41.8082 11.5957 41.323 10.9657 40.4394 10.375C40.095 10.1448 40.0025 9.67903 40.2327 9.33467Z" />
<path fill-rule="evenodd" clip-rule="evenodd" d="M35.6585 7.85803C35.6352 8.27159 35.2811 8.58797 34.8675 8.56469C33.577 8.49203 32.6873 8.75 32.1606 9.24105C31.8577 9.52353 31.3831 9.50693 31.1006 9.20397C30.8181 8.90102 30.8347 8.42643 31.1377 8.14396C32.0958 7.25063 33.4783 6.9841 34.9519 7.06706C35.3654 7.09034 35.6818 7.44448 35.6585 7.85803Z" />
<path fill-rule="evenodd" clip-rule="evenodd" d="M36.4214 7.4941C37.0921 5.33518 39.4034 4.11961 41.5623 4.79033L42.3638 5.03935C42.7594 5.16224 42.9804 5.58253 42.8575 5.97809L42.235 7.98191C42.1121 8.37747 41.6918 8.59852 41.2963 8.47562C40.5697 8.2499 39.8344 8.63661 39.6087 9.36319C39.4641 9.8285 39.4644 10.1032 39.5084 10.2897C39.5517 10.4728 39.6584 10.6625 39.9068 10.9225C40.1929 11.2221 40.182 11.6968 39.8824 11.9829C39.5829 12.269 39.1082 12.2581 38.8221 11.9586C38.4736 11.5937 38.1762 11.1746 38.0486 10.6345C37.9218 10.0977 37.9846 9.53491 38.1762 8.91816C38.5705 7.64895 39.7372 6.86152 40.9962 6.91345L41.2026 6.24929L41.1173 6.2228C39.7495 5.79786 38.2788 6.57133 37.8539 7.93913C37.5671 8.86217 37.2664 9.4704 36.8194 9.91708C36.4613 10.2749 36.0277 10.4967 35.6252 10.7026C35.5533 10.7394 35.4823 10.7757 35.4129 10.8122C35.0463 11.005 34.5928 10.8641 34.4 10.4975C34.2072 10.1309 34.3481 9.67744 34.7147 9.48464C34.8146 9.43208 34.9044 9.38551 34.9856 9.34335C35.3868 9.13524 35.5801 9.03498 35.7591 8.8561C35.9494 8.66584 36.1603 8.33441 36.4214 7.4941Z" />
<path fill-rule="evenodd" clip-rule="evenodd" d="M33.6906 29.5434L32.1265 28.5207L32.1192 28.4648C31.6035 28.1712 31.0845 27.9224 30.5634 27.7086L30.5675 27.7006L30.5324 27.7086L28.848 27.1372L28.8077 27.1097C27.5059 26.7444 26.2015 26.5298 24.9155 26.3184L24.9074 26.3171L24.9069 26.317C24.3911 26.2322 23.8715 26.1467 23.3487 26.0511L23.2535 26.1145L21.509 25.6333L21.4987 25.621L21.4823 25.6531C20.1697 25.3231 18.8428 24.8612 17.5112 24.1225C14.4547 22.4267 12.8482 19.0868 12.03 16.508L11.9743 16.4595L10.9216 14.3541L10.9189 14.3241C9.82329 12.9604 8.15415 12.1289 6.31573 12.1289H1.89825C1.3998 12.1289 0.995914 12.5329 0.995914 13.0312V56.644H59.4349C59.3569 55.0606 58.8801 51.8621 56.4461 49.509C53.2277 46.3973 50.4967 46.1173 47.8557 45.8465L47.8553 45.8465C46.5449 45.7121 45.1895 45.5732 43.7408 45.0781C41.7874 44.4106 40.6078 41.551 39.3588 38.5234L39.3588 38.5234L39.3588 38.5233C39.1381 37.9883 38.9099 37.4351 38.674 36.8846C38.4775 36.4268 37.9475 36.2141 37.489 36.4109C37.031 36.6074 36.8189 37.1378 37.0152 37.5958C37.2464 38.1348 37.4722 38.6822 37.6905 39.2116C39.0995 42.6276 40.4306 45.8543 43.1573 46.7859C44.8008 47.3476 46.2602 47.4972 47.6716 47.642C50.2207 47.9033 52.4222 48.129 55.1918 50.8065C57.136 52.6861 57.5484 55.3147 57.6265 56.644H2.80059V13.9336H6.31584C8.05386 13.9336 9.574 15.0037 10.1689 16.6199C11.3132 20.3325 13.2552 23.8251 16.6358 25.7006C19.4157 27.2428 22.0628 27.6782 24.6226 28.0991L24.6229 28.0992C27.5536 28.5809 30.3216 29.0362 32.9108 31.2073C33.7897 31.9442 34.5831 32.9194 35.3369 34.1889C35.5914 34.6175 36.1448 34.7586 36.5735 34.5041C37.0019 34.2496 37.143 33.6961 36.8887 33.2675C36.0293 31.8203 35.1075 30.6942 34.0703 29.8244C33.9549 29.7278 33.8394 29.6342 33.7236 29.5434C33.7126 29.5434 33.7016 29.5434 33.6906 29.5434Z" />
<path d="M0.995911 55.9248H59.4349V57.5481H0.995911V55.9248Z" />
</svg>
