<svg   viewBox="0 0 48 60"  xmlns="http://www.w3.org/2000/svg">
<path d="M30.8083 0.885114C32.3117 0.0218341 34.1151 -0.0842466 35.8075 0.0462208C37.3183 0.165714 38.8802 0.708312 39.8837 1.89349C40.58 2.71532 41.0799 3.71394 41.303 4.76743C41.3433 5.26248 40.8677 5.55512 40.4251 5.56853C41.2738 5.78923 42.187 6.22209 42.5589 7.06829C42.9381 7.98401 42.5516 8.98995 42.0639 9.7825C42.2699 10.4385 42.287 11.1372 42.1285 11.8054C42.4443 12.0992 42.7333 12.4467 42.8308 12.8796C43.132 14.1269 42.665 15.6682 41.4347 16.2352C40.9555 17.7215 40.0642 19.064 38.9058 20.1077C39.0741 20.7674 39.5435 21.3734 40.2337 21.5282C41.603 21.8038 42.9893 21.994 44.3611 22.2586C46.0169 22.6634 47.2338 24.2888 47.2509 25.98C47.2521 27.3225 47.2582 28.6661 47.2484 30.0086C47.2789 30.5183 46.6644 30.8914 46.2169 30.661C45.9096 30.5402 45.7731 30.1976 45.7901 29.8867C45.7804 28.5832 45.7987 27.281 45.7852 25.9788C45.7718 24.8838 44.9403 23.834 43.849 23.6486C42.6833 23.4535 41.5201 23.2377 40.3519 23.0573C39.0485 23.8645 37.867 24.9521 36.3501 25.3411C34.6577 25.7946 32.7714 25.4825 31.3265 24.4875C30.6254 24.0047 29.9097 23.545 29.2159 23.0536C27.8722 23.2865 26.5248 23.495 25.1897 23.7693C24.8239 23.8267 24.4617 23.5365 24.4179 23.1719C24.3288 22.7256 24.7129 22.3354 25.136 22.2769C26.5334 22.0099 27.9417 21.8026 29.3378 21.5368C30.006 21.3953 30.4974 20.821 30.6498 20.1711C29.4354 19.1189 28.5294 17.7288 28.0185 16.2071C26.4383 15.4584 26.0298 13.0369 27.2625 11.8029C27.2906 11.5005 27.1723 11.1774 27.1906 10.8628C27.1686 10.4678 27.3296 10.0934 27.3564 9.70447C26.9492 8.93995 26.5761 8.05107 26.8845 7.17925C27.1882 6.27208 28.1343 5.84288 28.983 5.58316C28.5257 5.53561 28.0624 5.14299 28.2197 4.64428C28.5916 3.1433 29.4463 1.68377 30.8083 0.885114ZM31.585 2.12638C30.7022 2.63484 30.1206 3.53958 29.7963 4.48577C29.6634 4.83572 29.6122 5.26736 29.2537 5.46976C29.4841 5.43075 29.7402 5.34905 29.9475 5.50756C30.412 5.74167 30.4498 6.49156 29.9902 6.75005C29.4695 7.01952 28.8355 7.07561 28.3855 7.47555C28.0539 7.845 28.3538 8.35834 28.4928 8.74608C30.4706 7.95962 32.5702 7.38776 34.7101 7.36459C36.8598 7.44141 38.9827 7.96328 40.9787 8.7534C41.1372 8.3559 41.4554 7.79135 41.0518 7.43775C40.2703 6.90734 39.3155 6.70372 38.3864 6.64153C38.0413 6.62934 37.7463 6.33061 37.7255 5.98919C37.6829 5.57097 38.0633 5.16737 38.4852 5.19298C39.1034 5.20029 39.7155 5.32345 40.3081 5.49049C40.0898 5.34905 39.891 5.16737 39.8411 4.90156C39.5448 3.9005 39.029 2.91163 38.1608 2.29465C37.1902 1.63378 35.9807 1.47649 34.8333 1.46063C33.7249 1.46063 32.5678 1.57037 31.585 2.12638ZM29.3171 9.99223C29.1293 10.08 28.905 10.1264 28.7623 10.2849C28.6148 10.608 28.6611 10.9713 28.6904 11.314C29.4171 11.3359 30.017 11.7627 30.623 12.1102C30.5852 12.6625 30.6474 13.3502 31.1948 13.6417C31.796 13.8806 32.4922 13.7672 33.058 13.4807C34.1237 12.9844 35.3991 13.0161 36.4623 13.5014C37.0244 13.7807 37.7255 13.8843 38.3096 13.6161C38.8327 13.3088 38.8546 12.6296 38.8461 12.0931C39.446 11.7493 40.0544 11.3798 40.7592 11.3091C40.7872 10.9335 40.7592 10.5556 40.6531 10.1934C38.7595 9.435 36.7476 8.90581 34.7016 8.83021C32.8519 8.8546 31.0376 9.33867 29.3171 9.99223ZM28.0563 13.2295C27.9466 13.7453 28.0429 14.3415 28.4075 14.7403C28.6708 14.9366 29.0269 14.8768 29.3342 14.9256C29.3159 15.3694 29.3939 15.8108 29.5805 16.2156C30.3047 18.0739 31.835 19.5346 33.6176 20.3833C34.3468 20.6845 35.1979 20.6686 35.9209 20.3528C37.328 19.6615 38.59 18.6153 39.3814 17.2472C39.7764 16.5339 40.1825 15.7657 40.1288 14.9256C40.4751 14.8695 40.9202 14.9561 41.1567 14.6317C41.464 14.2306 41.5188 13.6685 41.3908 13.1905C41.1957 12.754 40.6373 12.7369 40.2776 12.9723C40.1349 13.9026 39.524 14.7976 38.5986 15.0841C37.7304 15.3329 36.7647 15.2707 35.949 14.8756C35.2125 14.5074 34.3139 14.4854 33.5713 14.85C32.7714 15.2585 31.824 15.3219 30.9583 15.1146C29.9731 14.8598 29.3098 13.916 29.1769 12.9393C28.805 12.7186 28.1953 12.7503 28.0563 13.2295ZM30.8754 22.4147C31.4058 22.7658 31.913 23.1511 32.4629 23.4718C33.5652 24.1022 34.926 24.2534 36.138 23.8803C37.1086 23.6072 37.8779 22.9256 38.7168 22.4013C38.2657 22.0391 37.906 21.5709 37.6938 21.032C36.9671 21.488 36.1977 21.9294 35.3271 22.0233C34.109 22.2098 32.8787 21.8001 31.8947 21.0917C31.646 21.5965 31.2997 22.0452 30.8754 22.4147Z" />
<path d="M29.511 10.0447C29.7109 9.91296 29.9633 9.94711 30.1913 9.94345C31.2241 9.98734 32.2605 10.0922 33.264 10.3495C33.7444 10.469 34.209 10.6811 34.7126 10.6824C35.2991 10.6994 35.8331 10.4251 36.3965 10.3068C37.4402 10.0678 38.5132 9.94832 39.5826 9.94467C40.0459 9.91175 40.4214 10.4104 40.291 10.8494C40.2276 11.1762 39.9081 11.403 39.5826 11.3993C38.729 11.4298 37.8755 11.4908 37.0378 11.6627C36.2587 11.8066 35.5222 12.1809 34.715 12.1455C33.87 12.1651 33.1067 11.7554 32.2849 11.631C31.4558 11.4664 30.6083 11.4383 29.7682 11.3847C29.122 11.3188 28.9598 10.3556 29.511 10.0447Z" />
<path d="M9.84086 28.9161C10.7346 27.9248 12.0417 27.3152 13.3806 27.3115C19.5552 27.3042 25.7298 27.3103 31.9045 27.3078C32.7166 27.3237 33.542 27.2457 34.3431 27.4273C35.4564 27.6797 36.4916 28.3345 37.139 29.2819C38.3864 31.612 39.5655 33.98 40.8189 36.3077C42.1565 36.293 43.4941 36.3003 44.8317 36.3016C45.6889 36.2894 46.4864 36.9576 46.6351 37.7989C46.7168 38.4061 46.6546 39.0231 46.6741 39.6352C46.6729 40.2973 46.7558 41.0411 46.3071 41.5922C45.6755 42.3092 44.9951 42.9847 44.3586 43.6992C44.3538 46.9804 44.3586 50.2628 44.3562 53.544C44.355 54.4 44.3745 55.2596 44.294 56.1131C44.1184 57.7165 42.9345 59.1395 41.4115 59.6479C40.3934 60.0015 39.2485 59.9393 38.2669 59.4992C36.8391 58.8688 35.849 57.419 35.7271 55.8692C27.4686 55.8692 19.2101 55.8741 10.9517 55.8668C10.8553 56.8374 10.4761 57.7872 9.79818 58.4969C8.91539 59.4492 7.58999 59.982 6.29263 59.8637C4.89041 59.7601 3.58452 58.9017 2.89926 57.6787C2.40909 56.8752 2.32618 55.9192 2.32374 54.9999C2.31277 51.3017 2.32618 47.6035 2.31764 43.9065C2.34813 43.7224 2.20181 43.598 2.09451 43.4773C1.54703 42.8883 0.987364 42.3104 0.450862 41.7117C0.117987 41.3508 -0.0124806 40.8508 0.000931895 40.3692C0.0106865 39.5937 -0.0124808 38.8195 0.0131249 38.0452C0.0545819 37.1222 0.870309 36.3101 1.79943 36.3016C3.15776 36.2955 4.51608 36.304 5.87562 36.2991C6.8901 34.3823 7.88873 32.4558 8.89832 30.5354C9.21291 29.9964 9.42019 29.388 9.84086 28.9161ZM12.1624 29.0271C11.5516 29.3014 10.9468 29.7062 10.6578 30.333C9.43848 32.6485 8.23135 34.9701 7.01447 37.2856C6.8901 37.5709 6.61087 37.7672 6.29629 37.7586C4.83188 37.7782 3.36626 37.7513 1.90186 37.7684C1.65189 37.7184 1.46778 37.9586 1.47387 38.1879C1.4507 38.8353 1.47753 39.484 1.4629 40.1327C1.47265 40.357 1.42388 40.6216 1.60556 40.796C2.24692 41.5361 2.95169 42.2201 3.59427 42.9591C3.78083 43.1456 3.78571 43.4163 3.78693 43.6638C3.78083 46.55 3.78571 49.4361 3.78449 52.3222C3.78815 53.4964 3.76498 54.6731 3.82716 55.8473C3.90764 57.0593 4.89529 58.1091 6.0695 58.3542C6.86937 58.531 7.73143 58.3213 8.37645 57.8214C9.00196 57.3617 9.35557 56.6216 9.48848 55.8717C8.58862 55.8595 7.68754 55.8912 6.7889 55.8595C6.40847 55.8595 6.10973 55.4925 6.11827 55.1255C6.1073 54.7133 6.49748 54.3792 6.89985 54.4085C17.675 54.4036 28.4489 54.4121 39.2229 54.4048C39.6143 54.4134 40.1008 54.3305 40.3727 54.6865C40.7482 55.1108 40.4093 55.8692 39.8398 55.8607C38.9607 55.89 38.0791 55.8595 37.1988 55.8717C37.3317 57.2007 38.4852 58.3262 39.8215 58.4066C41.2494 58.5444 42.6516 57.4178 42.8308 55.9973C42.882 55.423 42.8845 54.8462 42.8942 54.2719C42.8906 50.7359 42.8967 47.1999 42.8906 43.665C42.904 43.4334 42.8735 43.1676 43.0357 42.9786C43.7319 42.1714 44.522 41.441 45.1866 40.6119C45.2353 39.7974 45.2097 38.9768 45.2 38.1622C45.2134 37.8989 44.9512 37.7269 44.7098 37.7647C43.2905 37.7574 41.8712 37.7696 40.4519 37.7635C40.1398 37.7806 39.8252 37.6257 39.6899 37.3368C38.451 34.9615 37.2171 32.5826 35.9831 30.205C35.4161 29.2783 34.3139 28.7576 33.2433 28.7735C26.8626 28.7698 20.4819 28.7747 14.1012 28.771C13.4488 28.7625 12.7697 28.7527 12.1624 29.0271Z" />
<path d="M10.0018 36.4052C10.2054 36.2722 10.4578 36.3052 10.6883 36.2966C19.2235 36.3076 27.7588 36.2942 36.294 36.3027C36.8257 36.2613 37.1927 36.9173 36.933 37.3648C36.7866 37.7062 36.3831 37.7879 36.049 37.7659C27.5137 37.7586 18.9772 37.7708 10.442 37.7598C9.71161 37.844 9.35923 36.76 10.0018 36.4052Z" />
<path d="M13.6586 39.1913C13.9085 39.084 14.2146 39.1218 14.4206 39.3047C15.0596 39.8485 15.6534 40.4448 16.2862 40.9959C16.8264 41.4617 17.5458 41.6763 18.2517 41.68C21.7866 41.6812 25.3214 41.68 28.8562 41.6812C29.511 41.6922 30.1852 41.5324 30.7156 41.1349C31.4302 40.5509 32.0703 39.8815 32.7739 39.284C33.1787 38.9267 33.9115 39.2364 33.9383 39.7766C34.0164 40.2668 33.5274 40.5472 33.2299 40.8435C32.4361 41.5068 31.7643 42.364 30.7876 42.7713C30.1804 43.0358 29.5158 43.1492 28.855 43.1444C25.3201 43.1444 21.7853 43.1444 18.2505 43.1444C17.1263 43.1541 16.0058 42.731 15.1778 41.9702C14.6072 41.4434 14.0268 40.9252 13.461 40.3948C13.0769 40.0668 13.2013 39.3864 13.6586 39.1913Z" />
<path d="M6.14631 46.2232C6.23532 45.8452 6.65355 45.6233 7.023 45.7037C8.56667 45.911 10.1079 46.1268 11.6515 46.3354C13.1745 46.4439 14.5304 47.7181 14.6474 49.2556C14.6925 50.0165 14.6535 50.7798 14.6657 51.5419C12.1185 51.5431 9.57261 51.5406 7.02666 51.5443C6.8084 51.5382 6.56332 51.5358 6.39139 51.3797C6.0573 51.1248 6.02438 50.5749 6.33043 50.2872C6.50845 50.1006 6.77792 50.0726 7.02178 50.0762C9.08366 50.0799 11.1443 50.0787 13.2062 50.0774C13.205 49.6129 13.2269 49.113 12.9672 48.7045C12.6977 48.2351 12.2161 47.8851 11.6723 47.8193C10.0384 47.5827 8.40084 47.3779 6.76695 47.1438C6.33409 47.1108 6.01219 46.6377 6.14631 46.2232Z" />
<path d="M34.815 46.3963C36.4465 46.1756 38.0767 45.9378 39.7106 45.7305C40.1471 45.633 40.5836 46.0305 40.5592 46.4694C40.5629 46.8169 40.2727 47.1242 39.9325 47.1681C38.3096 47.401 36.683 47.6107 35.0589 47.8375C34.5053 47.9143 33.9578 48.2228 33.703 48.7374C33.4555 49.1495 33.4701 49.6445 33.4677 50.1091C35.549 50.1103 37.6292 50.1091 39.7106 50.1091C40.0995 50.0628 40.4946 50.3505 40.5227 50.7505C40.5934 51.2053 40.1727 51.6113 39.724 51.5711C37.1537 51.5759 34.5809 51.5711 32.0106 51.5735C32.0703 50.4298 31.813 49.2007 32.3617 48.1399C32.8178 47.1925 33.7761 46.5292 34.815 46.3963Z" />
<path d="M20.2307 50.1652C20.4136 50.0957 20.6136 50.1128 20.805 50.1055C22.595 50.1177 24.3849 50.0994 26.1749 50.114C26.6931 50.0738 27.0613 50.7029 26.8224 51.148C26.6834 51.4333 26.3712 51.5918 26.0591 51.5723C24.2679 51.576 22.4767 51.5723 20.6855 51.5735C20.4002 51.5845 20.0905 51.5089 19.921 51.2614C19.6369 50.9066 19.8125 50.3249 20.2307 50.1652Z" />
</svg>
