<svg   viewBox="0 0 62 42"  xmlns="http://www.w3.org/2000/svg">
<path d="M19.3539 1.11911C19.9549 0.419012 20.8685 -0.0331625 21.7993 0.0019041C23.4628 0.00682573 25.1263 -0.00178714 26.7898 0.00621051C27.8683 0.0351251 28.8299 0.961006 28.9018 2.037C28.916 2.61406 28.9609 3.22372 28.6988 3.75834C28.3691 4.47197 27.6284 4.97459 26.8409 5.00351C26.0639 5.02135 25.2857 5.02135 24.5087 5.03857C24.1906 5.04288 23.9267 5.26497 23.7637 5.52212C20.8747 9.80456 18.001 14.0974 15.109 18.378C15.9463 18.4285 16.7602 18.805 17.3262 19.4263C17.8694 20.0071 18.1838 20.7958 18.1819 21.5919C18.1807 23.9776 18.1819 26.364 18.1813 28.7497C18.7836 28.7091 19.4129 28.7996 19.9199 29.1472C20.5818 29.5747 21.0155 30.3419 21.0192 31.133C21.0186 31.7476 21.0211 32.3622 21.018 32.9768C20.9971 33.8578 20.4373 34.6883 19.6443 35.0642C19.3047 35.2352 18.9232 35.309 18.5449 35.3084C17.2923 35.3072 16.0398 35.3103 14.7872 35.3066C14.3271 35.3275 13.9069 34.9165 13.9278 34.4551C13.9149 33.9993 14.3344 33.6037 14.7848 33.6172C16.0582 33.6135 17.3317 33.6185 18.6052 33.6154C19.0051 33.6246 19.3514 33.2493 19.3348 32.8544C19.333 32.2798 19.3403 31.7052 19.3311 31.1312C19.3164 30.7319 18.9362 30.404 18.54 30.4329C12.6543 30.4323 6.76867 30.4323 0.883015 30.4329C0.47575 30.4496 0.0961692 30.1235 0.0420313 29.7218C-0.0391756 29.2813 0.298571 28.8193 0.740288 28.759C0.932231 28.7374 1.12663 28.7504 1.31919 28.7485C6.38909 28.7485 11.4584 28.7485 16.5276 28.7479C16.527 26.3658 16.5307 23.9831 16.5258 21.6005C16.5363 20.8019 15.8392 20.0778 15.0388 20.0692C10.3215 20.0618 5.60347 20.0692 0.885476 20.0655C0.466522 20.0834 0.0770979 19.7401 0.0377249 19.3236C-0.0317931 18.8622 0.3564 18.3928 0.825185 18.3854C1.26506 18.3743 1.70493 18.3879 2.14541 18.3805C4.91567 15.5905 7.70562 12.8191 10.4722 10.0254C13.4264 7.05029 16.3972 4.09178 19.3539 1.11911ZM20.5824 2.28862C17.7531 5.13762 14.9047 7.96879 12.0779 10.8209C9.57338 13.3487 7.04858 15.8575 4.5404 18.3823C7.38879 18.3805 10.2372 18.3854 13.0856 18.3799C16.2243 13.6982 19.3674 9.02017 22.505 4.33786C22.978 3.69436 23.7772 3.30432 24.5751 3.31662C25.2937 3.31662 26.0122 3.32031 26.7302 3.31601C26.9646 3.31908 27.1664 3.12406 27.2371 2.91243C27.2728 2.66512 27.2586 2.41166 27.2476 2.1625C27.2229 1.87766 26.9424 1.66849 26.6643 1.68756C25.023 1.68695 23.381 1.68756 21.7396 1.68695C21.2838 1.6851 20.8636 1.94164 20.5824 2.28862Z" />
<path d="M25.5195 5.25946C26.0178 5.10504 26.5721 5.52276 26.5776 6.03954C26.5813 11.0817 26.5776 16.124 26.5795 21.1662C26.5727 21.4313 26.617 21.7205 26.4736 21.9598C26.2632 22.3344 25.7409 22.4759 25.3632 22.2803C25.0864 22.148 24.8956 21.8509 24.895 21.5433C24.8944 16.3922 24.8956 11.2417 24.8944 6.0906C24.8778 5.71163 25.1583 5.35789 25.5195 5.25946Z" />
<path d="M29.3879 20.199C30.3137 19.3987 31.6038 19.0874 32.8047 19.2418C33.3012 19.323 33.7927 19.4288 34.2867 19.5254C38.3994 20.3325 42.5114 21.1434 46.624 21.9499C47.3986 22.1295 48.2051 22.2071 48.995 22.092C51.2276 21.7857 53.4608 21.4836 55.694 21.1797C57.3673 20.9231 59.0794 20.9065 60.7577 21.1292C61.0776 21.1895 61.4541 21.1895 61.6873 21.4516C62.0103 21.7635 61.9893 22.335 61.6571 22.6328C61.459 22.834 61.1588 22.9287 60.882 22.8684C59.889 22.6512 58.8666 22.6352 57.8545 22.6537C57.1772 22.6697 56.5029 22.738 55.8336 22.8395C53.6601 23.1342 51.4866 23.4301 49.3131 23.726C48.7809 23.8097 48.2408 23.849 47.7025 23.8127C47.1014 23.7912 46.5157 23.6466 45.9282 23.5334C41.7596 22.7146 37.5916 21.8939 33.423 21.0757C32.9019 20.9773 32.3765 20.8235 31.8407 20.8979C31.2679 20.9724 30.6558 21.176 30.2904 21.6497C30.0277 22.0926 29.7994 22.5565 29.5404 23.0019C29.2328 23.5138 28.6047 23.782 28.0196 23.71C27.7114 23.6657 27.3884 23.79 27.207 24.0465C26.9227 24.4427 26.9437 24.9558 26.8446 25.4147C26.6176 26.4064 27.159 27.4947 28.0467 27.9672C28.6576 28.2416 29.2747 28.5031 29.8886 28.7707C30.1083 28.855 30.331 28.9774 30.4411 29.1976C30.6423 29.56 30.5254 30.0558 30.1809 30.2884C29.9563 30.4539 29.6462 30.4779 29.394 30.364C28.8083 30.1137 28.227 29.8522 27.6413 29.603C25.9193 28.9128 24.8317 26.9214 25.1977 25.0998C25.2949 24.5836 25.322 24.0447 25.5502 23.563C25.8141 22.9496 26.3112 22.431 26.9357 22.1818C27.3269 22.0157 27.7576 21.9671 28.1796 21.9881C28.5647 21.3815 28.8286 20.6758 29.3879 20.199Z" />
<path d="M51.9104 24.4581C52.226 24.3517 52.5429 24.4913 52.8419 24.5873C54.4808 25.1182 56.1197 25.6479 57.7598 26.1757C58.0354 26.268 58.3504 26.3265 58.5417 26.567C58.7761 26.8278 58.8309 27.2431 58.6395 27.5433C58.4562 27.8657 58.0409 28.0367 57.686 27.9223C55.841 27.3243 53.9948 26.73 52.1491 26.1333C51.8908 26.0601 51.6016 25.9672 51.4644 25.7156C51.1857 25.2781 51.3931 24.599 51.9104 24.4581Z" />
<path d="M35.8616 25.6417C37.9705 25.4043 40.1551 26.4575 41.2957 28.244C41.9343 29.2216 42.2604 30.4003 42.2148 31.5674C42.1675 32.7929 41.7128 33.9956 40.9512 34.9559C40.2868 35.7809 39.3997 36.4312 38.3993 36.7843C37.351 37.1663 36.1901 37.2352 35.1055 36.9695C33.8708 36.6656 32.7284 35.963 31.9366 34.9633C31.3473 34.2324 30.9572 33.3484 30.7844 32.4274C30.5321 31.0328 30.8047 29.5464 31.554 28.3412C32.47 26.8389 34.1108 25.8134 35.8616 25.6417ZM35.9256 27.3003C34.2424 27.4941 32.7715 28.8488 32.4503 30.5148C32.2418 31.5249 32.4233 32.6181 32.9739 33.4942C33.5731 34.489 34.6269 35.1737 35.7632 35.381C36.7334 35.552 37.7663 35.3564 38.5999 34.8292C39.3855 34.3426 40.0013 33.5846 40.3083 32.7123C40.5821 31.9328 40.6073 31.0691 40.3803 30.2748C40.1096 29.309 39.4753 28.4464 38.6214 27.9161C37.8309 27.4037 36.8607 27.1779 35.9256 27.3003Z" />
<path d="M5.08362 31.5735C6.76313 30.3923 9.09598 30.2428 10.9133 31.197C12.0896 31.7913 13.0425 32.8107 13.5636 34.0202C13.9302 34.8692 14.0871 35.8074 14.0127 36.7289C13.9223 38.0036 13.3735 39.2353 12.5048 40.1704C11.8275 40.9031 10.9551 41.4549 10.0009 41.7459C8.65734 42.1643 7.15747 42.0646 5.88708 41.4574C4.84554 40.9695 3.9578 40.1593 3.38012 39.1645C2.6265 37.896 2.41426 36.3291 2.76923 34.8999C2.61051 35.1343 2.34781 35.3017 2.0599 35.306C1.62864 35.3078 1.19738 35.3158 0.766126 35.3017C0.298571 35.2746 -0.0699362 34.7935 0.0112707 34.3352C0.0654086 33.9396 0.428379 33.6191 0.828261 33.6191C1.25521 33.6154 1.68339 33.6092 2.11034 33.6222C2.55145 33.6425 2.88981 34.0522 2.89657 34.4816C3.27985 33.3072 4.06485 32.2712 5.08362 31.5735ZM7.8668 32.2835C6.95323 32.3831 6.07841 32.8076 5.43921 33.4677C4.79386 34.1229 4.38291 35.0045 4.30601 35.9212C4.23403 36.7025 4.3946 37.5053 4.77172 38.195C5.27926 39.1504 6.19345 39.8825 7.23807 40.1661C8.16026 40.4232 9.17719 40.342 10.0391 39.9231C10.9982 39.4746 11.7666 38.6293 12.1129 37.6284C12.3615 36.9289 12.4113 36.1599 12.252 35.4346C12.0385 34.4158 11.4048 33.4973 10.5368 32.9258C9.7604 32.4041 8.79453 32.1783 7.8668 32.2835Z" />
<path d="M41.9398 34.1752C42.1736 34.0793 42.44 34.0996 42.667 34.206C45.497 35.4161 48.33 36.6194 51.1593 37.8308C51.5998 38.0123 51.7905 38.5899 51.5739 39.0077C51.4048 39.3436 50.9772 39.5527 50.6142 39.4186C50.4038 39.3485 50.2033 39.2525 49.999 39.167C47.4145 38.0621 44.8276 36.9621 42.2431 35.8572C41.9971 35.7495 41.7048 35.6696 41.5627 35.4204C41.2853 35.0033 41.4692 34.3617 41.9398 34.1752Z" />
</svg>
