<svg   viewBox="0 0 39 66"  xmlns="http://www.w3.org/2000/svg">
<path d="M24.5331 0.25C25.41 0.83072 26.3464 1.32737 27.1638 1.99733C29.7363 4.06413 31.2496 7.38678 31.0789 10.6874C31.0181 12.0312 30.5382 13.2987 30.1864 14.5843C29.9084 15.5259 30.7038 16.5283 31.6622 16.5619C32.3282 16.6123 32.8559 16.1299 33.2957 15.6953C34.7481 14.1459 35.4685 12.1037 36.1023 10.1184C36.4321 10.7495 36.7192 11.4014 37.0503 12.0312C38.2234 14.4485 38.8675 17.2383 38.27 19.904C37.6711 22.5204 36.0803 24.82 34.1364 26.6281C33.7251 27.0369 32.9387 26.7743 32.8559 26.2026C32.7331 25.6698 33.2595 25.3529 33.5699 25.0179C35.1142 23.4387 36.3868 21.4922 36.8085 19.2961C37.1421 17.5668 36.833 15.7872 36.2691 14.1407C35.9005 14.6089 35.6832 15.1754 35.3198 15.6501C34.6046 16.6498 33.7186 17.6638 32.5016 18.0286C30.9728 18.4748 29.2888 17.4802 28.7702 16.0135C28.5154 15.3448 28.5426 14.596 28.7547 13.9196C29.1349 12.6158 29.607 11.3005 29.5423 9.92177C29.4466 7.59113 28.4456 5.28506 26.7267 3.69423C26.8198 6.12575 26.5392 8.6698 25.3312 10.8245C24.7052 11.9498 23.633 12.8887 22.3305 13.0905C21.3347 13.2742 20.265 12.9146 19.5822 12.1671C18.7596 11.2669 18.4453 9.97351 18.6328 8.78361C18.7906 7.76703 19.1709 6.80477 19.5796 5.86708C17.377 6.53057 15.4628 8.12012 14.4863 10.2128C13.7775 11.5876 13.5564 13.1862 13.8978 14.6982C14.0724 15.2918 13.3533 15.848 12.8192 15.5634C12.2824 15.3306 12.3341 14.6607 12.2462 14.1808C11.9397 11.9924 12.7338 9.80149 13.9793 8.02829C15.3322 6.15679 17.3679 4.791 19.6171 4.26331C20.5651 4.02274 21.5481 3.99946 22.5155 3.88694C21.4963 5.44415 20.5315 7.09577 20.1784 8.94658C20.0219 9.76657 20.2392 10.7017 20.8897 11.2578C21.3114 11.6458 21.9529 11.6432 22.4664 11.4622C23.2152 11.1854 23.7532 10.5335 24.1012 9.8377C25.0026 8.07744 25.2277 6.05462 25.1863 4.10293C25.1695 2.79017 24.8099 1.52267 24.5331 0.25Z" />
<path d="M6.66923 13.5977C6.79727 13.0933 7.50216 12.9381 7.86947 13.286C8.12297 13.458 8.10874 13.7904 8.18505 14.0556C8.80457 16.8001 11.3253 19.1268 14.207 19.1152C15.6685 19.1191 17.13 19.1152 18.5915 19.1165C20.3478 19.1217 22.0693 18.3004 23.2101 16.9721C24.0326 16.0435 24.6004 14.8949 24.85 13.6805C24.9238 13.0118 26.0296 12.876 26.2482 13.5162C26.8522 16.0176 26.2365 18.7673 24.6496 20.7914C25.9352 19.8446 27.6372 19.445 29.1944 19.8485C29.5618 19.9287 29.8256 20.2624 29.8761 20.6258C30.1347 21.9839 29.8955 23.4493 29.144 24.6185C28.4275 25.7618 27.2712 26.618 25.9675 26.9711C26.3736 27.394 26.8729 27.7148 27.2712 28.1467C29.5708 30.3261 31.1798 33.2167 31.8355 36.3156C32.7059 40.3095 31.9454 44.641 29.7325 48.0826C27.0824 52.3378 25.5135 57.2772 25.3376 62.2941C25.3105 63.0339 25.304 63.7737 25.3092 64.5135C25.3273 64.9184 24.9613 65.2702 24.5577 65.2404C22.9992 65.243 21.4407 65.2443 19.8822 65.2391C19.4929 65.2533 19.1903 64.8653 19.1968 64.4967C19.1916 61.3836 19.1955 58.2718 19.1942 55.1586C17.377 55.4587 15.5158 55.4548 13.6974 55.1625C13.6948 58.2769 13.7025 61.3927 13.6948 64.5084C13.7194 64.9235 13.3223 65.2921 12.9097 65.2417C11.3978 65.243 9.88453 65.2404 8.37259 65.2456C7.88887 65.3025 7.52285 64.8214 7.58105 64.3674C7.73496 58.9547 6.37046 53.4967 3.59103 48.8431C3.07368 47.9688 2.51236 47.1165 2.114 46.1788C0.690011 43.0553 0.340803 39.4611 1.10777 36.1177C1.91095 32.508 4.03724 29.2164 6.97834 26.9788C5.72637 26.627 4.6089 25.8433 3.88591 24.7594C3.02583 23.4971 2.69214 21.8623 3.09179 20.3788C3.16034 20.1007 3.38668 19.8628 3.67122 19.8046C5.21549 19.3545 6.93049 19.7308 8.21739 20.675C6.72743 18.678 6.1299 16.0344 6.66923 13.5977ZM8.19928 17.4791C8.58988 18.8281 9.38012 20.0477 10.4407 20.966C10.764 20.6388 11.0887 20.3128 11.4417 20.0167C10.1768 19.4385 9.07489 18.5565 8.19928 17.4791ZM24.6522 17.4972C23.8257 18.5772 22.7289 19.4308 21.5028 20.0128C21.8624 20.2909 22.1935 20.6051 22.4599 20.9763C23.4804 20.0451 24.3262 18.8539 24.6522 17.4972ZM11.0848 22.8414C10.8041 23.5941 10.9386 24.4025 11.0731 25.1694C11.4573 27.7031 11.8466 30.2355 12.2216 32.7718C12.6472 32.6076 13.0972 32.5157 13.5551 32.5209C15.4499 32.5183 17.3459 32.5183 19.2407 32.5196C19.7076 32.5119 20.1707 32.5933 20.6104 32.7511C21.0579 29.9277 21.5248 27.1056 21.9464 24.2783C22.1974 22.4754 20.6983 20.6142 18.8566 20.5922C17.2619 20.5845 15.6659 20.5896 14.0699 20.5896C12.7235 20.6039 11.4831 21.5622 11.0848 22.8414ZM4.43301 21.1251C4.22089 22.4365 4.71884 23.8411 5.72637 24.7103C6.60327 25.4617 7.80998 25.8239 8.95331 25.6337C9.15249 24.039 8.3312 22.3719 6.92273 21.5907C6.17646 21.1522 5.28533 21.0216 4.43301 21.1251ZM24.9315 22.4598C24.1581 23.3329 23.8761 24.5357 23.9447 25.679C25.3131 25.9235 26.7616 25.3143 27.6204 24.2382C28.3357 23.3846 28.6228 22.2244 28.4715 21.129C27.1665 20.9582 25.7839 21.4458 24.9315 22.4598ZM23.0199 26.812C22.7031 28.9512 22.3655 31.0866 22.0292 33.2206C21.9969 33.4741 21.8999 33.7599 22.0771 33.9837C22.5103 34.6718 22.7328 35.5137 22.5711 36.3221C22.3332 37.7707 20.9764 38.9437 19.5046 38.9541C17.4792 38.9554 15.4525 38.9528 13.4271 38.9554C11.9901 38.9606 10.6476 37.8573 10.354 36.4527C10.1122 35.5241 10.4239 34.5515 10.9438 33.7768C10.6205 31.4953 10.2531 29.2189 9.92851 26.9375C9.69441 27.0086 9.45255 27.0642 9.23785 27.1871C7.95354 27.976 6.75718 28.9254 5.76388 30.0635C3.68932 32.3825 2.42312 35.3973 2.18773 38.4975C1.94199 41.5654 2.73223 44.7005 4.38645 47.2937C7.49181 52.1774 9.12921 57.9756 9.0529 63.7608C10.1251 63.819 11.2012 63.7686 12.2747 63.7815C12.285 60.53 12.2527 57.2772 12.2992 54.0257C12.3781 53.595 12.933 53.5174 13.2925 53.6157C15.415 54.0968 17.6434 54.0994 19.7658 53.6118C20.1073 53.4967 20.4164 53.7036 20.6621 53.9196C20.6712 57.206 20.6634 60.4938 20.666 63.7815C21.7214 63.7621 22.7781 63.766 23.8335 63.7789C23.7714 57.973 25.4114 52.1658 28.5245 47.2627C30.6482 43.94 31.2884 39.7327 30.2796 35.9224C29.3522 32.2972 26.9595 29.0702 23.7481 27.147C23.5166 27.0099 23.267 26.9116 23.0199 26.812ZM13.2059 34.0238C12.4299 34.1505 11.791 34.8619 11.7483 35.647C11.6564 36.5911 12.4713 37.5366 13.4309 37.5314C15.4162 37.5637 17.4016 37.5417 19.3869 37.5443C20.322 37.5792 21.1484 36.7101 21.1239 35.7879C21.1717 34.8464 20.3336 33.963 19.3856 33.9953C17.3253 34.0057 15.2623 33.9488 13.2059 34.0238Z" />
<path d="M12.5734 23.1844C13.4231 22.8908 14.4203 23.6319 14.3311 24.5398C14.3311 25.3688 13.4555 26.0543 12.651 25.8357C11.9319 25.6702 11.4223 24.8696 11.6396 24.1479C11.7702 23.703 12.1246 23.3176 12.5734 23.1844Z" />
<path d="M19.5601 23.179C20.4525 22.8893 21.4122 23.7545 21.2919 24.6651C21.213 25.4398 20.3943 26.0386 19.6325 25.8356C18.8979 25.6804 18.3845 24.8565 18.6134 24.1309C18.7401 23.6821 19.1049 23.3006 19.5601 23.179Z" />
<path d="M13.2214 34.5678C13.9496 34.5329 14.8601 34.3415 15.4162 34.9481C15.9194 35.4991 15.7409 36.4704 15.0748 36.8066C14.6053 37.0433 14.0543 36.9256 13.5486 36.9502C12.9847 36.989 12.4324 36.5764 12.3109 36.0242C12.144 35.3982 12.5993 34.7062 13.2214 34.5678Z" />
<path d="M18.1388 34.5743C18.8463 34.5368 19.6973 34.3531 20.2703 34.8898C20.8885 35.455 20.6246 36.6048 19.8409 36.8752C19.3481 37.0058 18.8294 36.9515 18.325 36.9437C17.5956 36.9476 17.0032 36.1341 17.2464 35.4434C17.3822 35.0412 17.7042 34.6532 18.1388 34.5743Z" />
</svg>
