<svg   viewBox="0 0 46 51"  xmlns="http://www.w3.org/2000/svg">
<path d="M5.90827 1.29696C6.08498 0.681905 7.08258 0.727166 7.25619 1.32238C7.48684 2.67712 8.15336 3.9525 9.13112 4.91725C10.1678 5.95206 11.5988 6.59812 13.0701 6.61486C14.5166 6.61734 15.9637 6.61672 17.4108 6.61548C18.6031 6.60246 19.7793 6.19448 20.7397 5.492C22.069 4.51734 23.0009 3.02681 23.3252 1.41291C23.3655 1.1556 23.5658 0.942933 23.8187 0.883411C24.1715 0.764987 24.6303 0.956573 24.706 1.34284C24.941 2.52708 24.9527 3.76277 24.6855 4.94267C24.4195 6.1548 23.8621 7.29564 23.102 8.2734C24.3234 7.29688 26.0117 6.93665 27.5258 7.32602C27.891 7.40414 28.1043 7.77181 28.157 8.11716C28.3802 9.37332 28.1651 10.7175 27.4961 11.8106C26.814 12.9707 25.6478 13.8126 24.3538 14.1617C25.2156 14.8096 26.0006 15.5599 26.6993 16.3801C26.2901 16.5841 25.8747 16.7763 25.4605 16.9716C24.7264 16.1365 23.8851 15.3968 22.9699 14.7669C22.5279 14.4692 22.0821 14.1667 21.5724 13.998C21.25 16.2289 20.8792 18.4535 20.5475 20.6831C21.0603 21.3948 21.3213 22.3149 21.131 23.1836C20.8718 24.5346 19.6014 25.6246 18.2193 25.6351C16.5658 25.6519 14.9116 25.6389 13.2573 25.6432C12.7384 25.6314 12.2101 25.6878 11.7017 25.5576C10.6359 25.2941 9.73564 24.4317 9.46159 23.3634C9.19065 22.4464 9.45539 21.4426 10.0029 20.6806C9.6786 18.4888 9.33635 16.2995 9.02262 14.1065C8.82483 14.1809 8.61713 14.2293 8.42554 14.3192C7.02492 15.1581 5.74769 16.2158 4.71288 17.4819C3.32652 19.1597 2.34937 21.171 1.88125 23.2964C1.18125 26.4399 1.63573 29.8227 3.15105 32.6649C3.74441 33.7543 4.45433 34.7779 4.99932 35.8952C7.14955 40.058 8.23582 44.7546 8.18932 49.437C9.21979 49.4352 10.2503 49.437 11.2807 49.4364C11.2857 46.3667 11.2665 43.297 11.2863 40.2273C11.2522 39.9675 11.4698 39.7418 11.7104 39.686C11.9243 39.637 12.1457 39.6693 12.3583 39.712C14.3604 40.1646 16.4659 40.1547 18.4636 39.6841C18.7476 39.6104 19.0539 39.7257 19.2411 39.9458C19.31 39.9979 19.3205 40.0828 19.3186 40.164C19.318 43.2548 19.318 46.3456 19.318 49.4358C20.3336 49.4364 21.3486 49.4364 22.3642 49.4364C22.3381 47.6396 22.4888 45.8415 22.8 44.0726C23.2675 44.1241 23.735 44.1768 24.2031 44.2282C23.851 46.1608 23.7381 48.1294 23.7753 50.0918C23.8069 50.4886 23.4573 50.8699 23.0542 50.8451C21.6691 50.85 20.2846 50.8438 18.8995 50.8482C18.7247 50.8432 18.543 50.8662 18.3744 50.8079C18.0811 50.7056 17.892 50.3937 17.9069 50.088C17.9081 47.1157 17.9075 44.1433 17.9075 41.1703C16.1665 41.4648 14.3783 41.4642 12.6373 41.1709C12.6379 44.1638 12.6361 47.1566 12.6386 50.1488C12.6404 50.5096 12.3236 50.8494 11.9578 50.8438C10.489 50.8513 9.02014 50.8445 7.55194 50.8476C7.30517 50.8587 7.04538 50.7657 6.9065 50.5524C6.70251 50.2517 6.78808 49.8723 6.7763 49.5331C6.84698 44.405 5.47798 39.2538 2.79888 34.8753C2.25016 33.9899 1.72873 33.084 1.33502 32.1174C-0.144345 28.5654 -0.195187 24.4503 1.18621 20.8598C2.1925 18.2173 3.94715 15.8637 6.2003 14.1543C5.49534 13.9435 4.8127 13.6273 4.246 13.1517C3.43936 12.466 2.815 11.5533 2.52049 10.5321C2.25636 9.63186 2.2235 8.65162 2.49197 7.74887C2.58621 7.4618 2.8615 7.28634 3.14981 7.24231C4.60933 6.8672 6.21022 7.23611 7.40747 8.137C5.95353 6.21618 5.36947 3.64993 5.90827 1.29696ZM7.35601 4.99847C7.715 6.31043 8.48321 7.49776 9.50933 8.38749C9.82678 8.07252 10.1331 7.74329 10.4914 7.47234C9.25513 6.93665 8.1701 6.0711 7.35601 4.99847ZM20.0943 7.4649C20.4483 7.72903 20.7744 8.03222 21.0317 8.39307C22.0591 7.50334 22.8106 6.30671 23.1876 5.00157C22.3871 6.06552 21.317 6.93355 20.0943 7.4649ZM12.2821 8.13018C11.6267 8.31371 11.0209 8.70494 10.6173 9.25675C10.1238 9.91831 9.88383 10.7708 9.99481 11.5917C10.4046 14.2994 10.8182 17.0064 11.2237 19.7146C11.5932 19.5639 11.9888 19.4728 12.3893 19.474C14.3318 19.4734 16.2743 19.4734 18.2169 19.474C18.5796 19.4709 18.9317 19.577 19.2684 19.7047C19.6832 17.0553 20.1067 14.4072 20.5264 11.7585C20.643 10.95 20.4837 10.0863 20.01 9.41176C19.486 8.63364 18.6044 8.06818 17.6539 8.03594C16.3748 8.01796 15.0957 8.03036 13.816 8.02664C13.3038 8.03346 12.7812 7.98882 12.2821 8.13018ZM3.74689 8.55613C3.54972 9.86623 4.07426 11.2737 5.12953 12.0871C5.94857 12.7363 7.0367 13.0277 8.07089 12.8783C8.29782 11.371 7.50854 9.80609 6.21332 9.02549C5.47922 8.58527 4.59073 8.42779 3.74689 8.55613ZM23.1882 10.1074C22.614 10.9184 22.3759 11.9452 22.4826 12.9297C23.8454 13.1269 25.2857 12.5118 26.0899 11.3952C26.6969 10.5941 26.9411 9.54816 26.7998 8.55675C25.4357 8.34905 23.9675 8.961 23.1882 10.1074ZM8.58737 9.39998C8.65805 9.52398 8.73307 9.64612 8.81181 9.76579C8.90792 9.57668 8.71199 9.49174 8.58737 9.39998ZM21.7014 9.67589C21.7187 9.72983 21.7379 9.78439 21.7565 9.83833C21.8341 9.70999 21.9128 9.58288 21.9965 9.45764C21.8985 9.53142 21.8 9.60396 21.7014 9.67589ZM12.0452 20.9311C11.3235 21.1127 10.7599 21.8134 10.763 22.5623C10.732 23.4428 11.5046 24.2668 12.3881 24.2792C14.3108 24.2792 16.2328 24.2779 18.1549 24.2798C19.0446 24.286 19.7948 23.4322 19.7607 22.5599C19.77 21.7018 19.0297 20.8901 18.1598 20.8858C16.381 20.8827 14.6015 20.8858 12.8227 20.8839C12.5635 20.8846 12.3 20.8715 12.0452 20.9311Z" />
<path d="M11.5511 10.5181C12.2121 10.3048 13.0206 10.709 13.1929 11.3948C13.3665 11.9286 13.1272 12.5418 12.674 12.8586C12.364 13.0769 11.9535 13.1537 11.589 13.044C11.0545 12.8983 10.6378 12.3924 10.6211 11.835C10.5895 11.2528 10.9962 10.6867 11.5511 10.5181Z" />
<path d="M18.3575 10.4863C19.135 10.3084 19.9156 10.9972 19.9243 11.7747C19.9479 12.4822 19.3006 13.1183 18.595 13.0929C17.97 13.0848 17.3897 12.5826 17.3146 11.9576C17.2055 11.2917 17.7022 10.6165 18.3575 10.4863Z" />
<path d="M30.6166 18.2093C30.9149 18.032 31.267 17.9656 31.6118 17.9768C32.3769 17.9842 33.142 17.9681 33.9071 17.9848C34.7801 18.04 35.5191 18.8349 35.5166 19.7085C35.5421 20.4395 35.0523 21.1203 34.3839 21.3912C34.3839 21.5506 34.3845 21.7099 34.3864 21.8693C35.6512 22.1092 36.8584 22.617 37.9267 23.3337C38.0395 23.2203 38.1523 23.1074 38.2646 22.994C38.1356 22.6784 38.0742 22.3305 38.1356 21.9926C38.2305 21.3354 38.7352 20.7607 39.375 20.5833C39.9702 20.401 40.6547 20.5709 41.0968 21.0087C41.6437 21.5561 42.1911 22.1036 42.7386 22.6505C43.1621 23.0733 43.3289 23.7243 43.1819 24.3016C43.022 24.9613 42.4528 25.5013 41.7788 25.6061C41.4285 25.678 41.0701 25.6061 40.7397 25.4852C40.6306 25.5962 40.5208 25.7065 40.4123 25.8175C41.1253 26.8883 41.6375 28.093 41.8768 29.3584C42.0386 29.3622 42.2017 29.3628 42.3641 29.3634C42.6022 28.7849 43.1367 28.3243 43.7666 28.2449C44.4592 28.1401 45.1827 28.4997 45.5293 29.1049C45.7017 29.3925 45.7742 29.7305 45.7699 30.064C45.7686 30.7863 45.7711 31.5087 45.7693 32.2316C45.7705 32.652 45.6248 33.0724 45.352 33.3941C44.9186 33.9125 44.169 34.1431 43.5211 33.9453C42.991 33.8003 42.5743 33.3805 42.3629 32.882C42.2023 32.8814 42.0417 32.8814 41.8818 32.8814C41.6344 34.1456 41.1297 35.3534 40.4154 36.4242C40.5258 36.5358 40.6368 36.6468 40.7477 36.759C41.2512 36.5538 41.8458 36.5562 42.3238 36.8303C43.0089 37.1967 43.3865 38.0449 43.1832 38.7982C43.0176 39.5032 42.3734 39.918 41.9146 40.4258C41.4081 40.8846 40.992 41.5275 40.284 41.6856C39.4866 41.8927 38.5851 41.4507 38.267 40.6905C38.0624 40.2398 38.0835 39.714 38.2639 39.2595C38.1505 39.1436 38.0364 39.0289 37.9223 38.9148C36.8534 39.6309 35.6469 40.1344 34.3833 40.3811C34.3839 40.5405 34.3839 40.6998 34.3851 40.8598C34.7429 41.0129 35.0671 41.2585 35.2649 41.5988C35.5849 42.1228 35.6016 42.8178 35.2965 43.3529C35.0076 43.9022 34.4019 44.2643 33.7818 44.2662C33.0161 44.268 32.2498 44.2662 31.4847 44.2674C30.8324 44.2693 30.1963 43.8786 29.9142 43.2896C29.5719 42.6256 29.7213 41.7526 30.2676 41.2423C30.4406 41.0762 30.6483 40.9509 30.8671 40.8542C30.8653 40.6949 30.8647 40.5355 30.8591 40.3768C29.5967 40.135 28.3877 39.6315 27.3225 38.9111C27.2059 39.022 27.0912 39.1349 26.9765 39.2477C27.1929 39.7716 27.1805 40.3997 26.8798 40.8883C26.5456 41.4482 25.8791 41.7867 25.2299 41.7284C24.8288 41.6931 24.4375 41.522 24.1517 41.2361C23.6774 40.76 23.2025 40.2844 22.7263 39.8101C22.5725 39.6551 22.407 39.5081 22.2886 39.3228C21.9879 38.8608 21.9296 38.2545 22.1292 37.7411C22.3555 37.1229 22.9625 36.6691 23.6179 36.6195C23.918 36.5872 24.2187 36.6505 24.4971 36.7615C24.6099 36.6499 24.7221 36.5383 24.835 36.4267C24.1195 35.3571 23.6092 34.1499 23.3705 32.8845C23.2112 32.882 23.0518 32.882 22.8931 32.8826C22.7325 33.2509 22.469 33.5783 22.1181 33.781C21.6202 34.0749 20.971 34.0954 20.4564 33.8313C19.8606 33.5423 19.47 32.8926 19.4805 32.2322C19.483 31.4454 19.4755 30.6586 19.4836 29.8718C19.5152 29.01 20.2772 28.2654 21.1353 28.2331C21.8862 28.1742 22.6073 28.6733 22.8788 29.364C23.0413 29.3628 23.2043 29.3628 23.368 29.3603C23.6073 28.0961 24.1201 26.8945 24.8288 25.8231C24.7178 25.7103 24.6062 25.5987 24.4946 25.4871C24.1753 25.6036 23.8293 25.6749 23.4902 25.6111C22.7771 25.5057 22.1677 24.9148 22.043 24.2049C21.9321 23.6468 22.115 23.046 22.5143 22.6418C23.0512 22.1024 23.5906 21.5648 24.1288 21.0266C24.5355 20.6181 25.1475 20.4289 25.7135 20.5449C26.4414 20.6757 27.0435 21.3181 27.1197 22.0546C27.1631 22.3752 27.0999 22.6982 26.9889 22.9983C27.0993 23.1093 27.2103 23.2203 27.3225 23.3306C28.3926 22.6164 29.5992 22.1086 30.8634 21.8662C30.8653 21.708 30.8653 21.5499 30.8659 21.3918C30.2744 21.15 29.8125 20.5982 29.7443 19.9546C29.6482 19.2658 30.0121 18.5491 30.6166 18.2093ZM31.3594 19.9577C31.5678 20.0185 31.8052 20.0049 31.9863 20.1444C32.2702 20.3291 32.3961 20.6782 32.3707 21.0074C32.3484 21.4985 32.4451 22.0224 32.2219 22.4812C32.0191 22.9276 31.5932 23.26 31.1133 23.3548C30.0779 23.5532 29.0858 23.9631 28.211 24.5514C27.7745 24.8602 27.1737 24.9086 26.6895 24.6854C26.266 24.4963 25.9926 24.1044 25.6584 23.8012C25.4296 23.5991 25.264 23.3034 25.3025 22.9902C25.3105 22.7639 25.4488 22.5779 25.579 22.4037C25.6714 22.3101 25.5939 22.1848 25.5815 22.077C25.4544 22.0298 25.2938 21.9716 25.1909 22.0987C24.6533 22.6313 24.1158 23.1651 23.5863 23.7057C23.3972 23.8769 23.6166 24.2247 23.8535 24.1125C24.019 24.0102 24.1616 23.8589 24.3613 23.8223C24.7097 23.7287 25.0712 23.8936 25.3025 24.154C25.6069 24.487 25.9944 24.7647 26.1835 25.187C26.4142 25.6755 26.3553 26.2825 26.0446 26.7234C25.4562 27.5957 25.0526 28.589 24.8517 29.622C24.7438 30.1701 24.3191 30.6425 23.7809 30.7981C23.3438 30.9215 22.8832 30.8465 22.4355 30.8682C22.0337 30.9085 21.6165 30.6351 21.5278 30.2364C21.4838 30.0752 21.516 29.8662 21.3579 29.7608C21.1961 29.6709 20.9654 29.8073 20.9865 29.9977C20.9822 30.7436 20.9822 31.4901 20.9871 32.2366C20.9549 32.497 21.3362 32.6142 21.4615 32.3885C21.5148 32.1901 21.5042 31.97 21.6239 31.7945C21.7944 31.5205 22.1125 31.3561 22.4349 31.3778C22.8466 31.3927 23.2639 31.3406 23.6706 31.4163C24.2491 31.5422 24.7283 32.0264 24.848 32.6061C25.0328 33.5498 25.3763 34.4668 25.8909 35.2815C26.0124 35.4731 26.1525 35.6572 26.2282 35.8742C26.3782 36.2785 26.3522 36.7441 26.15 37.126C26.0304 37.3821 25.8121 37.5687 25.6174 37.7665C25.4476 37.9302 25.2901 38.1081 25.1115 38.2631C24.8263 38.5099 24.3656 38.5223 24.0705 38.2867C23.9688 38.2179 23.8783 38.1057 23.7444 38.1119C23.6018 38.1348 23.4796 38.2842 23.5224 38.4312C23.5491 38.5242 23.6266 38.5899 23.6904 38.66C24.1809 39.143 24.6632 39.634 25.1524 40.1189C25.2448 40.2292 25.4246 40.2776 25.5387 40.1697C25.6596 40.0736 25.6466 39.8882 25.5418 39.7865C25.3515 39.5757 25.2399 39.2887 25.3037 39.0041C25.3533 38.6934 25.6218 38.4994 25.8251 38.2867C26.1011 38.0275 26.3385 37.7051 26.6975 37.5557C27.178 37.3393 27.7639 37.3902 28.1998 37.6865C28.9934 38.2173 29.8801 38.6128 30.812 38.8261C31.0618 38.8844 31.3235 38.9197 31.551 39.0481C32.0253 39.3017 32.349 39.8144 32.3651 40.3538C32.3725 40.7048 32.3738 41.0563 32.3657 41.4073C32.3608 41.8072 32.0408 42.1767 31.644 42.2331C31.5287 42.2623 31.3873 42.2449 31.2987 42.3367C31.153 42.4836 31.267 42.7794 31.4841 42.7595C32.2485 42.7645 33.0143 42.7694 33.7787 42.7577C34.0218 42.7601 34.1024 42.3894 33.8823 42.2871C33.6789 42.2306 33.4508 42.2362 33.274 42.1066C32.9981 41.9355 32.8574 41.6057 32.8791 41.287C32.9082 40.7717 32.7892 40.2162 33.0384 39.7382C33.2455 39.2986 33.6709 38.9743 34.1489 38.8875C35.1874 38.6872 36.1825 38.2718 37.058 37.6778C37.484 37.3914 38.0538 37.3443 38.525 37.5439C38.9652 37.7281 39.2492 38.1317 39.5926 38.4442C39.8307 38.6556 40.0062 38.9662 39.9504 39.2942C39.9318 39.5453 39.726 39.7152 39.6243 39.9291C39.5635 40.1585 39.8748 40.3346 40.0391 40.1635C40.5537 39.6669 41.0497 39.151 41.5612 38.6507C41.6468 38.5601 41.7695 38.4485 41.7236 38.3103C41.6945 38.1143 41.4223 38.0492 41.2977 38.1968C41.023 38.4591 40.5859 38.549 40.2523 38.3444C39.9256 38.1212 39.6813 37.7988 39.3905 37.5321C38.8703 37.0361 38.7686 36.1718 39.1679 35.5723C39.7762 34.6832 40.1928 33.6676 40.3974 32.6104C40.519 31.97 41.0937 31.4572 41.7385 31.389C42.1242 31.3661 42.5117 31.3809 42.898 31.3791C43.3041 31.3704 43.6953 31.6934 43.7375 32.1026C43.7654 32.2198 43.7474 32.368 43.8522 32.4517C43.9359 32.536 44.0853 32.5323 44.1721 32.4523C44.2769 32.3711 44.2608 32.2242 44.2676 32.107C44.2608 31.4033 44.2732 30.6995 44.2614 29.9964C44.2949 29.746 43.9191 29.6375 43.7976 29.8458C43.7387 30.0101 43.7505 30.193 43.6817 30.3561C43.5384 30.6791 43.1881 30.893 42.8341 30.8676C42.3195 30.8403 41.7739 30.9507 41.2878 30.7349C40.8314 30.5303 40.483 30.0988 40.3906 29.6052C40.1916 28.5685 39.778 27.5753 39.1865 26.7004C38.7872 26.1257 38.8468 25.2744 39.3403 24.7734C39.5765 24.5328 39.8159 24.2954 40.0546 24.0567C40.279 23.8235 40.6337 23.7398 40.9412 23.8378C41.1005 23.8855 41.2214 24.0046 41.3603 24.0908C41.5135 24.208 41.7528 24.0455 41.7311 23.8632C41.7298 23.7609 41.6449 23.6933 41.5835 23.6239C41.0943 23.1409 40.6095 22.6542 40.1252 22.1669C40.0471 22.0987 39.9709 21.9933 39.8537 22.0156C39.7117 22.0199 39.6032 22.1638 39.6143 22.3014C39.6528 22.4173 39.7439 22.5041 39.8084 22.6065C40.0267 22.922 39.9864 23.3858 39.7179 23.6611C39.4637 23.9246 39.2045 24.1844 38.9391 24.4374C38.4196 24.9117 37.5757 24.9476 37.0084 24.5359C36.1472 23.9593 35.1707 23.5563 34.1539 23.3573C33.5934 23.2569 33.111 22.8284 32.9479 22.2828C32.8425 21.9505 32.8909 21.5977 32.8803 21.2554C32.8859 20.9888 32.8438 20.7005 32.9808 20.4575C33.1079 20.2324 33.3311 20.047 33.5934 20.0154C33.7291 19.9788 33.9282 20.0129 33.9871 19.8474C34.0714 19.693 33.9499 19.4797 33.7701 19.4859C33.0105 19.4791 32.2504 19.4785 31.4909 19.4859C31.2373 19.4636 31.1393 19.843 31.3594 19.9577Z" />
<path d="M12.235 21.4233C12.6157 21.3656 13.002 21.4034 13.3857 21.396C13.8737 21.3892 14.3536 21.7141 14.503 22.1841C14.7256 22.7898 14.3288 23.5462 13.6908 23.6802C13.281 23.7521 12.8624 23.7105 12.4489 23.7198C11.9461 23.7273 11.4562 23.3708 11.3229 22.8841C11.1183 22.2547 11.5908 21.5275 12.235 21.4233Z" />
<path d="M16.9452 21.425C17.5789 21.4157 18.3099 21.2402 18.8512 21.6711C19.3899 22.0704 19.3912 22.9359 18.9237 23.3904C18.7265 23.6043 18.4382 23.7004 18.1536 23.7128C17.7804 23.732 17.4065 23.7196 17.0333 23.7091C16.6309 23.693 16.2799 23.4109 16.0977 23.0649C15.7641 22.4207 16.2458 21.5459 16.9452 21.425Z" />
<path d="M30.1491 24.5795C30.7425 24.443 31.3885 24.5454 31.9069 24.8659C32.4172 25.1803 32.8109 25.6893 32.9609 26.2715C33.1178 26.8562 33.044 27.5028 32.7433 28.0292C32.2138 29.0355 30.9025 29.5222 29.8466 29.0969C29.2234 28.8663 28.7094 28.3566 28.4732 27.736C28.2562 27.1823 28.2599 26.5443 28.4887 25.995C28.7683 25.2906 29.4107 24.7456 30.1491 24.5795ZM30.3922 26.0718C30.0288 26.1952 29.7746 26.5827 29.8218 26.9665C29.8478 27.3987 30.2502 27.7632 30.683 27.7434C31.2025 27.7614 31.6421 27.2257 31.5212 26.7191C31.4363 26.2219 30.8653 25.8902 30.3922 26.0718Z" />
<path d="M35.281 26.1637C35.7001 26.0211 36.1819 26.3354 36.2371 26.7701C36.3139 27.1737 35.9934 27.5928 35.586 27.6307C35.206 27.6852 34.8166 27.4006 34.7546 27.0218C34.6783 26.6572 34.9251 26.2635 35.281 26.1637Z" />
<path d="M36.2773 29.2105C36.8898 29.1696 37.4931 29.4176 38.0028 29.7412C38.8032 30.2651 39.355 31.1493 39.4716 32.0991C39.6092 33.1048 39.262 34.1706 38.5372 34.8855C38.0059 35.4398 37.273 35.7951 36.5098 35.8769C35.6876 35.9705 34.8338 35.7455 34.1667 35.2563C33.4115 34.7138 32.8951 33.8433 32.8058 32.9163C32.7537 32.5412 33.0358 32.1698 33.4053 32.1053C33.7835 32.021 34.2002 32.2833 34.2765 32.6646C34.3298 32.9678 34.4017 33.2753 34.5747 33.5357C35.0031 34.227 35.9114 34.5656 36.6865 34.3126C37.4906 34.0789 38.061 33.2487 37.9922 32.4141C37.9488 31.6496 37.3846 30.9348 36.635 30.7518C36.3417 30.6874 35.9939 30.6669 35.8178 30.3836C35.4948 29.9712 35.7657 29.2973 36.2773 29.2105Z" />
<path d="M34.0583 29.9857C34.4471 29.8462 34.9065 30.0923 35.0125 30.4885C35.1508 30.9058 34.8352 31.3993 34.3969 31.4433C34.0031 31.509 33.5952 31.2059 33.5487 30.8097C33.4854 30.4569 33.7192 30.0898 34.0583 29.9857Z" />
<path d="M26.7372 30.4111C27.1718 30.2567 27.6814 30.5927 27.7112 31.0522C27.7763 31.5054 27.3491 31.9345 26.8971 31.8793C26.5158 31.8489 26.1959 31.498 26.2139 31.1142C26.2126 30.7973 26.4358 30.5041 26.7372 30.4111Z" />
<path d="M28.8527 32.2785C29.797 32.0763 30.8237 32.6381 31.1722 33.5352C31.5392 34.3896 31.2329 35.466 30.4722 35.9992C30.0524 36.3036 29.5167 36.4487 29.0009 36.383C28.2141 36.2987 27.5091 35.7165 27.2723 34.9625C27.0081 34.1974 27.2599 33.2972 27.8675 32.767C28.1477 32.5252 28.4875 32.3473 28.8527 32.2785ZM28.9686 33.8149C28.6016 34.0009 28.5724 34.5763 28.9234 34.7933C29.2693 35.0605 29.8311 34.7734 29.8212 34.3388C29.859 33.9091 29.3357 33.5917 28.9686 33.8149Z" />
<path d="M32.373 36.4075C32.8194 36.2326 33.3619 36.5891 33.3743 37.069C33.4177 37.4962 33.0271 37.8949 32.6006 37.8664C32.2354 37.867 31.9061 37.557 31.8764 37.1949C31.8305 36.8564 32.0518 36.516 32.373 36.4075Z" />
</svg>
