<svg   viewBox="0 0 43 61"  xmlns="http://www.w3.org/2000/svg">
<path d="M5.95842 8.49907C6.08646 7.99466 6.79134 7.83945 7.15866 8.18737C7.41216 8.35939 7.39793 8.69178 7.47424 8.95692C8.09376 11.7014 10.6145 14.0282 13.4961 14.0166C14.9576 14.0204 16.4191 14.0166 17.8806 14.0179C19.637 14.023 21.3585 13.2017 22.4992 11.8735C23.3218 10.9448 23.8896 9.79631 24.1392 8.58185C24.2129 7.91318 25.3188 7.77737 25.5374 8.41759C26.1414 10.919 25.5257 13.6686 23.9388 15.6928C25.2244 14.746 26.9264 14.3464 28.4836 14.7499C28.8509 14.8301 29.1148 15.1638 29.1652 15.5272C29.4239 16.8852 29.1846 18.3506 28.4332 19.5198C27.7167 20.6632 26.5604 21.5194 25.2567 21.8724C25.6628 22.2954 26.162 22.6161 26.5604 23.0481C28.86 25.2274 30.4689 28.1181 31.1247 31.217C31.9951 35.2109 31.2346 39.5424 29.0217 42.984C26.3716 47.2392 24.8027 52.1785 24.6268 57.1955C24.5997 57.9353 24.5932 58.6751 24.5984 59.4149C24.6165 59.8197 24.2505 60.1715 23.8469 60.1418C22.2884 60.1444 20.7299 60.1457 19.1714 60.1405C18.7821 60.1547 18.4795 59.7667 18.4859 59.3981C18.4808 56.285 18.4846 53.1731 18.4833 50.06C16.6662 50.3601 14.805 50.3562 12.9866 50.0639C12.984 53.1783 12.9917 56.294 12.984 59.4097C13.0085 59.8249 12.6115 60.1935 12.1989 60.1431C10.687 60.1444 9.17372 60.1418 7.66177 60.147C7.17806 60.2039 6.81204 59.7227 6.87024 59.2688C7.02415 53.856 5.65965 48.398 2.88021 43.7445C2.36286 42.8702 1.80155 42.0179 1.40319 41.0802C-0.0208041 37.9567 -0.370012 34.3625 0.396953 31.0191C1.20013 27.4093 3.32642 24.1177 6.26753 21.8802C5.01555 21.5284 3.89809 20.7446 3.1751 19.6608C2.31501 18.3985 1.98132 16.7637 2.38097 15.2802C2.44952 15.0021 2.67586 14.7641 2.9604 14.7059C4.50468 14.2558 6.21967 14.6322 7.50657 15.5764C6.01662 13.5794 5.41908 10.9358 5.95842 8.49907ZM7.48846 12.3805C7.87906 13.7294 8.66931 14.9491 9.72986 15.8674C10.0532 15.5401 10.3778 15.2142 10.7309 14.918C9.46602 14.3399 8.36407 13.4578 7.48846 12.3805ZM23.9413 12.3986C23.1149 13.4785 22.0181 14.3321 20.792 14.9142C21.1516 15.1922 21.4827 15.5065 21.7491 15.8777C22.7696 14.9465 23.6154 13.7553 23.9413 12.3986ZM10.374 17.7427C10.0933 18.4955 10.2278 19.3038 10.3623 20.0708C10.7464 22.6045 11.1358 25.1369 11.5108 27.6732C11.9363 27.5089 12.3864 27.4171 12.8443 27.4223C14.7391 27.4197 16.6351 27.4197 18.5299 27.421C18.9968 27.4132 19.4598 27.4947 19.8996 27.6525C20.3471 24.8291 20.814 22.007 21.2356 19.1797C21.4865 17.3767 19.9875 15.5156 18.1458 15.4936C16.5511 15.4858 14.9551 15.491 13.359 15.491C12.0127 15.5052 10.7723 16.4636 10.374 17.7427ZM3.72219 16.0264C3.51008 17.3379 4.00802 18.7425 5.01555 19.6116C5.89245 20.3631 7.09916 20.7252 8.2425 20.5351C8.44167 18.9404 7.62039 17.2732 6.21192 16.4921C5.46564 16.0536 4.57452 15.923 3.72219 16.0264ZM24.2207 17.3612C23.4473 18.2342 23.1653 19.437 23.2339 20.5804C24.6023 20.8248 26.0508 20.2157 26.9096 19.1396C27.6248 18.286 27.912 17.1258 27.7606 16.0303C26.4556 15.8596 25.073 16.3472 24.2207 17.3612ZM22.3091 21.7134C21.9922 23.8526 21.6547 25.9879 21.3184 28.122C21.2861 28.3755 21.1891 28.6613 21.3663 28.8851C21.7995 29.5731 22.022 30.4151 21.8603 31.2235C21.6223 32.672 20.2656 33.8451 18.7938 33.8555C16.7683 33.8568 14.7416 33.8542 12.7162 33.8568C11.2793 33.8619 9.9368 32.7587 9.64321 31.3541C9.40135 30.4255 9.71305 29.4529 10.233 28.6781C9.90964 26.3966 9.54233 24.1203 9.21769 21.8388C8.98359 21.91 8.74173 21.9656 8.52704 22.0884C7.24273 22.8774 6.04636 23.8267 5.05306 24.9649C2.97851 27.2839 1.7123 30.2987 1.47691 33.3989C1.23117 36.4668 2.02142 39.6019 3.67563 42.1951C6.781 47.0788 8.41839 52.877 8.34209 58.6622C9.41428 58.7204 10.4904 58.6699 11.5639 58.6829C11.5742 55.4314 11.5419 52.1785 11.5884 48.927C11.6673 48.4963 12.2222 48.4187 12.5817 48.517C14.7041 48.9982 16.9326 49.0007 19.055 48.5131C19.3965 48.398 19.7056 48.605 19.9513 48.821C19.9604 52.1074 19.9526 55.3951 19.9552 58.6829C21.0106 58.6635 22.0673 58.6673 23.1226 58.6803C23.0606 52.8744 24.7005 47.0672 27.8137 42.164C29.9374 38.8414 30.5776 34.6341 29.5688 30.8238C28.6414 27.1985 26.2487 23.9716 23.0373 22.0483C22.8058 21.9112 22.5562 21.813 22.3091 21.7134ZM12.4951 28.9252C11.7191 29.0519 11.0801 29.7633 11.0375 30.5483C10.9456 31.4925 11.7604 32.4379 12.7201 32.4328C14.7054 32.4651 16.6907 32.4431 18.6761 32.4457C19.6112 32.4806 20.4376 31.6115 20.413 30.6893C20.4609 29.7477 19.6228 28.8644 18.6748 28.8967C16.6144 28.9071 14.5515 28.8501 12.4951 28.9252Z" />
<path d="M11.8626 18.0857C12.7123 17.7921 13.7095 18.5332 13.6203 19.4412C13.6203 20.2702 12.7447 20.9557 11.9402 20.7371C11.2211 20.5716 10.7115 19.771 10.9288 19.0493C11.0594 18.6044 11.4138 18.2189 11.8626 18.0857Z" />
<path d="M18.8493 18.0804C19.7417 17.7906 20.7014 18.6559 20.5811 19.5664C20.5022 20.3412 19.6835 20.94 18.9217 20.7369C18.1871 20.5817 17.6736 19.7579 17.9026 19.0323C18.0293 18.5835 18.394 18.2019 18.8493 18.0804Z" />
<path d="M12.5106 29.4692C13.2387 29.4343 14.1493 29.2429 14.7054 29.8494C15.2085 30.4004 15.0301 31.3717 14.364 31.708C13.8945 31.9447 13.3435 31.827 12.8378 31.8516C12.2739 31.8904 11.7216 31.4778 11.6001 30.9255C11.4332 30.2995 11.8885 29.6076 12.5106 29.4692Z" />
<path d="M17.428 29.4756C18.1354 29.4381 18.9865 29.2545 19.5594 29.7912C20.1777 30.3564 19.9138 31.5062 19.13 31.7765C18.6373 31.9071 18.1186 31.8528 17.6142 31.8451C16.8848 31.8489 16.2924 31.0354 16.5356 30.3448C16.6714 29.9425 16.9934 29.5545 17.428 29.4756Z" />
<path d="M31.8438 0.497384C31.8787 0.196601 32.1648 -0.0257708 32.4644 0.00240852C34.8939 0.0042463 37.3235 -0.00187968 39.753 0.00547143C40.1641 -0.0214827 40.463 0.479006 40.2566 0.83186C39.2868 2.88711 38.3116 4.9393 37.3394 6.99332C39.0222 6.997 40.7056 6.98597 42.3878 6.99884C42.8246 7.0166 43.061 7.59856 42.7651 7.91895C39.0308 12.6206 35.2921 17.3192 31.5577 22.0208C31.4162 22.1911 31.2851 22.4117 31.0487 22.4533C30.7681 22.5158 30.4649 22.332 30.3895 22.0558C30.3369 21.9014 30.3877 21.7409 30.4447 21.5963C31.8071 18.0843 33.1621 14.5699 34.527 11.0591C33.2068 11.0603 31.8867 11.0597 30.5666 11.0597C30.2149 11.0812 29.927 10.7056 30.0165 10.3705C30.6229 7.07909 31.2355 3.78823 31.8438 0.497384ZM32.8669 1.14428C32.337 4.07615 31.7758 7.00312 31.2484 9.93561C32.5716 9.93071 33.8948 9.93683 35.218 9.93255C35.3436 9.93255 35.4759 9.93377 35.5911 9.99319C35.8533 10.1047 35.9807 10.4422 35.871 10.7026C34.8584 13.3318 33.8311 15.9562 32.8246 18.5879C33.2712 18.0855 33.6657 17.5379 34.0927 17.019C36.4505 14.0504 38.8109 11.0848 41.1681 8.11621C39.5937 8.12294 38.0194 8.11804 36.4456 8.11866C36.0952 8.13703 35.8049 7.76151 35.9035 7.42765C35.9715 7.20773 36.0879 7.0068 36.1853 6.79913C37.0735 4.90928 37.979 3.02739 38.8611 1.13509C36.8634 1.14183 34.8645 1.12407 32.8669 1.14428Z" />
</svg>
