<svg   viewBox="0 0 44 44"  xmlns="http://www.w3.org/2000/svg">
<path d="M18.0036 0.664922C20.0263 -0.0896515 22.2622 -0.171815 24.3653 0.266188C26.7359 0.733794 28.9731 2.05747 30.3765 4.0451C31.1111 5.06791 31.5364 6.28586 31.7358 7.52194C31.9744 9.0184 31.8965 10.5451 31.7255 12.0445C31.4216 14.4351 31.1619 16.8644 30.3197 19.139C29.8056 20.5315 29.0401 21.8558 27.9587 22.8847C28.0119 24.1606 27.9502 25.4396 27.9907 26.7155C31.2023 27.7782 34.4091 28.8542 37.6189 29.9217C38.5886 30.2371 39.4869 30.7675 40.227 31.4695C41.5694 32.7431 42.3874 34.4685 42.8901 36.2266C43.4598 38.2619 43.667 40.3885 43.6265 42.4976C43.615 42.79 43.6422 43.1301 43.4175 43.3554C43.1704 43.6388 42.6961 43.6678 42.417 43.4158C42.2539 43.2799 42.1542 43.0715 42.1633 42.8582C42.2376 40.9383 42.0835 39.0014 41.6298 37.1316C41.3556 36.0157 40.9562 34.9222 40.3587 33.9375C39.821 33.0518 39.0918 32.2676 38.1874 31.7505C37.6383 31.4218 37.0166 31.2545 36.4155 31.0491C35.0151 30.5802 33.6129 30.1163 32.2125 29.6474C31.9104 29.5496 31.6132 29.4366 31.305 29.3587C31.9176 31.3094 32.0669 33.3708 32.0596 35.4049C32.9652 35.568 33.8116 36.0393 34.4182 36.7316C35.029 37.4191 35.4017 38.3157 35.4489 39.2352C35.5153 40.3528 35.1021 41.4923 34.3239 42.2994C33.7506 42.9138 32.9803 43.3385 32.1581 43.5071C31.1365 43.7161 30.0345 43.5264 29.1525 42.9664C28.3858 42.4891 27.7787 41.7551 27.4675 40.9062C27.0718 39.8629 27.1316 38.657 27.624 37.6566C28.1846 36.493 29.3198 35.6315 30.5922 35.4091C30.6429 34.1453 30.539 32.8772 30.3535 31.6272C30.2128 30.8243 30.0496 30.0105 29.6781 29.2783C29.5228 28.9859 29.3229 28.6693 28.9851 28.5721C28.6196 28.4585 28.2644 28.3093 27.8904 28.2265C27.6536 29.4819 27.0313 30.6322 26.2592 31.6375C25.3156 32.8615 24.1629 33.9115 22.9214 34.8255C22.6731 35.0001 22.4332 35.1874 22.1704 35.3397C21.9354 35.4756 21.6297 35.4617 21.4074 35.307C20.3749 34.6322 19.4197 33.842 18.5437 32.9745C17.2424 31.6532 16.0994 30.0703 15.7333 28.218C15.4348 28.3026 15.1418 28.4059 14.847 28.5032C14.5776 28.5842 14.3951 28.8143 14.2012 29.0034C13.2696 29.9707 12.886 31.362 12.9597 32.6808C13.9716 32.8663 14.8567 33.4747 15.5387 34.2256C16.1954 34.9415 16.6884 35.7934 17.0624 36.6863C17.5264 37.8161 17.7958 39.0346 17.7843 40.2586C17.7819 41.1261 17.7855 41.9937 17.7831 42.8619C17.7958 43.2485 17.4502 43.5977 17.0624 43.5868C16.3755 43.5904 15.688 43.5911 15.0011 43.5868C14.6374 43.5886 14.3069 43.2739 14.296 42.9096C14.2567 42.5151 14.6047 42.1357 15.0017 42.1417C15.4451 42.1308 15.8885 42.1453 16.332 42.1363C16.3066 40.963 16.4323 39.7692 16.1562 38.6159C15.9169 37.5551 15.4826 36.531 14.8385 35.6514C14.357 34.9995 13.7269 34.4129 12.9391 34.1682C12.3102 33.9695 11.6136 34.1 11.0554 34.4347C10.3328 34.8642 9.79335 35.5378 9.36803 36.2519C8.69924 37.4113 8.29507 38.7356 8.26909 40.0774C8.27212 40.7637 8.26124 41.45 8.27453 42.1357C8.72522 42.1465 9.17591 42.129 9.6266 42.1429C9.99573 42.152 10.3129 42.4885 10.3081 42.857C10.3171 43.2485 9.96794 43.6098 9.57042 43.588C8.88411 43.588 8.1972 43.5941 7.5109 43.585C7.13331 43.5826 6.80345 43.2346 6.81976 42.857C6.81613 41.9907 6.82036 41.1249 6.81794 40.2586C6.80586 39.0582 7.06625 37.865 7.5115 36.7534C7.91205 35.7608 8.47511 34.8237 9.22364 34.0547C9.8453 33.4143 10.6252 32.9152 11.4988 32.705C11.4849 31.9094 11.5593 31.1064 11.7973 30.3446C11.8885 30.0268 12.0323 29.7284 12.1459 29.4191C10.244 30.0202 8.35972 30.6763 6.46452 31.2986C5.49789 31.6109 4.63216 32.2048 3.97243 32.9751C3.09039 33.9985 2.53518 35.2593 2.1588 36.5467C1.62474 38.4166 1.43081 40.3716 1.45135 42.3121C1.4441 42.6444 1.55405 43.0292 1.31783 43.3107C1.06893 43.6497 0.514927 43.6847 0.231584 43.3711C0.0352382 43.1959 0.0116765 42.9198 0.0110724 42.674C-0.0439046 40.8603 0.104715 39.0382 0.482304 37.2627C0.899162 35.3723 1.60963 33.4904 2.88921 32.0096C3.69392 31.075 4.74271 30.3458 5.91475 29.9556C9.1596 28.8717 12.4063 27.7921 15.6511 26.7083C15.6632 25.448 15.639 24.1866 15.6644 22.9264C15.6408 22.8394 15.5599 22.7868 15.5049 22.721C14.2912 21.4945 13.51 19.905 13.0146 18.2678C12.6056 16.929 12.3688 15.5462 12.1737 14.1621C11.9695 12.6173 11.7326 11.0695 11.7453 9.50715C11.7538 7.75574 12.0843 5.95238 13.0303 4.45229C14.1667 2.64711 15.9979 1.34398 18.0036 0.664922ZM17.3602 2.49849C15.9767 3.18238 14.7582 4.25474 14.0248 5.62433C13.542 6.56618 13.304 7.61739 13.2303 8.6686C13.1427 9.88534 13.2394 11.1075 13.3946 12.3152C13.5197 13.2939 13.6417 14.2738 13.8091 15.2471C14.119 17.065 14.58 18.9034 15.5702 20.4814C16.2903 21.6359 17.3518 22.5772 18.6029 23.1203C18.8809 23.2206 19.1207 23.4574 19.14 23.7649C19.1998 24.2265 18.7304 24.6566 18.2761 24.543C17.8605 24.4228 17.4956 24.1824 17.1107 23.9921C17.0944 25.0445 17.1089 26.0963 17.1035 27.1487C17.0908 27.8664 17.2781 28.5757 17.5813 29.2221C18.0405 30.2117 18.7274 31.0756 19.4802 31.8574C20.2009 32.5812 20.9772 33.2554 21.823 33.8305C22.9371 33.0385 23.9756 32.1293 24.8528 31.0781C25.7258 30.0129 26.4822 28.7442 26.5269 27.3318C26.5293 26.2195 26.5299 25.1073 26.5263 23.9951C26.1445 24.1715 25.788 24.4071 25.3857 24.5358C24.97 24.6572 24.509 24.3153 24.4903 23.8863C24.4613 23.5704 24.6643 23.2665 24.9579 23.1541C26.1487 22.6472 27.186 21.7888 27.9049 20.7128C28.5556 19.7643 28.9888 18.6841 29.3047 17.5833C29.7663 15.9642 29.979 14.2895 30.191 12.6239C30.3716 11.2749 30.5021 9.90951 30.3982 8.54898C30.3124 7.42528 30.0412 6.29674 29.4715 5.31621C28.8546 4.27286 27.9521 3.41317 26.919 2.78667C25.3838 1.83998 23.5581 1.45937 21.7711 1.4491C20.2432 1.44427 18.7304 1.83333 17.3602 2.49849ZM30.7365 36.8579C30.0889 37.0017 29.5017 37.4004 29.1289 37.9502C28.6655 38.6099 28.5344 39.4865 28.7761 40.255C28.9725 40.905 29.4334 41.4669 30.0255 41.7967C30.6526 42.155 31.4295 42.2372 32.1182 42.0209C32.8214 41.8082 33.4244 41.2881 33.7403 40.6253C33.9929 40.11 34.0648 39.5113 33.9542 38.9494C33.8001 38.1459 33.2558 37.4228 32.5151 37.0699C31.9708 36.795 31.3304 36.7232 30.7365 36.8579Z" />
<path d="M23.8808 6.54258C24.0258 6.17405 24.5042 6.00671 24.8522 6.19037C25.1029 6.30636 25.2624 6.57158 25.26 6.84707C25.3071 7.73516 25.6678 8.6897 26.4635 9.16456C27.1208 9.56511 27.917 9.51979 28.6559 9.51436C28.6601 9.99707 28.6595 10.4798 28.6565 10.9625C27.9201 10.9752 27.1649 10.9879 26.4598 10.7438C25.5083 10.4472 24.7223 9.72399 24.2916 8.83168C24.0699 9.03044 23.8669 9.25156 23.624 9.42676C23.1274 9.79468 22.5607 10.0611 21.9759 10.2568C20.9199 10.6042 19.8125 10.7577 18.7087 10.8543C17.469 10.957 16.2239 10.9746 14.9805 10.9625C14.9715 10.4798 14.9679 9.99646 14.9823 9.51375C16.4782 9.52282 17.9795 9.50469 19.4657 9.3168C20.233 9.21531 21.002 9.07635 21.73 8.8057C22.3432 8.5719 22.948 8.23237 23.3298 7.68199C23.5865 7.34186 23.7261 6.93527 23.8808 6.54258Z" />
</svg>
