<svg  viewBox="0 0 25 25" xmlns="http://www.w3.org/2000/svg">
    <path d="M16.4976 11.5002L11.1336 6.13617L12.5476 4.72217L20.3256 12.5002L12.5476 20.2782L11.1336 18.8642L16.4976 13.5002H4.32556V11.5002H16.4976Z"
          />
</svg>
