<svg   viewBox="0 0 49 63" xmlns="http://www.w3.org/2000/svg">
    <path fill-rule="evenodd" clip-rule="evenodd"
          d="M14.4101 41.1899C14.6898 40.8844 15.1642 40.8634 15.4698 41.143L17.2387 42.7621C17.2388 42.7622 17.2386 42.762 17.2387 42.7621C17.7882 43.2636 18.5369 43.5558 19.3125 43.5558H30.3503C31.1412 43.5558 31.8777 43.2845 32.4114 42.774L32.4234 42.7627L34.1931 41.143C34.4986 40.8634 34.973 40.8844 35.2527 41.1899C35.5324 41.4955 35.5114 41.9699 35.2058 42.2495L33.4419 43.8639C32.5967 44.6691 31.4763 45.0558 30.3503 45.0558H19.3125C18.1686 45.0558 17.0576 44.6279 16.2273 43.8698L14.457 42.2495C14.1515 41.9699 14.1305 41.4955 14.4101 41.1899Z"
          />
    <path fill-rule="evenodd" clip-rule="evenodd"
          d="M42.2213 48.3432C42.2775 48.7536 41.9904 49.1318 41.58 49.188L36.5429 49.8776C36.5426 49.8776 36.5432 49.8775 36.5429 49.8776C35.626 50.006 34.9697 50.7672 34.9697 51.6843V52.194H41.4483C41.8625 52.194 42.1983 52.5298 42.1983 52.944C42.1983 53.3582 41.8625 53.694 41.4483 53.694H33.4697V51.6843C33.4697 50.0222 34.6735 48.6239 36.3356 48.392L36.3376 48.3917L41.3765 47.7018C41.7869 47.6457 42.1652 47.9328 42.2213 48.3432Z"
          />
    <path fill-rule="evenodd" clip-rule="evenodd"
          d="M6.93183 48.3132C6.98801 47.9028 7.36624 47.6156 7.77662 47.6718L12.82 48.3623C14.4427 48.5941 15.6834 49.9847 15.6834 51.6542V53.664H7.67489C7.26068 53.664 6.92489 53.3282 6.92489 52.914C6.92489 52.4998 7.26068 52.164 7.67489 52.164H14.1834V51.6542C14.1834 50.745 13.5056 49.9765 12.6098 49.8475L7.57317 49.158C7.16278 49.1018 6.87564 48.7235 6.93183 48.3132Z"
          />
    <path fill-rule="evenodd" clip-rule="evenodd"
          d="M3.77588 44.6056C4.19009 44.6056 4.52588 44.9414 4.52588 45.3556V57.3532C4.52588 57.7674 4.19009 58.1032 3.77588 58.1032C3.36167 58.1032 3.02588 57.7674 3.02588 57.3532V45.3556C3.02588 44.9414 3.36167 44.6056 3.77588 44.6056Z"
          />
    <path fill-rule="evenodd" clip-rule="evenodd"
          d="M11.7275 31.636L7.79948 39.1349C7.67003 39.382 7.41409 39.5369 7.1351 39.5369H2.57602C2.36036 39.5369 2.15625 39.711 2.15625 39.9867V42.3562C2.15625 42.4093 2.16749 42.47 2.19011 42.5252C2.21254 42.5799 2.23962 42.6137 2.26006 42.6316C2.27935 42.6485 2.29777 42.6663 2.31523 42.6851L4.32483 44.8447C4.607 45.1479 4.58993 45.6225 4.2867 45.9046C3.98347 46.1868 3.5089 46.1697 3.22672 45.8665L1.23948 43.731C0.831162 43.3543 0.65625 42.8183 0.65625 42.3562V39.9867C0.65625 38.8826 1.53193 38.0369 2.57602 38.0369H6.6813L10.4299 30.8804C10.4497 30.8427 10.4727 30.8067 10.4985 30.7728C11.4153 29.574 12.8622 28.8287 14.3937 28.8287H34.7896C36.311 28.8287 37.7663 29.5365 38.691 30.7812C38.7148 30.8132 38.736 30.8471 38.7544 30.8825L42.4735 38.0369H46.5772C47.6087 38.0369 48.497 38.8701 48.497 39.9567V42.3262C48.497 42.828 48.3154 43.3321 47.9134 43.7013L46.1275 45.6206V57.3232C46.1275 57.7374 45.7917 58.0732 45.3775 58.0732C44.9632 58.0732 44.6275 57.7374 44.6275 57.3232V45.3256C44.6275 45.136 44.6993 44.9535 44.8284 44.8147L46.838 42.6551C46.8555 42.6363 46.8739 42.6185 46.8932 42.6016C46.9484 42.5533 46.997 42.4709 46.997 42.3262V39.9567C46.997 39.7235 46.8054 39.5369 46.5772 39.5369H42.0181C41.7383 39.5369 41.4817 39.3811 41.3527 39.1328L37.4525 31.6302C36.816 30.8034 35.8287 30.3287 34.7896 30.3287H14.3937C13.3657 30.3287 12.3719 30.8237 11.7275 31.636Z"
          />
    <path fill-rule="evenodd" clip-rule="evenodd"
          d="M38.0288 56.6031C38.443 56.6031 38.7788 56.9389 38.7788 57.3531V57.8031C38.7788 59.3984 40.0927 60.7123 41.6881 60.7123C43.2835 60.7123 44.5974 59.3984 44.5974 57.8031V57.3531C44.5974 56.9389 44.9331 56.6031 45.3474 56.6031C45.7616 56.6031 46.0974 56.9389 46.0974 57.3531V57.8031C46.0974 60.2269 44.1119 62.2123 41.6881 62.2123C39.2643 62.2123 37.2788 60.2269 37.2788 57.8031V57.3531C37.2788 56.9389 37.6146 56.6031 38.0288 56.6031Z"
          />
    <path fill-rule="evenodd" clip-rule="evenodd"
          d="M3.80566 56.6031C4.21988 56.6031 4.55566 56.9389 4.55566 57.3531V57.8031C4.55566 59.3984 5.86955 60.7123 7.46493 60.7123C9.06031 60.7123 10.3742 59.3984 10.3742 57.8031V57.3531C10.3742 56.9389 10.71 56.6031 11.1242 56.6031C11.5384 56.6031 11.8742 56.9389 11.8742 57.3531V57.8031C11.8742 60.2269 9.88874 62.2123 7.46493 62.2123C5.04112 62.2123 3.05566 60.2269 3.05566 57.8031V57.3531C3.05566 56.9389 3.39145 56.6031 3.80566 56.6031Z"
          />
    <path fill-rule="evenodd" clip-rule="evenodd"
          d="M6.9248 57.3531C6.9248 56.9389 7.26059 56.6031 7.6748 56.6031H41.4481C41.8623 56.6031 42.1981 56.9389 42.1981 57.3531C42.1981 57.7674 41.8623 58.1031 41.4481 58.1031H7.6748C7.26059 58.1031 6.9248 57.7674 6.9248 57.3531Z"
          />
    <path fill-rule="evenodd" clip-rule="evenodd"
          d="M20.9321 52.944C20.9321 52.5298 21.2679 52.194 21.6821 52.194H27.471C27.8852 52.194 28.221 52.5298 28.221 52.944C28.221 53.3582 27.8852 53.694 27.471 53.694H21.6821C21.2679 53.694 20.9321 53.3582 20.9321 52.944Z"
          />
    <path fill-rule="evenodd" clip-rule="evenodd"
          d="M10.5542 38.7869C10.5542 38.3727 10.89 38.0369 11.3042 38.0369H37.8489C38.2631 38.0369 38.5989 38.3727 38.5989 38.7869C38.5989 39.2011 38.2631 39.5369 37.8489 39.5369H11.3042C10.89 39.5369 10.5542 39.2011 10.5542 38.7869Z"
          />
    <path fill-rule="evenodd" clip-rule="evenodd"
          d="M30.6533 11.7688C30.6533 11.4098 30.9443 11.1188 31.3033 11.1188V11.7688C31.3033 11.1188 31.3032 11.1188 31.3033 11.1188L31.3063 11.1188L31.3124 11.1188L31.3341 11.1189C31.3527 11.1191 31.3793 11.1194 31.4132 11.12C31.4811 11.1212 31.5786 11.1236 31.7004 11.1284C31.9435 11.1379 32.2848 11.1568 32.6807 11.1947C33.4632 11.2696 34.4947 11.4215 35.4069 11.7379C35.9654 11.9273 36.5678 11.9272 37.1263 11.7376C38.0445 11.4217 39.0755 11.2697 39.8569 11.1947C40.2519 11.1569 40.5919 11.1379 40.834 11.1284C40.9552 11.1236 41.0522 11.1212 41.1198 11.12C41.1536 11.1194 41.18 11.1191 41.1985 11.1189L41.2201 11.1188L41.2262 11.1188L41.2281 11.1188C41.2282 11.1188 41.2292 11.1188 41.2292 11.7688V11.1188C41.5882 11.1188 41.8792 11.4098 41.8792 11.7688C41.8792 12.1277 41.5883 12.4186 41.2295 12.4188C41.2294 12.4188 41.2295 12.4188 41.2295 12.4188L41.2256 12.4188L41.2097 12.4189C41.1952 12.419 41.1728 12.4193 41.1432 12.4198C41.084 12.4209 40.9962 12.423 40.885 12.4274C40.6623 12.4361 40.3471 12.4537 39.981 12.4888C39.2405 12.5598 38.3257 12.6996 37.5483 12.9672L37.5459 12.9681C36.7152 13.2505 35.8173 13.2505 34.9866 12.9681L34.9827 12.9667C34.2133 12.6997 33.2995 12.5598 32.5569 12.4888C32.1899 12.4537 31.8734 12.4361 31.6496 12.4274C31.5378 12.423 31.4495 12.4209 31.39 12.4198C31.3602 12.4193 31.3376 12.419 31.323 12.4189L31.307 12.4188L31.3036 12.4188C31.3035 12.4188 31.3036 12.4188 31.3036 12.4188M30.6533 11.7688C30.6533 12.1277 30.9447 12.4187 31.3036 12.4188Z"
          />
    <path fill-rule="evenodd" clip-rule="evenodd"
          d="M29.2933 14.4622C29.2796 14.5991 29.2702 14.7018 29.2702 14.7994C29.2702 15.2265 29.3886 15.5822 29.5519 15.8219C29.7158 16.0625 29.8976 16.1548 30.0414 16.1678L30.6326 16.2216V16.7325C31.1488 18.5959 32.3862 20.2024 34.052 21.2403L34.5688 21.5616C35.5933 22.2062 36.9103 22.2083 37.9524 21.5598L38.467 21.24L38.4695 21.2384C40.1298 20.2167 41.3659 18.615 41.8836 16.741C41.8843 16.737 41.8851 16.733 41.8859 16.729V16.2206L42.4781 16.1677C42.7645 16.1422 43.2483 15.732 43.2483 14.7994C43.2483 14.7025 43.2388 14.5982 43.2257 14.4797C43.1503 13.9968 42.5527 13.6849 42.063 13.9614L42.0547 13.9661L41.8385 14.0799C41.7687 14.6049 41.5602 15.1183 41.1866 15.5372C40.5712 16.2313 39.8228 16.3391 39.1021 16.3391C38.3762 16.3391 37.8751 16.1483 37.4505 15.9443C36.6821 15.596 35.8192 15.596 35.0678 15.938C34.6245 16.1735 34.107 16.3391 33.4024 16.3391C32.6817 16.3391 31.9333 16.2313 31.3179 15.5371C30.9417 15.1152 30.7335 14.5895 30.665 14.0664L30.4555 13.9475C30.4553 13.9474 30.4556 13.9476 30.4555 13.9475C29.961 13.6688 29.37 13.9745 29.2933 14.4622ZM30.5931 16.6068C30.5923 16.6048 30.5917 16.6034 30.5916 16.6032L30.592 16.6042L30.5931 16.6068ZM28.0044 14.2917C28.2128 12.8117 29.869 12.1235 31.0945 12.8154L31.0958 12.8161L31.9394 13.2949V13.6734C31.9394 14.0569 32.0652 14.4221 32.2886 14.6723L32.2903 14.6743C32.5366 14.9524 32.8167 15.0391 33.4024 15.0391C33.8832 15.0391 34.1952 14.9314 34.4705 14.7832L34.4879 14.7738L34.5057 14.7656C35.6116 14.2539 36.8802 14.2556 37.9955 14.764L38.0079 14.7697C38.3325 14.926 38.6363 15.0391 39.1021 15.0391C39.6879 15.0391 39.9679 14.9524 40.2143 14.6743L40.216 14.6723C40.4407 14.4207 40.5652 14.0686 40.5652 13.6734V13.2809L41.4331 12.8242C42.6633 12.1377 44.3061 12.8493 44.5139 14.3043L44.5154 14.3144L44.5165 14.3245C44.5306 14.4513 44.5483 14.6214 44.5483 14.7994C44.5483 15.876 44.0294 17.0114 43.056 17.3615C42.4063 19.445 40.9998 21.2073 39.1522 22.3448C39.1518 22.345 39.1513 22.3453 39.1509 22.3456L38.6392 22.6636C37.1795 23.5719 35.3278 23.5742 33.878 22.6628C33.8775 22.6625 33.877 22.6622 33.8765 22.6619L33.3651 22.344C31.5189 21.1937 30.111 19.4302 29.4615 17.3566C29.053 17.203 28.7181 16.907 28.4775 16.5538C28.1507 16.074 27.9702 15.4566 27.9702 14.7994C27.9702 14.6276 27.9869 14.461 28.0001 14.3293C28.0005 14.3254 28.0009 14.3215 28.0012 14.3177L28.0025 14.3047L28.0044 14.2917ZM41.9303 16.5845C41.9304 16.5841 41.9304 16.5841 41.9303 16.5845Z"
          />
    <path fill-rule="evenodd" clip-rule="evenodd"
          d="M31.06 2.85133C32.39 1.29533 34.3895 0.928711 36.2798 0.928711C38.0945 0.928711 40.1696 1.29279 41.488 2.86796C42.1783 3.66956 42.6027 4.6251 42.8694 5.57325C42.9666 5.91883 42.7652 6.27777 42.4196 6.37496C42.074 6.47216 41.7151 6.2708 41.6179 5.92522C41.3846 5.0955 41.0314 4.3288 40.5003 3.71323L40.4935 3.70531L40.4936 3.70525C39.5597 2.58691 37.9946 2.22871 36.2798 2.22871C34.5004 2.22871 32.9973 2.58478 32.0474 3.69689L32.0453 3.69933L32.0453 3.69933C31.5163 4.31255 31.1626 5.09101 30.9284 5.93661C30.8326 6.28258 30.4745 6.48537 30.1285 6.38956C29.7826 6.29376 29.5798 5.93563 29.6756 5.58967C29.9418 4.62852 30.3663 3.65585 31.06 2.85133Z"
          />
    <path fill-rule="evenodd" clip-rule="evenodd"
          d="M33.1416 20.6168C33.4835 20.7262 33.6719 21.0921 33.5625 21.434L33.3407 22.1271C32.9902 23.246 32.048 24.0804 30.9004 24.3064L30.8928 24.3079L26.8127 25.0109C26.7985 25.0151 26.7858 25.0188 26.7752 25.0218C26.7678 25.0239 26.7617 25.0256 26.7564 25.0271C26.7439 25.0307 26.7362 25.0328 26.7283 25.0352C26.4249 25.1966 26.045 25.0935 25.8662 24.7955C25.6815 24.4877 25.7813 24.0884 26.0891 23.9037C26.1922 23.8419 26.2903 23.8097 26.3472 23.7923C26.3972 23.7771 26.4123 23.7732 26.4222 23.7707C26.4306 23.7686 26.4352 23.7674 26.4543 23.761L26.501 23.7455L30.6562 23.0295C31.3396 22.8923 31.8953 22.3942 32.1006 21.7371L32.1019 21.7328L32.3244 21.0378C32.4338 20.6959 32.7997 20.5074 33.1416 20.6168Z"
          />
    <path fill-rule="evenodd" clip-rule="evenodd"
          d="M39.5014 20.6168C39.8433 20.5074 40.2092 20.6959 40.3186 21.0378L40.5423 21.7371C40.7477 22.3942 41.3033 22.8923 41.9867 23.0295L46.1419 23.7455L46.1886 23.761C46.2077 23.7674 46.2124 23.7686 46.2208 23.7707C46.2307 23.7732 46.2457 23.7771 46.2957 23.7923C46.34 23.8058 46.4092 23.8283 46.4863 23.8667C48.0466 24.4538 48.9964 25.9805 48.9964 27.6029V31.5788C48.9964 31.9378 48.7054 32.2288 48.3464 32.2288C47.9874 32.2288 47.6964 31.9378 47.6964 31.5788V27.6029C47.6964 26.4607 47.0243 25.4434 45.9983 25.0723L45.939 25.0509L45.9113 25.0342C45.9044 25.0322 45.8973 25.0302 45.8866 25.0271C45.8813 25.0256 45.8751 25.0239 45.8677 25.0218C45.8572 25.0188 45.8444 25.0151 45.8302 25.0109L41.7502 24.3079L41.7425 24.3064C40.5949 24.0804 39.6528 23.246 39.3022 22.1271L39.0804 21.434C38.971 21.0921 39.1595 20.7262 39.5014 20.6168ZM45.9267 25.0391C45.9267 25.0391 45.9263 25.0389 45.9254 25.0386Z"
          />
    <path fill-rule="evenodd" clip-rule="evenodd"
          d="M39.4253 6.89575C39.4293 6.53679 39.7236 6.24906 40.0825 6.25309C40.7801 6.26093 41.4124 6.40117 41.8642 6.53541C42.0919 6.60305 42.2783 6.67053 42.4098 6.722C42.4756 6.74777 42.528 6.76965 42.5652 6.78568C42.5838 6.7937 42.5986 6.80027 42.6095 6.80515L42.6156 6.80792C43.0261 6.98018 43.6494 7.25049 44.0205 7.80534C44.4417 8.42805 44.3821 9.19222 44.1932 9.74179C44.0177 10.2523 43.7772 10.7004 43.4613 11.1268L43.1462 11.5523L42.6658 11.3297C40.8498 10.4885 38.1228 9.8057 36.141 9.7774C34.17 9.80556 31.6934 10.4834 29.8665 11.3297L29.3861 11.5523L29.071 11.1268C28.7551 10.7004 28.5146 10.2523 28.3391 9.74179C28.1445 9.17577 28.1134 8.42485 28.5044 7.81662C28.8716 7.24539 29.4957 6.98414 29.8945 6.81718C29.9051 6.81275 29.9155 6.80839 29.9258 6.80409L29.9453 6.79591L30.7716 6.51099C31.1109 6.39396 31.4809 6.57421 31.598 6.91359C31.715 7.25296 31.5347 7.62295 31.1954 7.73997L30.4093 8.01104C29.9567 8.20159 29.7197 8.33017 29.5979 8.51961C29.4884 8.68987 29.4572 8.99549 29.5685 9.31918C29.642 9.53305 29.7302 9.7314 29.8363 9.92189C31.7243 9.12465 34.1225 8.50419 36.1324 8.47739L36.141 8.47728L36.1497 8.47739C38.1527 8.5041 40.7623 9.12183 42.695 9.92361C42.8015 9.73259 42.89 9.53369 42.9638 9.31918C43.0805 8.97969 43.0487 8.68848 42.9433 8.53309L42.9403 8.52868C42.8135 8.33846 42.5547 8.19208 42.1037 8.00294L42.0919 7.99797L42.0815 7.99314L42.0805 7.99265L42.0767 7.99094L42.0506 7.97948C42.0259 7.96885 41.9872 7.95261 41.9359 7.93255C41.8332 7.89235 41.6817 7.83732 41.494 7.78158C41.1153 7.66907 40.6076 7.55908 40.0679 7.55301C39.709 7.54898 39.4212 7.25471 39.4253 6.89575Z"
          />
    <path fill-rule="evenodd" clip-rule="evenodd"
          d="M30.1517 11.0948C30.1504 11.0968 30.1469 11.1027 30.1415 11.1121C30.1308 11.131 30.1131 11.1639 30.0922 11.2093C30.0503 11.3006 29.9976 11.4382 29.9624 11.6104C29.8935 11.9475 29.8882 12.4257 30.1816 12.9798C30.3495 13.2971 30.2285 13.6904 29.9112 13.8584C29.594 14.0264 29.2006 13.9053 29.0326 13.5881C28.5753 12.7242 28.5701 11.9304 28.6888 11.3499C28.7474 11.0634 28.8355 10.8309 28.9108 10.6668C28.9487 10.5844 28.9837 10.5183 29.0111 10.4701C29.0248 10.4459 29.0367 10.4262 29.046 10.411L29.0582 10.3917L29.0628 10.3846L29.0647 10.3818L29.0655 10.3805L29.0659 10.3799C29.0661 10.3796 29.0663 10.3794 29.6071 10.7399L29.0663 10.3794C29.2654 10.0807 29.669 9.99995 29.9677 10.1991C30.2645 10.3969 30.346 10.7967 30.1517 11.0948C30.152 11.0943 30.1522 11.094 30.1522 11.094C30.1522 11.094 30.152 11.0942 30.1517 11.0947L30.1517 11.0948ZM30.1517 11.0948C30.1517 11.0948 30.1517 11.0948 30.1517 11.0948Z"
          />
    <path fill-rule="evenodd" clip-rule="evenodd"
          d="M42.5088 10.1991C42.8075 9.99995 43.2111 10.0807 43.4102 10.3794L42.8694 10.7399C43.4102 10.3794 43.4104 10.3796 43.4106 10.3799L43.411 10.3805L43.4118 10.3818L43.4137 10.3846L43.4183 10.3917L43.4304 10.411C43.4398 10.4262 43.4516 10.4459 43.4654 10.4701C43.4927 10.5183 43.5278 10.5844 43.5656 10.6668C43.641 10.8309 43.7291 11.0634 43.7877 11.3499C43.9064 11.9304 43.9012 12.7242 43.4438 13.5881C43.2759 13.9053 42.8825 14.0264 42.5652 13.8584C42.248 13.6904 42.1269 13.2971 42.2949 12.9798C42.5883 12.4257 42.583 11.9475 42.5141 11.6104C42.4788 11.4382 42.4262 11.3006 42.3842 11.2093C42.3634 11.1639 42.3457 11.131 42.335 11.1121C42.3296 11.1027 42.3261 11.0968 42.3248 11.0948M42.3248 11.0948C42.3248 11.0948 42.3248 11.0948 42.3248 11.0948C42.1304 10.7967 42.212 10.3969 42.5088 10.1991"
          />
    <path fill-rule="evenodd" clip-rule="evenodd"
          d="M42.4083 23.3067C42.6082 23.6049 42.5285 24.0086 42.2304 24.2085L39.7419 25.8767L39.7406 25.8777C37.6433 27.2758 34.8958 27.2601 32.8146 25.8468L30.3961 24.2066C30.099 24.0051 30.0215 23.6009 30.2229 23.3038C30.4244 23.0067 30.8286 22.9292 31.1257 23.1307L33.5446 24.7711C35.1889 25.8877 37.3625 25.9002 39.0187 24.7965C39.019 24.7963 39.0185 24.7967 39.0187 24.7965L41.5065 23.1287C41.8046 22.9288 42.2084 23.0085 42.4083 23.3067Z"
          />
</svg>
