<svg   viewBox="0 0 37 69"  xmlns="http://www.w3.org/2000/svg">
<path d="M13.9838 0.170643C14.2894 -0.132423 14.8561 -0.0129216 15.0236 0.380078C15.1037 0.657272 15.0667 0.951714 15.0828 1.2363C15.2577 1.40508 15.4893 1.57386 15.4795 1.84736C15.5029 2.82554 15.4856 3.8062 15.4819 4.78438C15.7911 3.31833 16.6806 1.98411 17.9533 1.18332C19.5006 0.129988 21.5247 -0.182934 23.3173 0.357902C25.1012 0.879027 26.7077 2.20217 27.3138 3.99222C27.7832 5.23775 27.5787 6.58676 27.6255 7.88402C27.7314 9.61495 26.9454 11.2658 25.9562 12.6394C26.9639 13.0632 28.0443 13.4008 28.8944 14.1141C29.5424 14.6636 29.7198 15.5728 29.5868 16.3809C31.0109 16.8294 32.2528 17.8642 32.8749 19.2317C33.2605 20.104 33.4281 21.0908 33.2926 22.0382C33.1176 22.5876 32.2355 22.5999 32.0667 22.0382C31.983 21.5417 32.0667 21.0279 31.9448 20.5364C31.6319 19.0358 30.3543 17.7989 28.8476 17.5242C28.2661 17.9677 27.5984 18.2757 26.922 18.5443C23.3752 19.982 19.2567 19.9278 15.7493 18.3952C15.7406 18.7623 15.7911 19.1393 15.7 19.4991C15.6026 19.8366 15.2996 20.0399 15.0236 20.2247C14.7538 22.0887 14.5037 23.9563 14.2462 25.8216C19.0744 25.824 23.9025 25.8216 28.7306 25.8228C28.749 24.9407 28.701 24.0561 28.7515 23.1753C28.8057 22.7022 29.4673 22.5026 29.8011 22.818C29.9761 22.9572 30.0315 23.1851 30.0266 23.4007C30.0315 24.2077 30.0229 25.0146 30.0254 25.8228C30.6919 25.8228 31.3596 25.8216 32.0273 25.824C32.0446 25.059 31.9928 24.2927 32.0507 23.5301C32.1394 22.9289 33.0991 22.8463 33.2913 23.4278C33.3886 24.2323 33.3234 25.0503 33.3307 25.861C33.3566 26.5435 32.7246 27.1164 32.0581 27.1003C25.026 27.1028 17.9939 27.1028 10.963 27.0991C10.3027 27.1176 9.68672 26.5509 9.70273 25.8807C9.68672 24.4368 9.7052 22.9929 9.69534 21.5491C9.68548 21.0723 9.74462 20.5992 9.8247 20.1298C9.32944 19.7393 9.11261 19.074 9.0658 18.4691C9.14957 17.7115 10.0157 17.6154 10.591 17.4059C10.5934 16.7592 10.5737 16.1124 10.6218 15.4681C9.77542 14.8656 8.94507 14.2225 8.24161 13.4538C7.91637 13.1138 7.9213 12.5261 8.26379 12.1984C8.59888 11.8719 8.96848 11.5812 9.33314 11.2892C9.69041 10.9837 10.2645 11.0021 10.6045 11.3262C11.0604 11.7463 11.5174 12.1664 12.0078 12.5458C12.0349 12.0851 12.0903 11.607 12.3318 11.203C12.5547 10.8013 12.9675 10.4749 12.9662 9.97715C13.0032 8.6614 12.9588 7.34442 12.9835 6.02744C12.9613 5.62582 13.4258 5.3129 13.7953 5.44472C13.9296 5.50016 14.0553 5.57654 14.1834 5.64799C14.1785 5.29688 14.1785 4.94454 14.1859 4.59343C13.9469 4.77576 13.6414 4.95563 13.342 4.78438C12.9551 4.63039 12.9588 4.17086 12.9749 3.82221C12.9921 3.25181 12.9453 2.68017 13.002 2.11223C13.0599 1.69459 13.4245 1.43711 13.7719 1.25848C13.8003 0.896275 13.6857 0.449069 13.9838 0.170643ZM20.6439 1.44697C19.0485 1.73032 17.511 2.79105 16.9652 4.36058C16.6129 5.2476 16.7201 6.21593 16.7065 7.14607C16.7151 7.69061 16.6769 8.23637 16.7287 8.77967C16.842 9.51516 17.1352 10.2112 17.4765 10.8679C18.0296 11.9015 18.7947 12.8698 19.8394 13.439C20.8361 13.9786 22.0939 14.0008 23.1017 13.4796C24.1353 12.961 24.8967 12.0333 25.4572 11.044C25.9648 10.1139 26.3972 9.0852 26.3319 8.00353C26.2703 6.70503 26.5278 5.33138 25.966 4.1068C25.0913 2.13564 22.7259 1.06259 20.6439 1.44697ZM14.2968 8.15013C14.1908 9.04824 14.4323 9.99563 14.0836 10.8568C13.8816 11.4112 13.2853 11.7894 13.3235 12.4312C13.3087 14.6205 13.3223 16.8109 13.3173 19.0013C13.6968 19.0013 14.0762 19.0013 14.4569 19.0013C14.4594 15.5826 14.4508 12.1639 14.4606 8.74517C14.452 8.5382 14.4853 8.29674 14.2968 8.15013ZM15.7493 10.2001C15.7517 11.1943 15.7505 12.1898 15.7505 13.1852C16.1829 12.993 16.6215 12.8156 17.0638 12.6456C16.5168 11.8941 16.0893 11.0637 15.7493 10.2001ZM9.44771 12.8563C10.2263 13.6127 11.0936 14.273 12.0213 14.8385C12.0213 14.5934 12.0238 14.3494 12.025 14.1043C11.2735 13.6275 10.57 13.0743 9.93434 12.4522C9.77295 12.5889 9.61033 12.722 9.44771 12.8563ZM15.7505 14.5749C15.7517 15.3806 15.7468 16.1851 15.7542 16.9908C18.8686 18.5172 22.5953 18.7352 25.8638 17.5747C26.5845 17.3172 27.3064 17.029 27.9421 16.5978C28.5174 16.222 28.43 15.266 27.8571 14.9272C26.9885 14.3679 25.9931 14.0562 25.0543 13.6398C24.9656 13.7273 24.8769 13.8147 24.7895 13.9047C24.7944 14.3125 24.7611 14.7239 24.8166 15.1305C24.8622 15.4594 25.2182 15.5604 25.4535 15.7231C25.7849 15.8992 25.8071 16.408 25.5422 16.6507C24.4876 17.661 23.0302 18.2203 21.574 18.2351C20.103 18.2548 18.6284 17.7004 17.5442 16.705C17.3336 16.5362 17.2338 16.2306 17.3521 15.9793C17.4987 15.5962 18.0481 15.6184 18.191 15.229C18.292 14.7966 18.2341 14.347 18.244 13.9071C18.1491 13.8172 18.053 13.7273 17.9582 13.6386C17.2252 13.9601 16.481 14.2496 15.7505 14.5749ZM19.0694 16.2738C20.5355 17.1854 22.4955 17.1842 23.9604 16.2701C23.6277 15.8229 23.4602 15.2833 23.4799 14.7264C22.2381 15.2635 20.7966 15.2611 19.5536 14.7289C19.5671 15.2857 19.3922 15.8216 19.0694 16.2738ZM11.9141 16.1641C11.8821 16.4561 11.8846 16.7518 11.924 17.0437C12.0558 16.7629 12.0657 16.4413 11.9141 16.1641ZM11.2624 19.9056C10.9322 20.7618 11.0099 21.687 11.0062 22.5839C11.3363 21.6144 11.6542 20.6399 11.9831 19.6691C11.7416 19.7467 11.5026 19.8268 11.2624 19.9056ZM11.9141 23.9711C12.3231 24.0771 12.7334 24.1818 13.1436 24.2877C13.3284 22.9523 13.5108 21.6156 13.7005 20.2801C13.5145 20.2789 13.3297 20.2789 13.1449 20.2777C12.7334 21.5084 12.3231 22.7404 11.9141 23.9711ZM11.4102 25.1896C11.4435 25.2339 11.51 25.3238 11.5433 25.3682C12.0176 25.5468 12.5215 25.6392 13.0143 25.755C12.9822 25.707 12.9169 25.6121 12.8849 25.5641C12.4131 25.378 11.908 25.2832 11.4102 25.1896Z" />
<path d="M18.0407 5.11694C18.3807 4.98265 18.7516 4.98512 19.1113 4.98389C20.8348 4.99374 22.5596 4.98142 24.2831 4.98881C24.9977 4.97896 25.69 5.39413 26.0214 6.02613C26.5845 7.0228 25.9561 8.40877 24.8498 8.66995C23.2865 8.99519 21.6726 9.18615 20.0821 8.95946C19.476 8.87199 18.8686 8.79438 18.2662 8.68597C17.3644 8.49994 16.6868 7.57965 16.8112 6.6606C16.8802 5.96331 17.3952 5.36087 18.0407 5.11694ZM18.1109 6.78133C18.0358 7.06838 18.2982 7.27043 18.4362 7.48602C18.4128 7.20513 18.2674 6.87497 18.4929 6.63719C18.7848 6.26021 19.3257 6.40805 19.7359 6.3908C20.0858 6.37232 20.4135 6.67046 20.4073 7.0265C20.4246 7.31601 20.1609 7.48726 19.986 7.67452C21.0455 7.82851 22.1161 7.79895 23.1793 7.69669C22.9624 7.56241 22.6766 7.43428 22.6372 7.14846C22.5387 6.75177 22.8996 6.36986 23.2951 6.3908C23.7053 6.40312 24.2314 6.275 24.5344 6.63227C24.7673 6.87743 24.6108 7.22115 24.5665 7.50697C24.7266 7.28891 24.9915 7.07578 24.9176 6.77148C24.8757 6.46841 24.5813 6.25035 24.2807 6.2713C22.4734 6.25775 20.6648 6.27007 18.8563 6.26514C18.5237 6.22818 18.1479 6.42037 18.1109 6.78133Z" />
<path d="M5.4315 24.141C6.64992 23.5669 7.85725 22.9731 9.0843 22.4175C9.08184 22.962 9.0843 23.5078 9.07937 24.0535C8.05806 24.5229 7.04538 25.0096 6.03147 25.4937C5.21467 25.8769 4.57651 26.669 4.47179 27.577C4.42005 28.0895 4.45454 28.6044 4.44838 29.1194C13.6931 29.1182 22.9378 29.1194 32.1813 29.1182C32.1801 28.8977 32.1813 28.6771 32.1813 28.4566C32.6741 28.4566 33.1669 28.4566 33.6597 28.4566C33.6585 36.4669 33.6572 44.4772 33.6757 52.4862C33.7164 53.8685 33.0265 55.2434 31.8869 56.0257C31.112 56.5961 30.1449 56.8129 29.1963 56.8055C31.6208 60.1713 34.0379 63.5432 36.4563 66.9126C36.7088 67.2034 36.683 67.6666 36.4082 67.934C36.1064 68.2604 35.5261 68.1816 35.2871 67.8181C34.7266 67.0494 34.1747 66.2732 33.624 65.4971C23.4208 65.4873 13.2176 65.4959 3.01437 65.4922C2.45135 66.2733 1.90436 67.0642 1.32903 67.8354C1.07031 68.2296 0.434614 68.2407 0.159884 67.8576C-0.101294 67.5631 -0.0150562 67.1282 0.221483 66.8486C2.63245 63.5025 5.02618 60.1442 7.44084 56.8006C6.30989 56.8437 5.15307 56.4766 4.32518 55.6881C3.4628 54.9132 2.95893 53.7638 2.96878 52.6045C2.96878 44.6805 2.96878 36.7564 2.96878 28.8336C2.97494 28.2349 2.92566 27.6263 3.06241 27.0386C3.3433 25.7734 4.25496 24.6757 5.4315 24.141ZM4.44838 30.5965C4.44592 33.5693 4.44715 36.5408 4.44715 39.5136C13.6919 39.4803 22.9354 39.5049 32.1801 39.4976C32.1826 36.531 32.1826 33.5644 32.1801 30.5978C22.9366 30.5965 13.6919 30.5978 4.44838 30.5965ZM4.44715 40.9919C4.44838 44.8628 4.44469 48.7337 4.44838 52.6045C4.40403 54.0496 5.70992 55.3592 7.15749 55.3124C14.5912 55.3136 22.0249 55.3161 29.4587 55.3112C30.5071 55.3333 31.5185 54.6829 31.9485 53.7305C32.2146 53.1897 32.2023 52.5737 32.1986 51.9861C32.1998 48.316 32.1702 44.6472 32.1813 40.9759C22.9366 40.9845 13.6919 40.9587 4.44715 40.9919ZM9.25061 56.792C8.71963 57.5521 8.1751 58.3036 7.63426 59.0564C14.7526 59.0551 21.8709 59.0564 28.9881 59.0551C28.4534 58.2975 27.9113 57.5447 27.3705 56.792C21.3313 56.7932 15.291 56.7908 9.25061 56.792ZM6.5797 60.5298C5.74811 61.694 4.90421 62.8471 4.08249 64.0175C13.5724 64.0077 23.0635 64.0175 32.5546 64.0126C31.7169 62.8545 30.8915 61.6891 30.0537 60.5323C22.2295 60.5347 14.404 60.5384 6.5797 60.5298Z" />
<path d="M8.29832 46.605C9.80748 46.589 11.3191 46.5964 12.8295 46.6013C13.6094 46.605 14.3756 47.0251 14.7699 47.7027C15.1727 48.3531 15.1087 49.1527 15.068 49.8833C14.967 50.944 14.0258 51.8409 12.9576 51.8741C11.4349 51.8864 9.9122 51.8778 8.38948 51.8791C7.28563 51.8926 6.27172 50.9809 6.14852 49.8882C6.10417 49.3991 6.09924 48.9014 6.17809 48.4172C6.36042 47.4205 7.28194 46.6272 8.29832 46.605ZM8.30447 48.0907C7.71313 48.1228 7.53572 48.7843 7.59609 49.2771C7.52217 49.7736 7.80676 50.4019 8.37716 50.3933C9.86538 50.4068 11.3548 50.4044 12.8418 50.3958C13.2545 50.4167 13.6057 50.0446 13.6032 49.6406C13.6167 49.2821 13.65 48.9112 13.5478 48.5638C13.4098 48.1733 12.9613 48.0439 12.5868 48.0735C11.159 48.0895 9.7311 48.0525 8.30447 48.0907Z" />
<path d="M23.5908 46.6186C25.1344 46.5681 26.683 46.6112 28.2279 46.5965C29.0755 46.5706 29.9268 47.0412 30.3062 47.8087C30.6229 48.3717 30.5736 49.0358 30.5637 49.6579C30.56 50.6028 29.8775 51.4788 28.988 51.7683C28.5827 51.9063 28.1491 51.8792 27.729 51.8816C26.4144 51.8718 25.0999 51.8902 23.7854 51.8755C22.6754 51.8644 21.6701 50.9059 21.6245 49.7947C21.6122 49.138 21.5371 48.4333 21.8574 47.8321C22.1912 47.1779 22.8614 46.7086 23.5908 46.6186ZM23.7177 48.1007C23.0364 48.2116 23.0499 49.0037 23.093 49.5347C23.0487 49.9868 23.4294 50.4427 23.9025 50.3971C25.2601 50.4094 26.6202 50.3934 27.979 50.4045C28.2797 50.402 28.6345 50.4106 28.8464 50.1556C29.1999 49.839 29.0706 49.3167 29.0866 48.899C29.1285 48.4259 28.6936 48.0305 28.2304 48.0773C26.7274 48.0896 25.2194 48.044 23.7177 48.1007Z" />
</svg>
