<svg   viewBox="0 0 39 58"  xmlns="http://www.w3.org/2000/svg">
<path fill-rule="evenodd" clip-rule="evenodd" d="M32.0054 41.5786C32.4196 41.5786 32.7554 41.9144 32.7554 42.3286V57.2007C32.7554 57.6149 32.4196 57.9507 32.0054 57.9507C31.5912 57.9507 31.2554 57.6149 31.2554 57.2007V42.3286C31.2554 41.9144 31.5912 41.5786 32.0054 41.5786Z" />
<path fill-rule="evenodd" clip-rule="evenodd" d="M32.0054 2.16846C32.4196 2.16846 32.7554 2.50424 32.7554 2.91846V29.3286C32.7554 29.7428 32.4196 30.0786 32.0054 30.0786C31.5912 30.0786 31.2554 29.7428 31.2554 29.3286V2.91846C31.2554 2.50424 31.5912 2.16846 32.0054 2.16846Z" />
<path fill-rule="evenodd" clip-rule="evenodd" d="M6.97473 0.629395C7.38895 0.629395 7.72473 0.965181 7.72473 1.37939V57.2007C7.72473 57.6149 7.38895 57.9507 6.97473 57.9507C6.56052 57.9507 6.22473 57.6149 6.22473 57.2007V1.37939C6.22473 0.965181 6.56052 0.629395 6.97473 0.629395Z" />
<path fill-rule="evenodd" clip-rule="evenodd" d="M4.09143 7.77881C4.09143 7.3646 4.42722 7.02881 4.84143 7.02881H34.1387C34.5529 7.02881 34.8887 7.3646 34.8887 7.77881C34.8887 8.19302 34.5529 8.52881 34.1387 8.52881H4.84143C4.42722 8.52881 4.09143 8.19302 4.09143 7.77881Z" />
<path fill-rule="evenodd" clip-rule="evenodd" d="M4.09143 14.5347C4.09143 14.1205 4.42722 13.7847 4.84143 13.7847H34.1387C34.5529 13.7847 34.8887 14.1205 34.8887 14.5347C34.8887 14.9489 34.5529 15.2847 34.1387 15.2847H4.84143C4.42722 15.2847 4.09143 14.9489 4.09143 14.5347Z" />
<path fill-rule="evenodd" clip-rule="evenodd" d="M33.3887 7.77881C33.3887 7.3646 33.7245 7.02881 34.1387 7.02881H37.6942C38.1084 7.02881 38.4442 7.3646 38.4442 7.77881V14.5343C38.4442 14.9485 38.1084 15.2843 37.6942 15.2843H34.1387C33.7245 15.2843 33.3887 14.9485 33.3887 14.5343C33.3887 14.12 33.7245 13.7843 34.1387 13.7843H36.9442V8.52881H34.1387C33.7245 8.52881 33.3887 8.19302 33.3887 7.77881Z" />
<path fill-rule="evenodd" clip-rule="evenodd" d="M0.535889 7.77881C0.535889 7.3646 0.871675 7.02881 1.28589 7.02881H4.84138C5.2556 7.02881 5.59138 7.3646 5.59138 7.77881C5.59138 8.19302 5.2556 8.52881 4.84138 8.52881H2.03589V13.7843H4.84138C5.2556 13.7843 5.59138 14.12 5.59138 14.5343C5.59138 14.9485 5.2556 15.2843 4.84138 15.2843H1.28589C0.871675 15.2843 0.535889 14.9485 0.535889 14.5343V7.77881Z" />
<path fill-rule="evenodd" clip-rule="evenodd" d="M4.09143 20.2231C4.09143 19.8089 4.42722 19.4731 4.84143 19.4731H34.1387C34.5529 19.4731 34.8887 19.8089 34.8887 20.2231C34.8887 20.6374 34.5529 20.9731 34.1387 20.9731H4.84143C4.42722 20.9731 4.09143 20.6374 4.09143 20.2231Z" />
<path fill-rule="evenodd" clip-rule="evenodd" d="M4.09143 26.979C4.09143 26.5648 4.42722 26.229 4.84143 26.229H34.1387C34.5529 26.229 34.8887 26.5648 34.8887 26.979C34.8887 27.3932 34.5529 27.729 34.1387 27.729H4.84143C4.42722 27.729 4.09143 27.3932 4.09143 26.979Z" />
<path fill-rule="evenodd" clip-rule="evenodd" d="M33.3887 20.2231C33.3887 19.8089 33.7245 19.4731 34.1387 19.4731H37.6942C38.1084 19.4731 38.4442 19.8089 38.4442 20.2231V26.9786C38.4442 27.3928 38.1084 27.7286 37.6942 27.7286H34.1387C33.7245 27.7286 33.3887 27.3928 33.3887 26.9786C33.3887 26.5644 33.7245 26.2286 34.1387 26.2286H36.9442V20.9731H34.1387C33.7245 20.9731 33.3887 20.6374 33.3887 20.2231Z" />
<path fill-rule="evenodd" clip-rule="evenodd" d="M0.535889 20.2231C0.535889 19.8089 0.871675 19.4731 1.28589 19.4731H4.84138C5.2556 19.4731 5.59138 19.8089 5.59138 20.2231C5.59138 20.6374 5.2556 20.9731 4.84138 20.9731H2.03589V26.2286H4.84138C5.2556 26.2286 5.59138 26.5644 5.59138 26.9786C5.59138 27.3928 5.2556 27.7286 4.84138 27.7286H1.28589C0.871675 27.7286 0.535889 27.3928 0.535889 26.9786V20.2231Z" />
<path fill-rule="evenodd" clip-rule="evenodd" d="M4.09143 32.6675C4.09143 32.2533 4.42722 31.9175 4.84143 31.9175H34.1387C34.5529 31.9175 34.8887 32.2533 34.8887 32.6675C34.8887 33.0817 34.5529 33.4175 34.1387 33.4175H4.84143C4.42722 33.4175 4.09143 33.0817 4.09143 32.6675Z" />
<path fill-rule="evenodd" clip-rule="evenodd" d="M4.09143 39.4233C4.09143 39.0091 4.42722 38.6733 4.84143 38.6733H34.1387C34.5529 38.6733 34.8887 39.0091 34.8887 39.4233C34.8887 39.8376 34.5529 40.1733 34.1387 40.1733H4.84143C4.42722 40.1733 4.09143 39.8376 4.09143 39.4233Z" />
<path fill-rule="evenodd" clip-rule="evenodd" d="M33.3887 32.6675C33.3887 32.2533 33.7245 31.9175 34.1387 31.9175H37.6942C38.1084 31.9175 38.4442 32.2533 38.4442 32.6675V39.4229C38.4442 39.8371 38.1084 40.1729 37.6942 40.1729H34.1387C33.7245 40.1729 33.3887 39.8371 33.3887 39.4229C33.3887 39.0087 33.7245 38.6729 34.1387 38.6729H36.9442V33.4175H34.1387C33.7245 33.4175 33.3887 33.0817 33.3887 32.6675Z" />
<path fill-rule="evenodd" clip-rule="evenodd" d="M0.535889 32.6675C0.535889 32.2533 0.871675 31.9175 1.28589 31.9175H4.84138C5.2556 31.9175 5.59138 32.2533 5.59138 32.6675C5.59138 33.0817 5.2556 33.4175 4.84138 33.4175H2.03589V38.6729H4.84138C5.2556 38.6729 5.59138 39.0087 5.59138 39.4229C5.59138 39.8371 5.2556 40.1729 4.84138 40.1729H1.28589C0.871675 40.1729 0.535889 39.8371 0.535889 39.4229V32.6675Z" />
<path fill-rule="evenodd" clip-rule="evenodd" d="M4.09143 45.1831C4.09143 44.7689 4.42722 44.4331 4.84143 44.4331H34.1387C34.5529 44.4331 34.8887 44.7689 34.8887 45.1831C34.8887 45.5973 34.5529 45.9331 34.1387 45.9331H4.84143C4.42722 45.9331 4.09143 45.5973 4.09143 45.1831Z" />
<path fill-rule="evenodd" clip-rule="evenodd" d="M4.09143 51.939C4.09143 51.5248 4.42722 51.189 4.84143 51.189H34.1387C34.5529 51.189 34.8887 51.5248 34.8887 51.939C34.8887 52.3532 34.5529 52.689 34.1387 52.689H4.84143C4.42722 52.689 4.09143 52.3532 4.09143 51.939Z" />
<path fill-rule="evenodd" clip-rule="evenodd" d="M33.3887 45.1831C33.3887 44.7689 33.7245 44.4331 34.1387 44.4331H37.6942C38.1084 44.4331 38.4442 44.7689 38.4442 45.1831V51.9385C38.4442 52.3528 38.1084 52.6885 37.6942 52.6885H34.1387C33.7245 52.6885 33.3887 52.3528 33.3887 51.9385C33.3887 51.5243 33.7245 51.1885 34.1387 51.1885H36.9442V45.9331H34.1387C33.7245 45.9331 33.3887 45.5973 33.3887 45.1831Z" />
<path fill-rule="evenodd" clip-rule="evenodd" d="M0.535889 45.1831C0.535889 44.7689 0.871675 44.4331 1.28589 44.4331H4.84138C5.2556 44.4331 5.59138 44.7689 5.59138 45.1831C5.59138 45.5973 5.2556 45.9331 4.84138 45.9331H2.03589V51.1885H4.84138C5.2556 51.1885 5.59138 51.5243 5.59138 51.9385C5.59138 52.3528 5.2556 52.6885 4.84138 52.6885H1.28589C0.871675 52.6885 0.535889 52.3528 0.535889 51.9385V45.1831Z" />
</svg>
