<svg viewBox="0 0 87 41"  xmlns="http://www.w3.org/2000/svg">
<g >
<path d="M14.2106 35.0117H4.34347C3.97802 35.0117 3.67902 35.3107 3.67902 35.6762C3.67902 36.0416 3.97802 36.3406 4.34347 36.3406H14.2438C14.6092 36.3406 14.9083 36.0416 14.9083 35.6762C14.9083 35.3107 14.6092 35.0117 14.2106 35.0117Z" />
<path d="M0.954775 15.1778C2.35012 15.4436 4.44315 16.3406 5.57272 17.0051L12.6824 21.2576C13.2471 21.5898 14.1774 21.9552 14.8086 22.0881L30.2903 25.3439C31.4199 25.5765 32.5162 26.5399 32.6159 27.4037L32.782 28.9652C32.8485 29.4968 33.2471 29.9951 33.8119 30.1612C34.5428 30.3938 34.875 31.0914 34.6425 31.922L34.3767 32.9187C34.0777 34.0482 32.8485 34.9785 31.6857 34.9785H29.4598C29.0943 34.9785 28.7953 35.2775 28.7953 35.6429C28.7953 36.0084 29.0943 36.3074 29.4598 36.3074H31.6857C33.4465 36.3074 35.2073 34.9453 35.6392 33.2509L35.9049 32.2542C36.3036 30.726 35.6059 29.3639 34.1774 28.8987C34.1109 28.8655 34.0777 28.8323 34.0445 28.8323L33.8784 27.2376C33.679 25.809 32.2172 24.3805 30.5229 24.0482L15.0412 20.7924C14.5428 20.6928 13.7455 20.3605 13.3136 20.128L6.27039 15.8755C5.00793 15.1114 2.78202 14.1811 1.22056 13.8821C0.855108 13.8157 0.522882 14.0482 0.456437 14.4137C0.356769 14.7791 0.589327 15.1114 0.954775 15.1778Z" />
<path d="M8.79531 20.9918L2.18402 20.3938C1.81857 20.3605 1.48634 20.6263 1.45312 20.9918C1.4199 21.3572 1.68568 21.6894 2.05113 21.7227L8.66242 22.3539C8.69565 22.3539 8.69565 22.3539 8.72887 22.3539C9.0611 22.3539 9.3601 22.0881 9.39332 21.7559C9.42654 21.3572 9.16076 21.025 8.79531 20.9918Z" />
<path d="M27.998 34.5798C27.998 31.2243 25.2737 28.5001 21.9182 28.5001C18.5628 28.5001 15.8385 31.2243 15.8385 34.5798C15.8385 37.9353 18.5628 40.6595 21.9182 40.6595C25.2737 40.6595 27.998 37.9353 27.998 34.5798ZM17.2006 34.5798C17.2006 31.9552 19.3269 29.829 21.9515 29.829C24.576 29.829 26.7023 31.9552 26.7023 34.5798C26.7023 37.2044 24.576 39.3306 21.9515 39.3306C19.3269 39.3306 17.2006 37.2044 17.2006 34.5798Z" />
<path d="M38.0977 10.5931C38.297 10.5931 38.4963 10.4934 38.6292 10.3605L41.5528 6.7725L42.1176 9.49675C42.184 9.8622 42.5495 10.0948 42.9149 10.0283C43.2804 9.96187 43.5129 9.59642 43.4465 9.23097L42.5827 5.1446C42.5163 4.87881 42.3502 4.67948 42.0844 4.64626C41.8186 4.57981 41.586 4.67948 41.4199 4.87881L38.1309 8.89875L31.8186 0.958549C31.6525 0.725991 31.3203 0.659546 31.0545 0.759214C30.7887 0.858881 30.6226 1.12466 30.6226 1.42367L31.3203 11.5233L25.4066 11.1579C25.1409 11.1247 24.8751 11.2908 24.7754 11.5233C24.6425 11.7559 24.709 12.0549 24.8751 12.2542L28.8618 16.7061L25.8053 18.7326C25.606 18.8655 25.5063 19.0981 25.5063 19.3306C25.5063 19.5632 25.6392 19.7625 25.8385 19.8954L29.0943 21.6562C29.194 21.7227 29.2937 21.7227 29.4266 21.7227C29.6591 21.7227 29.8917 21.5898 30.0246 21.3904C30.1907 21.0582 30.091 20.6595 29.7588 20.4934L27.4664 19.231L30.2571 17.3705C30.4232 17.2708 30.5229 17.1047 30.5561 16.9054C30.5894 16.7061 30.5229 16.5067 30.39 16.3738L26.9017 12.5532L31.9515 12.8855C32.1508 12.8855 32.3169 12.819 32.4498 12.6861C32.5827 12.5532 32.6492 12.3539 32.6492 12.1878L32.0844 3.41702L37.5993 10.3273C37.699 10.4934 37.8983 10.5931 38.0977 10.5931Z" />
<path d="M77.6657 40.3273H81.3535C82.483 40.3273 83.4133 39.3971 83.4133 38.2675V35.8423C84.2106 35.5765 84.8086 34.8124 84.8086 33.9154V32.7193C84.8086 31.8223 84.2438 31.0582 83.4133 30.7924V23.6496C83.4133 21.324 81.9515 19.3306 79.8917 18.5001L75.3734 10.7924C74.0777 8.59974 71.0877 6.87217 68.5295 6.87217H56.0046C53.4465 6.87217 50.4232 8.56652 49.0943 10.726L44.3103 18.5001C42.2837 19.3306 40.8219 21.324 40.8219 23.6496V30.7592C40.0245 31.025 39.4265 31.7891 39.4265 32.6861V33.8821C39.4265 34.7791 39.9913 35.5433 40.8219 35.809V38.2343C40.8219 39.3639 41.7521 40.2941 42.8817 40.2941H46.6026C47.7322 40.2941 48.6624 39.3639 48.6624 38.2343V35.9419H75.6392V38.2343C75.6392 39.3971 76.5362 40.3273 77.6657 40.3273ZM81.3867 38.9984H77.699C77.3003 38.9984 76.9681 38.6662 76.9681 38.2675V35.9752H82.1176V38.2675C82.1176 38.6662 81.7853 38.9984 81.3867 38.9984ZM50.2571 11.4569C51.3535 9.69609 53.978 8.2343 56.0378 8.2343H68.5628C70.6226 8.2343 73.2471 9.72931 74.277 11.4901L78.1641 18.1346C78.0644 18.1346 77.998 18.1346 77.8983 18.1346H46.3701C46.2704 18.1346 46.204 18.1346 46.1375 18.1346L50.2571 11.4569ZM46.3701 19.4635H77.8983C80.2239 19.4635 82.0844 21.3572 82.0844 23.6496V30.6595H69.9581V28.9984C69.9581 27.3041 68.5628 25.9087 66.8684 25.9087H57.4C55.7056 25.9087 54.3103 27.3041 54.3103 28.9984V30.6595H42.184V23.6496C42.1508 21.3572 44.0445 19.4635 46.3701 19.4635ZM68.6292 30.6595H55.6059V28.9984C55.6059 28.035 56.4033 27.2376 57.3667 27.2376H66.8684C67.8319 27.2376 68.6292 28.035 68.6292 28.9984V30.6595ZM40.7887 32.7193C40.7887 32.3207 41.1209 31.9884 41.5196 31.9884H82.782C83.1807 31.9884 83.5129 32.3207 83.5129 32.7193V33.9154C83.5129 34.314 83.1807 34.6463 82.782 34.6463H41.5196C41.1209 34.6463 40.7887 34.314 40.7887 33.9154V32.7193ZM47.3335 38.2675C47.3335 38.6662 47.0013 38.9984 46.6026 38.9984H42.9149C42.5162 38.9984 42.184 38.6662 42.184 38.2675V35.9752H47.3335V38.2675Z" />
<path d="M45.2737 28.4336L51.287 29.0981C51.3535 29.0981 51.4199 29.0981 51.4863 29.0981C52.3834 29.0981 53.081 28.4004 53.081 27.5034V26.4403C53.081 25.51 52.3501 24.7127 51.4531 24.613L45.4398 23.9486C44.4432 23.8489 43.679 24.5798 43.679 25.5433V26.6064C43.6458 27.5366 44.3767 28.334 45.2737 28.4336ZM44.9747 25.5765C44.9747 25.4104 45.0744 25.3107 45.2405 25.3107H45.2737L51.287 25.9752C51.5196 26.0084 51.7189 26.2409 51.7189 26.4735V27.5366C51.7189 27.7027 51.586 27.8356 51.4199 27.8024L45.4066 27.1379C45.1741 27.1047 44.9747 26.8722 44.9747 26.6396V25.5765Z" />
<path d="M72.8153 29.0981C72.8817 29.0981 72.9481 29.0981 73.0146 29.0981L79.0279 28.4336C79.9581 28.334 80.6558 27.5366 80.6558 26.6064V25.5765C80.6558 24.613 79.8584 23.8821 78.895 23.9818L72.8817 24.6463C71.9515 24.7459 71.2538 25.5433 71.2538 26.4735V27.5366C71.2206 28.4004 71.9182 29.0981 72.8153 29.0981ZM72.5495 26.4735C72.5495 26.2409 72.7488 26.0084 72.9814 25.9752L78.9947 25.3107H79.0279C79.194 25.3107 79.2937 25.4104 79.2937 25.5765V26.6396C79.2937 26.8722 79.0943 27.1047 78.8618 27.1379L72.8485 27.8024C72.6824 27.8356 72.5495 27.7027 72.5495 27.5366V26.4735Z" />
<path d="M39.8584 16.108C39.9581 15.8423 40.3567 15.5765 40.6557 15.5765H44.7754C45.1408 15.5765 45.4398 15.2775 45.4398 14.912C45.4398 14.5466 45.1408 14.2476 44.7754 14.2476H40.6557C39.792 14.2476 38.9282 14.8456 38.6292 15.6429L38.3634 16.3738C38.1973 16.8057 38.1973 17.2708 38.3966 17.6695C38.596 18.0682 38.9282 18.4004 39.3933 18.5333L41.7521 19.2974C41.8185 19.3306 41.885 19.3306 41.9514 19.3306C42.2172 19.3306 42.483 19.1645 42.5827 18.8655C42.6823 18.5001 42.5162 18.1346 42.1508 18.035L39.792 17.2708C39.6923 17.2376 39.6259 17.1712 39.5926 17.1047C39.5594 17.0383 39.5594 16.9718 39.5926 16.8389L39.8584 16.108Z" />
<path d="M85.9049 17.6695C86.1043 17.2708 86.1043 16.8057 85.9381 16.3738L85.6724 15.6429C85.3734 14.8456 84.4764 14.2476 83.6458 14.2476H79.493C79.1275 14.2476 78.8285 14.5466 78.8285 14.912C78.8285 15.2775 79.1275 15.5765 79.493 15.5765H83.6126C83.9116 15.5765 84.3102 15.8423 84.4099 16.108L84.6757 16.8389C84.7089 16.9386 84.7089 17.0383 84.6757 17.1047C84.6425 17.1712 84.6092 17.2376 84.4764 17.2708L82.1176 18.035C81.7521 18.1346 81.586 18.5333 81.6857 18.8655C81.7853 19.1313 82.0511 19.3306 82.3169 19.3306C82.3833 19.3306 82.4498 19.3306 82.5162 19.2974L84.875 18.5333C85.3734 18.3672 85.7056 18.0682 85.9049 17.6695Z" />
</g>
<defs>
<clipPath >
<rect width="85.6478"  fill="white" transform="translate(0.423218 0.659546)"/>
</clipPath>
</defs>
</svg>
