<svg   viewBox="0 0 42 37"  xmlns="http://www.w3.org/2000/svg">
<path d="M40.5036 12.7273L26.6839 14.8671L27.0405 11.167L32.4792 4.48006C32.7021 4.21258 32.6576 3.85594 32.3901 3.67762C32.1226 3.45473 31.766 3.49931 31.5876 3.76678L25.2573 11.4791L22.2259 7.60063L22.9838 1.44864C23.0284 1.13659 22.8055 0.824528 22.4934 0.824528C22.1813 0.779948 21.8693 1.00285 21.8693 1.3149L21.3789 5.50539L19.9078 5.81745L18.1692 5.14875L17.4559 2.34024C17.3667 2.02818 17.0547 1.84986 16.7426 1.89444C16.4306 1.9836 16.2523 2.29566 16.2968 2.60771L17.5451 7.82353L15.4498 9.69587L11.8389 8.22475L4.61697 2.02818C4.39407 1.80528 3.99285 1.84986 3.81453 2.07276C3.59164 2.29566 3.63622 2.69687 3.85911 2.87519L17.1884 14.3322L12.9088 16.9178L10.9473 16.8286L0.916859 12.9056C0.604801 12.7719 0.248164 12.9502 0.159005 13.2177C0.0252662 13.5297 0.203585 13.8418 0.471062 13.9755L5.68688 16.0262L10.1448 26.8145L1.40723 34.8834C1.18434 35.1063 1.13976 35.4629 1.36265 35.6858C1.49639 35.8195 1.63013 35.8641 1.80845 35.8641C1.94219 35.8641 2.07593 35.8195 2.20967 35.7304L13.3992 25.4325L16.8764 26.7699L12.5967 35.5521C12.463 35.8195 12.5967 36.1762 12.8642 36.3099C12.9534 36.3545 13.0425 36.3545 13.1317 36.3545C13.3546 36.3545 13.5329 36.2208 13.6666 36.0424L18.7487 25.6554L21.9139 21.9553L22.8946 26.7699C22.9392 26.9036 23.0284 27.0373 23.1175 27.1265L34.842 35.0171C35.1094 35.1954 35.4661 35.1063 35.6444 34.8388C35.8227 34.5713 35.7335 34.2147 35.4661 34.0364L28.9574 29.6675L26.1935 24.9421L26.461 24.2734L30.3394 23.8276L31.0973 24.3626C31.1864 24.4517 31.3202 24.4517 31.4539 24.4517C31.6322 24.4517 31.8105 24.3626 31.9443 24.2288C32.1226 23.9614 32.078 23.6047 31.8105 23.4264L27.7984 20.5287L27.1297 17.1853L27.5755 16.2491L37.9625 20.6625C38.2746 20.7962 38.5866 20.6625 38.7204 20.3504C38.8541 20.0383 38.7204 19.7263 38.4083 19.5926L29.0466 15.625L40.7265 13.8418C41.0385 13.7972 41.2614 13.4851 41.2168 13.1731C41.1723 12.861 40.8156 12.6827 40.5036 12.7273ZM24.4995 12.4152L22.3597 15.0454L21.5572 13.5743L22.0476 9.25008L24.4995 12.4152ZM7.20259 16.6057L10.6352 17.9431C10.6798 17.9431 10.769 17.9877 10.8135 17.9877L13.0425 18.1214C13.0425 18.1214 13.0425 18.1214 13.0871 18.1214C13.1763 18.1214 13.31 18.0768 13.3992 18.0323L13.9341 17.7202L15.7619 21.6878L11.081 25.9674L7.20259 16.6057ZM25.8815 17.2744L26.6393 21.0637C26.6839 21.1974 26.7285 21.3312 26.8622 21.4203L28.8683 22.8914L25.926 23.2035C25.7031 23.2481 25.5248 23.3818 25.4357 23.5601L24.9453 24.8084C24.8561 24.9867 24.9007 25.165 24.9899 25.3433L26.6839 28.241L23.9199 26.3687L22.7609 20.6625C22.7163 20.4396 22.538 20.2612 22.3597 20.2167C22.1368 20.1721 21.9139 20.2167 21.7801 20.395L17.768 25.0313C17.7234 25.0758 17.7234 25.1204 17.6788 25.165L17.3667 25.7891L14.3353 24.63L16.8318 22.3119C17.0101 22.1336 17.0547 21.8661 16.9655 21.6432L14.9149 17.1853L18.4812 15.0009C18.6595 14.9117 18.7487 14.7334 18.7487 14.5551C18.7487 14.3767 18.7041 14.1984 18.5258 14.0647L14.6028 10.6766L15.3607 10.9887C15.4498 11.0333 15.4944 11.0333 15.5836 11.0333C15.7173 11.0333 15.851 10.9887 15.9848 10.8995L18.615 8.58138C18.7933 8.44764 18.8379 8.22475 18.7933 8.00185L18.4367 6.48614L19.5957 6.93194C19.6403 6.97652 19.7295 6.97652 19.8186 6.97652C19.8632 6.97652 19.9078 6.97652 19.9524 6.97652L21.2452 6.70904L21.0669 7.68979L20.3536 13.6189C20.3536 13.7526 20.3536 13.8864 20.4427 13.9755L21.7801 16.3382C21.8693 16.5166 22.0476 16.6057 22.2259 16.6057H22.2705C22.4488 16.6057 22.6271 16.5166 22.7163 16.3828L25.6586 12.7719L25.3911 15.4912C25.3911 15.6695 25.4357 15.8479 25.5694 15.9816C25.6586 16.0708 25.8369 16.1599 25.9706 16.1599C26.0152 16.1599 26.0152 16.1599 26.0598 16.1599L26.2827 16.1153L25.8815 16.9178C25.8815 17.0069 25.8815 17.1407 25.8815 17.2744Z" />
</svg>
