<svg   viewBox="0 0 68 58"  xmlns="http://www.w3.org/2000/svg">
<path d="M10.4002 1.19429C11.4124 0.358117 12.7442 -0.0757549 14.0546 0.0108852C15.2924 0.083421 16.502 0.618709 17.3704 1.5066C18.3604 1.3978 19.388 1.59257 20.253 2.09159C21.2114 2.63494 21.9677 3.53022 22.3357 4.5699C22.6991 5.58003 22.6984 6.71508 22.3398 7.72722C22.0194 8.66415 21.3954 9.49361 20.5868 10.0645C19.6143 10.7717 18.3671 11.0907 17.1749 10.9336C16.2904 10.8214 15.4361 10.4513 14.7571 9.8724C14.4898 9.63868 14.4965 9.17996 14.7692 8.95295C14.9989 8.73534 15.3837 8.74004 15.6134 8.95429C16.4032 9.6004 17.4879 9.85494 18.4846 9.64472C19.5532 9.43182 20.5089 8.70176 20.9837 7.71916C21.3102 7.07171 21.4243 6.32083 21.3095 5.60555C21.157 4.61826 20.5438 3.71223 19.6794 3.20985C18.9783 2.79479 18.13 2.64636 17.3274 2.78404C17.093 2.83643 16.829 2.78404 16.6705 2.59397C15.9586 1.75846 14.8739 1.26011 13.7772 1.2581C12.7502 1.23795 11.724 1.64294 10.9852 2.35554C10.7844 2.56845 10.46 2.58725 10.2068 2.46569C8.61638 1.84107 6.71499 2.15069 5.38517 3.21657C4.08288 4.22938 3.34409 5.92726 3.51603 7.57208C3.56707 7.84409 3.44148 8.13289 3.19432 8.26318C2.2762 8.81056 1.58711 9.73942 1.35876 10.7865C1.11899 11.7792 1.29764 12.8638 1.84838 13.7242C1.99009 13.9297 2.03173 14.2017 1.90278 14.4247C1.52935 15.1588 1.41585 16.0259 1.61465 16.8278C1.83561 17.7425 2.45217 18.5572 3.28297 19.0032C4.2434 19.5405 5.45838 19.5734 6.45306 19.1066C7.32685 18.7104 8.02668 17.9481 8.34235 17.042C8.62645 16.2428 8.60361 15.3408 8.27384 14.559C8.13616 14.285 8.20467 13.9143 8.47399 13.7477C8.76279 13.5254 9.22689 13.6409 9.3827 13.968C9.80113 14.8807 9.89919 15.9325 9.68359 16.9111C9.43979 17.9917 8.81585 18.9864 7.93669 19.6621C7.10387 20.3216 6.04471 20.6876 4.98287 20.6883C3.99423 20.6937 3.00358 20.3827 2.20232 19.8031C1.07399 19.0039 0.345271 17.674 0.270048 16.2945C0.223034 15.5671 0.362062 14.8344 0.638101 14.1614C0.0799776 13.1412 -0.127555 11.9336 0.0772913 10.7872C0.30766 9.42443 1.1069 8.17453 2.23926 7.38402C2.18016 5.9595 2.62276 4.5202 3.48379 3.38313C4.33273 2.24405 5.58599 1.41593 6.96551 1.07609C8.09183 0.789974 9.29472 0.839675 10.4002 1.19429Z" />
<path d="M7.90512 3.31591C8.47131 3.20106 9.06637 3.19569 9.62987 3.33001C10.0375 3.42135 10.2276 3.96269 9.97441 4.29246C9.82128 4.53357 9.50763 4.59805 9.24502 4.53156C7.70699 4.23402 6.07829 5.36035 5.76666 6.88561C5.69681 7.15897 5.75524 7.49612 5.52084 7.70097C5.26898 7.96425 4.79481 7.9253 4.58325 7.63045C4.37639 7.36046 4.47579 7.00315 4.52213 6.69689C4.83914 5.0252 6.24889 3.65575 7.90512 3.31591Z" />
<path d="M17.5544 3.40938C18.2496 3.27237 18.9857 3.45706 19.5646 3.85467C20.3612 4.3913 20.8837 5.32419 20.8924 6.28798C20.9112 6.93946 20.6607 7.6037 20.1845 8.05436C20.0314 8.20548 19.8453 8.35659 19.6177 8.3492C19.2221 8.36935 18.8889 7.94354 19.0031 7.56407C19.0763 7.26184 19.4142 7.14229 19.523 6.85886C19.9763 5.8447 19.034 4.55316 17.9386 4.62167C17.6699 4.6304 17.4543 4.80233 17.2226 4.91315C16.9097 5.03203 16.5329 4.83793 16.4362 4.52025C16.3408 4.26503 16.4469 3.96616 16.6645 3.80967C16.9251 3.61087 17.2334 3.47453 17.5544 3.40938Z" />
<path d="M11.3942 5.9856C11.7623 5.91776 12.135 6.24216 12.1156 6.6176C12.0343 8.46256 10.5802 10.0939 8.80176 10.5124C8.18722 10.6568 7.53507 10.6776 6.9212 10.5224C6.51889 10.4123 6.34293 9.86156 6.61628 9.54254C6.78956 9.28866 7.12067 9.27053 7.39402 9.33635C9.03616 9.61978 10.7441 8.28189 10.8576 6.61827C10.8616 6.31402 11.0846 6.02455 11.3942 5.9856Z" />
<path d="M19.0467 11.0954C19.3698 11.0135 19.7271 11.2358 19.797 11.5629C20.431 13.8726 21.065 16.1824 21.6923 18.4941C21.8844 18.525 22.0932 18.572 22.2141 18.7413C22.8911 19.5976 23.5567 20.4633 24.2317 21.3217C25.3258 20.0362 26.4206 18.7513 27.5153 17.4665C27.6516 17.2999 27.8558 17.171 28.0795 17.1938C28.4307 17.2073 28.7175 17.5585 28.6591 17.9058C28.4885 19.4068 28.3199 20.9079 28.1446 22.4084C28.1104 22.7751 27.7047 23.0444 27.3521 22.9342C27.0405 22.8577 26.847 22.5225 26.9048 22.2122C27.0002 21.4056 27.0834 20.5976 27.1855 19.7917C26.34 20.7723 25.5105 21.7676 24.6616 22.7448C24.4184 23.0357 23.9174 22.9947 23.7058 22.6871C23.184 22.0242 22.6682 21.3566 22.1477 20.6923C21.9979 21.6944 21.8649 22.6985 21.7178 23.7006C21.6721 24.0182 21.3504 24.2553 21.0341 24.209C20.0226 24.0928 19.0138 23.9571 18.003 23.8342C18.4799 24.4729 18.9702 25.1023 19.445 25.7423C19.6761 26.0398 19.5437 26.5328 19.1911 26.6698C17.7888 27.2884 16.3817 27.8962 14.9787 28.5114C16.058 28.6498 17.138 28.7861 18.2166 28.9312C18.586 28.9782 18.8298 29.404 18.6982 29.7486C18.6135 30.032 18.308 30.2147 18.0178 30.1677C16.2024 29.936 14.387 29.6995 12.5722 29.4638C12.2196 29.4296 11.9543 29.0595 12.0363 28.7149C12.0719 28.4792 12.2734 28.3126 12.4836 28.2287C14.3077 27.4388 16.1258 26.6356 17.9506 25.8478C17.3422 25.0364 16.7243 24.2325 16.1137 23.4232C16.0056 23.2949 15.9781 23.1283 15.9747 22.9658C15.9136 22.996 15.8498 23.0001 15.7954 22.9524C13.7523 21.7253 11.7065 20.5003 9.66208 19.2745C9.50022 19.1832 9.36656 19.0307 9.33365 18.844C9.25373 18.4988 9.52775 18.1113 9.88573 18.0911C10.0597 18.0683 10.2236 18.1442 10.3686 18.2322C12.5911 19.5741 14.8256 20.8958 17.0446 22.2431C16.9029 22.2922 16.7612 22.3425 16.6202 22.3936C17.9352 22.5662 19.2516 22.722 20.5673 22.8899C20.7285 21.7401 20.8917 20.5909 21.0516 19.4411C20.9804 19.6876 20.9199 19.9368 20.8581 20.1866C20.0992 17.4249 19.3449 14.6618 18.5887 11.9001C18.4725 11.5636 18.6955 11.1626 19.0467 11.0954Z" />
<path d="M17.0252 11.8167C17.3489 11.6609 17.774 11.8597 17.868 12.2049C18.4329 14.0163 18.9964 15.8284 19.5565 17.6404C19.6929 18.0045 19.4121 18.4383 19.0246 18.4605C18.7163 18.5062 18.4195 18.2765 18.3496 17.9803C17.8177 16.275 17.2911 14.5684 16.7572 12.8631C16.7008 12.6697 16.6094 12.4689 16.6558 12.2634C16.69 12.0626 16.8398 11.894 17.0252 11.8167Z" />
<path d="M13.4776 13.5173C13.7476 13.3817 14.0955 13.4797 14.2641 13.7282C15.6201 15.5101 16.9707 17.2973 18.3254 19.0804C18.5289 19.3343 18.4927 19.7453 18.2314 19.9448C17.9634 20.1873 17.5094 20.1168 17.3113 19.8199C15.9579 18.0394 14.6086 16.2562 13.256 14.4757C13.0021 14.1789 13.1223 13.6758 13.4776 13.5173Z" />
<path d="M3.19566 14.0579C3.60267 13.8839 4.09296 14.2533 4.04191 14.6905C4.03923 15.0734 3.60132 15.205 3.48715 15.5375C3.06872 16.5604 4.01639 17.8358 5.1145 17.7418C5.48591 17.7404 5.74046 17.3354 6.1253 17.4328C6.53701 17.51 6.77141 18.0353 6.52962 18.3852C6.3503 18.631 6.05411 18.7579 5.78076 18.8708C4.94189 19.1764 3.97744 18.9346 3.29238 18.3885C2.45351 17.7324 1.97733 16.6087 2.17814 15.5516C2.29635 14.9491 2.6409 14.35 3.19566 14.0579Z" />
<path d="M10.5789 16.7256C10.775 16.6517 10.9899 16.7135 11.1585 16.8236C12.6287 17.7773 14.1016 18.727 15.5731 19.6787C15.8041 19.8305 16.1023 19.9648 16.1675 20.2624C16.277 20.6311 15.974 21.0327 15.5946 21.0448C15.3454 21.0703 15.1453 20.8984 14.9505 20.7728C13.4528 19.803 11.9544 18.8345 10.4573 17.8653C10.243 17.735 10.1074 17.4805 10.1497 17.2293C10.1752 16.9942 10.3619 16.8015 10.5789 16.7256Z" />
<path d="M38.1264 23.1276C38.2788 23.094 38.4373 23.0638 38.5938 23.0953C48.0423 24.9853 57.4914 26.8739 66.9392 28.7652C67.3267 28.827 67.6223 29.1998 67.5947 29.5913C67.5934 38.078 67.594 46.564 67.594 55.0507C67.6243 55.4806 67.2475 55.8641 66.825 55.8782C57.4048 56.5827 47.9845 57.2906 38.5649 57.9972C38.3137 58.0126 38.0672 57.9589 37.8201 57.9273C32.8097 57.2436 27.8001 56.5606 22.7897 55.8775C22.5325 55.8466 22.2766 55.7143 22.1544 55.4786C21.9965 55.2301 22.0482 54.9245 22.0402 54.6464C22.0415 45.7124 22.0415 36.7784 22.0402 27.8444C22.0496 27.5684 21.9952 27.2614 22.155 27.0163C22.2739 26.8162 22.4801 26.6785 22.7078 26.6341C27.8471 25.4642 32.9877 24.3002 38.1264 23.1276ZM30.7176 26.4636C30.766 27.5724 30.725 28.684 30.7384 29.7942C30.7384 33.4633 30.7384 37.1324 30.7384 40.8015C31.4228 40.8042 32.1072 40.7974 32.7916 40.8035C33.2859 40.7941 33.6855 41.3159 33.5552 41.7921C33.4753 42.136 33.1509 42.4067 32.7956 42.4094C32.1099 42.4214 31.4242 42.4094 30.7391 42.4141C30.7384 46.7205 30.7384 51.0263 30.7384 55.3328C33.0354 55.6492 35.333 55.9595 37.63 56.2745C37.632 55.1965 37.6293 54.1192 37.6314 53.0419C37.1606 53.0419 36.6904 53.0412 36.2203 53.0426C36.2203 52.5053 36.2196 51.968 36.2209 51.4307C36.6904 51.4293 37.1605 51.4307 37.6307 51.43C37.6314 44.6439 37.6307 37.8577 37.6307 31.0716C37.1605 31.0709 36.6904 31.0716 36.2203 31.0716C36.2203 30.5343 36.2203 29.997 36.2203 29.4597C36.6904 29.4597 37.1605 29.4597 37.6307 29.4597C37.6307 27.9384 37.6307 26.4172 37.6307 24.8966C35.3257 25.4151 33.0233 25.9477 30.7176 26.4636ZM39.2433 24.8718C39.2426 35.3579 39.2426 45.8447 39.2426 56.3309C48.1558 55.6579 57.069 54.9943 65.9821 54.3234C65.9821 46.288 65.9821 38.2526 65.9821 30.2173C57.069 28.4355 48.1571 26.6496 39.2433 24.8718ZM23.6534 28.0721C23.6514 29.0077 23.6534 29.9426 23.6528 30.8782C24.1256 30.8782 24.5991 30.8782 25.0719 30.8782C25.0706 31.4155 25.0719 31.9528 25.0712 32.4901C24.5984 32.4901 24.1256 32.4901 23.6528 32.4901C23.6528 38.3306 23.6528 44.171 23.6528 50.0115C24.1256 50.0115 24.5984 50.0115 25.0712 50.0115C25.0712 50.5488 25.0712 51.0861 25.0712 51.6234C24.5984 51.6234 24.1256 51.6234 23.6528 51.6234C23.6528 52.5382 23.6528 53.4536 23.6528 54.3684C25.4776 54.6155 27.3024 54.866 29.1279 55.1145C29.1245 50.8806 29.1272 46.6473 29.1265 42.4141C28.6671 42.4073 28.2077 42.4255 27.7497 42.4067C27.3178 42.3926 26.9578 41.9755 27.0042 41.547C27.019 41.1595 27.3601 40.8203 27.747 40.8048C28.2064 40.7948 28.6665 40.8055 29.1265 40.8015C29.1259 36.1437 29.1265 31.486 29.1259 26.8282C27.3017 27.2433 25.4776 27.657 23.6534 28.0721Z" />
<path d="M43.304 33.0872C43.3033 32.6775 43.6606 32.296 44.0757 32.298C44.8125 32.2966 45.5492 32.2946 46.286 32.2993C46.7239 32.3 47.0732 32.7245 47.0429 33.1516C47.0423 38.2983 47.0416 43.445 47.0429 48.5917C47.5084 48.5998 47.9745 48.5789 48.4399 48.6011C48.8436 48.628 49.1821 48.9994 49.168 49.4044C49.1794 49.8282 48.8013 50.2123 48.3768 50.2036C47.6555 50.2049 46.9341 50.207 46.2128 50.2029C45.8347 50.2056 45.4881 49.8953 45.4411 49.5219C45.4183 49.305 45.4324 49.0874 45.4304 48.8704C45.4304 43.8836 45.4304 38.8961 45.4304 33.9092C44.977 33.9039 44.5237 33.9193 44.0717 33.9032C43.6506 33.8924 43.2859 33.5089 43.304 33.0872Z" />
<path d="M52.0976 33.19C52.3864 32.9368 52.79 33.0107 53.142 33.0027C53.4737 33.0094 53.8069 32.9879 54.1386 33.0107C54.5363 33.047 54.8526 33.4285 54.8405 33.8234C54.8418 38.7464 54.8418 43.6701 54.8412 48.5932C55.1911 48.6093 55.5813 48.5233 55.8936 48.7275C56.257 48.9518 56.3685 49.4851 56.1314 49.839C55.9789 50.0707 55.7042 50.2178 55.4255 50.2051C54.9352 50.2017 54.4449 50.2125 53.9546 50.1997C53.5557 50.1769 53.2225 49.8108 53.2306 49.4126C53.2279 44.4794 53.2299 39.5463 53.2293 34.6132C52.8572 34.5958 52.4287 34.6978 52.1137 34.4413C51.7235 34.1464 51.7053 33.4916 52.0976 33.19Z" />
<path d="M59.0892 33.99C59.2578 33.7885 59.5245 33.7006 59.7817 33.7079C60.2465 33.7106 60.7112 33.6979 61.176 33.7147C61.5266 33.7308 61.8449 34.0055 61.9087 34.3514C61.9416 34.5535 61.9242 34.7597 61.9275 34.9646C61.9262 39.5075 61.9282 44.0504 61.9262 48.5932C62.3131 48.608 62.7698 48.51 63.0814 48.8035C63.4461 49.1144 63.4253 49.7505 63.0378 50.0339C62.7053 50.3032 62.2553 50.1769 61.8651 50.2045C61.4809 50.1756 61.0598 50.2884 60.7072 50.0943C60.4466 49.9446 60.2975 49.6423 60.315 49.3455C60.3163 44.6696 60.3143 39.9937 60.3156 35.3185C59.9449 35.299 59.5151 35.4072 59.2027 35.1499C58.8495 34.8833 58.7957 34.3211 59.0892 33.99Z" />
</svg>
