<svg   viewBox="0 0 67 45"  xmlns="http://www.w3.org/2000/svg">
<path d="M50.8941 0.473353C51.0816 0.284667 51.2612 0.0373194 51.5484 0.0101051C51.9155 -0.055814 52.3056 0.208467 52.3667 0.578582C52.4949 2.17818 53.3192 3.64231 54.3733 4.81918C54.5741 5.05685 54.8837 5.254 54.9049 5.59448C54.9647 6.02447 54.5735 6.43873 54.1392 6.397C53.7994 6.38854 53.5835 6.09825 53.3712 5.87388C52.432 4.85365 51.673 3.65319 51.243 2.32997C50.605 3.22321 50.1496 4.25796 50.0021 5.35016C49.7741 6.97878 50.1901 8.65156 50.9878 10.0734C51.1336 10.337 51.3785 10.591 51.3168 10.9182C51.2848 11.2539 50.9818 11.4456 50.7284 11.6149C48.726 13.0361 46.697 14.4192 44.7303 15.8894C40.9615 18.7118 37.3837 21.7894 34.0291 25.0926C33.1576 25.9357 32.32 26.812 31.4649 27.6707C29.8248 29.2963 28.2185 30.9558 26.5808 32.5838C24.9564 34.2252 23.3314 35.8665 21.7016 37.5018C20.1576 39.082 18.581 40.6296 17.0377 42.2098C16.6065 42.6549 16.1493 43.0759 15.7441 43.5458C19.7428 43.5458 23.7415 43.5451 27.7401 43.5458C27.7686 43.3613 27.8242 43.1738 27.9675 43.0444C29.4788 41.492 31.0276 39.9764 32.5401 38.4252C34.1192 36.8389 35.6982 35.2532 37.2688 33.6585C39.0184 31.9192 40.7492 30.1599 42.399 28.3251C45.5202 24.8707 48.4043 21.2028 51.0302 17.3583C51.8315 16.205 52.6304 15.0499 53.4299 13.8955C53.6373 13.5544 54.1392 13.4594 54.4646 13.6844C55.2841 14.2269 56.2124 14.6006 57.1721 14.8062C58.3756 15.0639 59.6565 15.001 60.8104 14.5583C61.4163 14.3387 61.9764 14.0104 62.5001 13.6372C61.042 13.1522 59.7291 12.2765 58.6598 11.1795C58.3532 10.9001 58.395 10.36 58.7203 10.1127C58.9906 9.88527 59.4327 9.89495 59.6771 10.1568C60.3133 10.7839 61.019 11.3476 61.8107 11.7667C62.5291 12.1447 63.3099 12.4343 64.1245 12.4972C64.4269 12.5087 64.7117 12.7349 64.7812 13.0312C64.849 13.2659 64.7837 13.535 64.6167 13.7134C63.4127 14.9399 61.8899 15.8996 60.1911 16.2456C58.1778 16.6749 56.0485 16.2335 54.2584 15.2574C53.1819 16.7868 52.1314 18.3356 51.0519 19.8632C48.2525 23.8009 45.173 27.5389 41.8571 31.052C40.9681 31.9984 40.0507 32.9177 39.1417 33.8442C43.2499 36.8922 47.3623 39.9359 51.4722 42.9827C51.6543 43.1121 51.7305 43.3335 51.7668 43.5458C56.4712 43.5458 61.1756 43.5445 65.8801 43.5464C66.3022 43.5312 66.6748 43.9491 66.5998 44.3682C66.5586 44.745 66.1903 45.028 65.8178 44.9978C44.1256 44.9966 22.434 44.9978 0.741731 44.9972C0.361336 45.0093 0.00634013 44.6821 0.00150203 44.2987C-0.026317 43.8983 0.33654 43.5282 0.736893 43.5458C5.2835 43.547 9.8301 43.5421 14.3767 43.5488C14.3066 43.3105 14.2957 43.0341 14.4523 42.8267C14.8551 42.3072 15.3437 41.8651 15.8021 41.397C17.3086 39.8609 18.8302 38.3394 20.3481 36.8147C21.222 35.9161 22.1092 35.0301 22.9952 34.1435C22.1588 32.2319 21.3248 30.3196 20.4836 28.4098C20.1649 28.7641 19.7645 29.0544 19.2965 29.1693C18.5242 29.3804 17.6436 29.1391 17.1 28.5476C16.6863 28.0959 16.1807 27.7185 15.8547 27.1924C15.3715 26.3626 15.484 25.2184 16.1577 24.5248C16.7661 23.9006 17.3806 23.2826 17.9956 22.6645C17.6424 21.8396 17.2844 21.0171 16.9336 20.1916C16.6929 20.4233 16.471 20.6851 16.1668 20.8375C15.5294 21.1968 14.7166 21.2095 14.0647 20.8793C13.6589 20.6833 13.3661 20.3313 13.0511 20.0205C12.742 19.6861 12.3683 19.3964 12.1639 18.9791C11.7339 18.1572 11.8682 17.0753 12.5092 16.3998C13.149 15.7436 13.7986 15.0965 14.4487 14.45C14.1644 13.7884 13.8814 13.1268 13.5935 12.467C13.1339 11.402 12.8727 10.2614 12.7438 9.11178C12.586 7.64402 12.6695 6.07829 13.3952 4.75931C13.7218 4.13761 14.2455 3.65924 14.7323 3.16515C20.2381 10.7162 25.7493 18.263 31.2581 25.8111C35.6916 21.2681 40.5061 17.0904 45.675 13.402C46.9879 12.4676 48.3099 11.5453 49.6259 10.6158C48.9939 9.42082 48.5833 8.09759 48.5041 6.74474C48.4357 5.66766 48.5905 4.57667 48.9594 3.56188C49.3719 2.40799 50.0637 1.36901 50.8941 0.473353ZM14.1463 8.49674C14.2316 9.61555 14.4444 10.7356 14.8787 11.7746C15.305 12.7766 15.7429 13.7739 16.1686 14.7766C15.3207 15.6293 14.4735 16.4826 13.622 17.3311C13.3093 17.622 13.2724 18.1614 13.5687 18.4765C13.8814 18.8067 14.2104 19.1212 14.5303 19.4454C14.8146 19.7362 15.3413 19.7453 15.6219 19.4454C15.9848 19.0831 16.3434 18.7154 16.7111 18.358C17.054 18.052 17.6648 18.1893 17.8335 18.6199C18.402 19.9304 18.9632 21.2445 19.5299 22.5557C19.6412 22.803 19.5964 23.109 19.4216 23.3158C18.6814 24.0047 17.989 24.7443 17.2693 25.4555C16.9494 25.7482 16.9167 26.2955 17.2215 26.61C17.5414 26.9353 17.8674 27.2553 18.1885 27.5794C18.471 27.8655 18.9917 27.8661 19.2674 27.5691C19.5692 27.2661 19.8734 26.9656 20.1697 26.6572C20.3372 26.4848 20.5798 26.3705 20.8235 26.411C21.1138 26.4394 21.3539 26.665 21.4331 26.9408C22.3106 28.9776 23.2117 31.0036 24.0952 33.0374C24.5657 32.5475 25.0496 32.071 25.5243 31.5848C27.1015 30.0184 28.6533 28.4273 30.2227 26.8531C25.0266 19.7405 19.8377 12.6224 14.6428 5.50921C14.1554 6.41877 14.0901 7.48557 14.1463 8.49674ZM32.0031 41.0336C33.3021 41.6117 34.6036 42.1856 35.9038 42.7602C36.1167 42.8563 36.3598 42.9343 36.4983 43.1363C36.589 43.2537 36.6156 43.403 36.6471 43.5458C41.0292 43.5451 45.4113 43.5464 49.794 43.5451C45.8957 40.658 41.9998 37.7685 38.1009 34.8831C36.0732 36.9381 34.0315 38.9792 32.0031 41.0336ZM29.5085 43.5458C31.0325 43.5445 32.5565 43.5482 34.0805 43.5439C33.0215 43.074 31.965 42.5999 30.9012 42.1409C30.4368 42.609 29.9681 43.0728 29.5085 43.5458Z" />
<path d="M58.9985 4.89174C59.3136 4.7472 59.7206 4.86694 59.9008 5.16509C60.0955 5.45296 60.0326 5.86178 59.7817 6.09643C58.7028 7.17532 57.6233 8.25361 56.545 9.33372C56.3599 9.51575 56.1761 9.74496 55.8985 9.77217C55.5622 9.83083 55.209 9.61735 55.1044 9.2932C55.0107 9.0398 55.079 8.73924 55.2719 8.55116C56.3805 7.43839 57.4938 6.33047 58.603 5.21771C58.7245 5.09857 58.8376 4.96008 58.9985 4.89174Z" />
</svg>
