<svg  viewBox="0 0 72 56"  xmlns="http://www.w3.org/2000/svg">
<path fill-rule="evenodd" clip-rule="evenodd" d="M48.3308 28.9397C48.3315 28.9397 48.3322 28.9396 48.333 28.9396L65.3469 27.6182C66.7352 27.449 67.6766 28.5891 67.631 29.7971C67.6306 29.8085 67.6299 29.8199 67.6289 29.8313L66.1703 47.2883C66.1358 47.7011 65.7732 48.0078 65.3605 47.9733C64.9477 47.9388 64.641 47.5762 64.6755 47.1634L66.1325 29.7261C66.1369 29.5139 66.0593 29.3455 65.9568 29.2425C65.8601 29.1453 65.7199 29.082 65.5205 29.1082C65.5073 29.1099 65.4942 29.1113 65.481 29.1123L48.4447 30.4354L48.4404 30.4357C47.0263 30.5373 45.6497 30.8261 44.2434 31.3186L28.1314 36.9622C27.7624 37.113 27.6402 37.534 27.7636 37.7846L32.6814 46.8688C32.8786 47.2331 32.7432 47.6882 32.3789 47.8854C32.0147 48.0826 31.5595 47.9472 31.3623 47.5829L26.4394 38.4893L26.4314 38.4742C25.8643 37.3672 26.4576 36.0055 27.5958 35.5609C27.604 35.5577 27.6124 35.5546 27.6207 35.5517L43.7476 29.903C45.2728 29.3687 46.7792 29.0514 48.3308 28.9397Z" />
<path fill-rule="evenodd" clip-rule="evenodd" d="M57.0996 6.54491C57.2648 6.6507 57.379 6.82114 57.4165 7.01799L57.8501 9.29577C57.9172 9.64859 57.7264 10.0092 57.3957 10.1547L52.236 12.4236L52.4768 13.6886L51.0223 14.0263L50.6657 12.1531C50.5985 11.8002 50.7893 11.4396 51.1201 11.2942L56.2798 9.02528L56.1041 8.10219L38.5798 12.4743L38.2764 11.0112L56.5376 6.45532C56.7319 6.40684 56.9344 6.43912 57.0996 6.54491Z" />
<path fill-rule="evenodd" clip-rule="evenodd" d="M38.7291 7.61319C39.1302 7.51552 39.5151 7.76597 39.5889 8.17259L39.8946 9.85647L43.7971 8.90617L43.4915 7.22229C43.4177 6.81568 43.683 6.40687 44.0841 6.3092C44.4852 6.21153 44.8702 6.46198 44.944 6.8686L45.3833 9.28873C45.4571 9.69535 45.1917 10.1042 44.7906 10.2018L39.4356 11.5058C39.0345 11.6035 38.6495 11.353 38.5757 10.9464L38.1364 8.52629C38.0626 8.11967 38.328 7.71086 38.7291 7.61319Z" />
<path fill-rule="evenodd" clip-rule="evenodd" d="M46.1524 29.8013C46.5578 29.7161 46.9555 29.9756 47.0407 30.3809L48.4185 36.9349C48.5038 37.3402 48.2442 37.7379 47.8389 37.8231C47.4335 37.9084 47.0358 37.6488 46.9506 37.2435L45.5728 30.6895C45.4875 30.2842 45.7471 29.8865 46.1524 29.8013Z" />
<path d="M53.648 36.4384C54.4122 36.2499 54.8792 35.2463 54.6912 34.1967C54.5032 33.1472 53.7312 32.4492 52.967 32.6377C52.2028 32.8262 51.7358 33.8298 51.9238 34.8794C52.1118 35.9289 52.8838 36.6269 53.648 36.4384Z" />
<path d="M41.8509 38.9189C42.6151 38.7304 43.0821 37.7267 42.8941 36.6772C42.706 35.6276 41.9341 34.9296 41.1699 35.1181C40.4057 35.3067 39.9386 36.3103 40.1267 37.3598C40.3147 38.4094 41.0867 39.1074 41.8509 38.9189Z" />
<path fill-rule="evenodd" clip-rule="evenodd" d="M48.3862 24.541L57.7189 22.579L58.0275 24.0469L48.6948 26.0089L48.3862 24.541Z" />
<path fill-rule="evenodd" clip-rule="evenodd" d="M56.4053 23.6207C56.3201 23.2153 56.5796 22.8176 56.9849 22.7324L64.8497 21.0791C65.2551 20.9939 65.6528 21.2534 65.738 21.6588L66.5812 25.6697L65.1133 25.9783L64.4244 22.7013L58.0275 24.046L58.4409 26.0122L56.973 26.3208L56.4053 23.6207Z" />
<path fill-rule="evenodd" clip-rule="evenodd" d="M40.5215 26.1938L49.1202 24.3864C49.5256 24.3011 49.9233 24.5607 50.0085 24.966L50.4384 27.0108L48.9705 27.3193L48.6949 26.0085L40.8301 27.6618L40.5215 26.1938Z" />
<path fill-rule="evenodd" clip-rule="evenodd" d="M46.8872 17.4107C46.802 17.0054 47.0615 16.6077 47.4669 16.5225L55.3316 14.8691C55.737 14.7838 56.1347 15.0434 56.2199 15.4487C56.3051 15.8541 56.0456 16.2518 55.6402 16.337L47.7755 17.9904C47.3701 18.0756 46.9724 17.8161 46.8872 17.4107Z" />
<path fill-rule="evenodd" clip-rule="evenodd" d="M54.752 15.7569C54.6667 15.3516 54.9263 14.9539 55.3316 14.8687L63.1964 13.2153C63.6017 13.13 63.9994 13.3896 64.0846 13.7949L65.8923 22.3936L64.4244 22.7022L62.771 14.8375L56.3742 16.1823L58.0276 24.047L56.5597 24.3556L54.752 15.7569Z" />
<path fill-rule="evenodd" clip-rule="evenodd" d="M38.8682 18.3301L47.4669 16.5224C47.8722 16.4372 48.2699 16.6967 48.3551 17.102L50.1628 25.7008L48.6949 26.0094L47.0415 18.1446L39.1768 19.798L38.8682 18.3301Z" />
<path fill-rule="evenodd" clip-rule="evenodd" d="M48.353 50.4915C43.166 48.8667 37.6691 49.1165 32.6697 51.1788L32.6648 51.1808L29.6325 52.4066C29.2485 52.5619 28.8113 52.3764 28.6561 51.9924C28.5008 51.6084 28.6863 51.1712 29.0703 51.016L32.1001 49.7911C37.4222 47.5964 43.2788 47.3304 48.8003 49.0597C48.8006 49.0599 48.801 49.06 48.8014 49.0601L51.5074 49.8977C51.5076 49.8977 51.5072 49.8976 51.5074 49.8977C56.3816 51.3973 61.6923 51.2723 66.4994 49.4637L69.0729 48.4343C69.4574 48.2805 69.8939 48.4675 70.0478 48.8521C70.2016 49.2367 70.0145 49.6732 69.6299 49.827L67.0493 50.8593L67.0351 50.8648C61.9087 52.7955 56.2542 52.9276 51.0663 51.3314L48.3554 50.4923L48.353 50.4915Z" />
<path fill-rule="evenodd" clip-rule="evenodd" d="M10.4205 36.5532C10.6998 36.5532 10.9169 36.3266 10.9169 36.0588C10.9169 35.7909 10.6998 35.5643 10.4205 35.5643C10.1413 35.5643 9.92422 35.7909 9.92422 36.0588C9.92422 36.3266 10.1413 36.5532 10.4205 36.5532ZM9.41687 36.0588C9.41687 35.5086 9.86105 35.0532 10.4205 35.0532C10.98 35.0532 11.4242 35.5086 11.4242 36.0588C11.4242 36.6089 10.98 37.0643 10.4205 37.0643C9.86105 37.0643 9.41687 36.6089 9.41687 36.0588Z" />
<path fill-rule="evenodd" clip-rule="evenodd" d="M10.4205 33.3843C8.96254 33.3843 7.77124 34.5764 7.77124 36.0586C7.77124 37.5408 8.96254 38.7329 10.4205 38.7329C11.8785 38.7329 13.0698 37.5408 13.0698 36.0586C13.0698 34.5764 11.8785 33.3843 10.4205 33.3843ZM6.27124 36.0586C6.27124 33.7584 8.12374 31.8843 10.4205 31.8843C12.7173 31.8843 14.5698 33.7584 14.5698 36.0586C14.5698 38.3588 12.7173 40.2329 10.4205 40.2329C8.12375 40.2329 6.27124 38.3588 6.27124 36.0586Z" />
<path fill-rule="evenodd" clip-rule="evenodd" d="M10.4205 13.0171C10.6998 13.0171 10.9169 12.7905 10.9169 12.5226C10.9169 12.2548 10.6998 12.0282 10.4205 12.0282C10.1413 12.0282 9.92422 12.2548 9.92422 12.5226C9.92422 12.7905 10.1413 13.0171 10.4205 13.0171ZM9.41687 12.5226C9.41687 11.9725 9.86105 11.5171 10.4205 11.5171C10.98 11.5171 11.4242 11.9725 11.4242 12.5226C11.4242 13.0728 10.98 13.5282 10.4205 13.5282C9.86105 13.5282 9.41687 13.0728 9.41687 12.5226Z" />
<path fill-rule="evenodd" clip-rule="evenodd" d="M10.4205 9.84863C8.96254 9.84863 7.77124 11.0408 7.77124 12.523C7.77124 14.0051 8.96254 15.1973 10.4205 15.1973C11.8785 15.1973 13.0698 14.0051 13.0698 12.523C13.0698 11.0408 11.8785 9.84863 10.4205 9.84863ZM6.27124 12.523C6.27124 10.2227 8.12375 8.34863 10.4205 8.34863C12.7173 8.34863 14.5698 10.2227 14.5698 12.523C14.5698 14.8232 12.7173 16.6973 10.4205 16.6973C8.12375 16.6973 6.27124 14.8232 6.27124 12.523Z" />
<path fill-rule="evenodd" clip-rule="evenodd" d="M33.4327 6.9011C33.5595 7.29545 33.3425 7.71787 32.9482 7.84461L16.4084 13.16C16.0141 13.2867 15.5917 13.0698 15.4649 12.6754C15.3382 12.2811 15.5552 11.8586 15.9495 11.7319L32.4892 6.41654C32.8836 6.28981 33.306 6.50675 33.4327 6.9011Z" />
<path fill-rule="evenodd" clip-rule="evenodd" d="M13.0841 17.0371C13.4983 17.0371 13.8341 17.3729 13.8341 17.7871V30.5644C13.8341 30.9786 13.4983 31.3144 13.0841 31.3144C12.6699 31.3144 12.3341 30.9786 12.3341 30.5644V17.7871C12.3341 17.3729 12.6699 17.0371 13.0841 17.0371Z" />
<path fill-rule="evenodd" clip-rule="evenodd" d="M7.78223 17.0371C8.19644 17.0371 8.53223 17.3729 8.53223 17.7871V30.5644C8.53223 30.9786 8.19644 31.3144 7.78223 31.3144C7.36801 31.3144 7.03223 30.9786 7.03223 30.5644V17.7871C7.03223 17.3729 7.36801 17.0371 7.78223 17.0371Z" />
<path fill-rule="evenodd" clip-rule="evenodd" d="M2.82432 35.8539C2.91584 35.5313 3.21046 35.3086 3.54586 35.3086H7.02123C7.43545 35.3086 7.77123 35.6444 7.77123 36.0586C7.77123 36.4728 7.43545 36.8086 7.02123 36.8086H4.11273L1.96204 44.3915V51.7147H18.9043V44.3893L16.801 36.8086H13.8451C13.4309 36.8086 13.0951 36.4728 13.0951 36.0586C13.0951 35.6444 13.4309 35.3086 13.8451 35.3086H17.3712C17.7082 35.3086 18.0038 35.5334 18.0939 35.8581L20.377 44.0867C20.3951 44.152 20.4043 44.2194 20.4043 44.2872V52.4647C20.4043 52.8789 20.0685 53.2147 19.6543 53.2147H1.21204C0.797823 53.2147 0.462036 52.8789 0.462036 52.4647V44.2872C0.462036 44.218 0.471614 44.1491 0.490496 44.0825L2.82432 35.8539Z" />
<path fill-rule="evenodd" clip-rule="evenodd" d="M33.2513 21.8159C33.6656 21.8159 34.0013 22.1517 34.0013 22.5659V27.3446C34.0013 27.7589 33.6656 28.0946 33.2513 28.0946C32.8371 28.0946 32.5013 27.7589 32.5013 27.3446V22.5659C32.5013 22.1517 32.8371 21.8159 33.2513 21.8159Z" />
<path fill-rule="evenodd" clip-rule="evenodd" d="M32.4619 2.50511C32.4616 2.5052 32.4622 2.50502 32.4619 2.50511L13.9708 8.38206C13.5761 8.50752 13.1544 8.28922 13.0289 7.89446C12.9034 7.49971 13.1217 7.07799 13.5165 6.95252L32.0095 1.07495L32.0115 1.07433C34.458 0.304164 37.1768 1.92136 37.3981 4.56372C37.3998 4.58453 37.4007 4.6054 37.4007 4.62629V4.93294C37.4007 5.34716 37.0649 5.68294 36.6507 5.68294C36.2365 5.68294 35.9007 5.34716 35.9007 4.93294V4.65983C35.7488 3.0763 34.0642 2.0013 32.4619 2.50511Z" />
<path fill-rule="evenodd" clip-rule="evenodd" d="M36.6946 4.18442C37.1081 4.20869 37.4236 4.56358 37.3994 4.97708C37.1192 9.74869 36.661 14.518 36.0759 19.2589L35.8475 21.0994C35.8453 21.1174 35.8424 21.1353 35.8389 21.1531C35.5937 22.3882 34.5076 23.3158 33.226 23.3158C31.9444 23.3158 30.8584 22.3882 30.6132 21.1531C30.6095 21.1348 30.6066 21.1163 30.6043 21.0978L29.5129 12.1486L29.31 10.3854C29.2626 9.97386 29.5578 9.60189 29.9693 9.55453C30.3808 9.50716 30.7528 9.80236 30.8001 10.2139L31.0028 11.9746L32.0895 20.885C32.2086 21.4263 32.6891 21.8158 33.226 21.8158C33.7632 21.8158 34.2439 21.426 34.3627 20.8844L34.5872 19.0752C34.5872 19.0751 34.5872 19.0753 34.5872 19.0752C35.169 14.361 35.624 9.62382 35.9019 4.88917C35.9262 4.47567 36.2811 4.16014 36.6946 4.18442Z" />
</svg>
