<svg   viewBox="0 0 63 44"  xmlns="http://www.w3.org/2000/svg">
<path fill-rule="evenodd" clip-rule="evenodd" d="M19.0903 24.3231C19.0896 24.3232 19.0888 24.3233 19.0881 24.3234L2.78761 26.4496C1.42621 26.5672 0.756641 27.8471 1.04247 28.9904C1.04476 28.9995 1.04723 29.0087 1.04986 29.0177L3.82405 38.5661C3.93962 38.9639 4.35576 39.1927 4.75352 39.0771C5.15129 38.9615 5.38006 38.5454 5.26449 38.1476L2.49491 28.6151C2.44974 28.4221 2.48854 28.2551 2.56059 28.144C2.62784 28.0404 2.73979 27.9576 2.92438 27.9434C2.93757 27.9424 2.95074 27.941 2.96386 27.9393L19.2864 25.8102L19.2908 25.8097C20.6415 25.6255 21.994 25.6249 23.415 25.8102L39.7219 27.9372C40.0845 28.0039 40.2713 28.3613 40.2094 28.6052L37.3738 38.1431C37.2557 38.5402 37.4819 38.9577 37.8789 39.0758C38.276 39.1938 38.6935 38.9676 38.8116 38.5706L41.6503 29.0222L41.6549 29.0058C41.9749 27.8328 41.1337 26.6518 39.9579 26.4558C39.9492 26.4543 39.9404 26.453 39.9316 26.4519L23.609 24.3228C22.063 24.1212 20.5776 24.1205 19.0903 24.3231Z" />
<path fill-rule="evenodd" clip-rule="evenodd" d="M23.8991 2.12305C23.4849 2.12305 23.1491 2.45883 23.1491 2.87305V4.70369H19.4878V2.87305C19.4878 2.45883 19.1521 2.12305 18.7378 2.12305C18.3236 2.12305 17.9878 2.45883 17.9878 2.87305V5.45369C17.9878 5.86791 18.3236 6.20369 18.7378 6.20369H23.8991C24.3133 6.20369 24.6491 5.86791 24.6491 5.45369V2.87305C24.6491 2.45883 24.3133 2.12305 23.8991 2.12305Z" />
<path fill-rule="evenodd" clip-rule="evenodd" d="M21.3185 24.7036C20.9043 24.7036 20.5685 25.0394 20.5685 25.4536V31.9052C20.5685 32.3194 20.9043 32.6552 21.3185 32.6552C21.7327 32.6552 22.0685 32.3194 22.0685 31.9052V25.4536C22.0685 25.0394 21.7327 24.7036 21.3185 24.7036Z" />
<path d="M15.5121 32.5502C14.7994 32.5502 14.2217 31.6836 14.2217 30.6147C14.2217 29.5457 14.7994 28.6792 15.5121 28.6792C16.2247 28.6792 16.8024 29.5457 16.8024 30.6147C16.8024 31.6836 16.2247 32.5502 15.5121 32.5502Z" />
<path d="M27.125 32.5502C26.4124 32.5502 25.8347 31.6836 25.8347 30.6147C25.8347 29.5457 26.4124 28.6792 27.125 28.6792C27.8376 28.6792 28.4153 29.5457 28.4153 30.6147C28.4153 31.6836 27.8376 32.5502 27.125 32.5502Z" />
<path fill-rule="evenodd" clip-rule="evenodd" d="M22.3169 41.6531C27.5039 40.0283 33.0008 40.2782 38.0002 42.3404L38.0051 42.3425L41.0374 43.5682C41.4214 43.7235 41.8586 43.538 42.0138 43.154C42.1691 42.77 41.9836 42.3328 41.5996 42.1776L38.5698 40.9528C33.2477 38.7581 27.3911 38.492 21.8696 40.2214C21.8693 40.2215 21.8689 40.2216 21.8685 40.2217L19.1625 41.0593C19.1623 41.0594 19.1626 41.0592 19.1625 41.0593C14.2883 42.5589 8.97758 42.4339 4.1705 40.6253L1.59704 39.5959C1.21245 39.4421 0.775974 39.6291 0.622139 40.0137C0.468307 40.3983 0.655369 40.8348 1.03996 40.9886L3.6206 42.0209L3.6348 42.0264C8.76117 43.9571 14.4157 44.0892 19.6036 42.493L22.3145 41.6539L22.3169 41.6531Z" />
<path fill-rule="evenodd" clip-rule="evenodd" d="M18.1975 20.1875H8.9556V21.6875H18.1975V20.1875Z" />
<path fill-rule="evenodd" clip-rule="evenodd" d="M10.4556 20.9375C10.4556 20.5233 10.1198 20.1875 9.70559 20.1875H1.96365C1.54944 20.1875 1.21365 20.5233 1.21365 20.9375V24.9133H2.71365V21.6875H8.95559V23.623H10.4556V20.9375Z" />
<path fill-rule="evenodd" clip-rule="evenodd" d="M25.9395 20.1875H17.4475C17.0333 20.1875 16.6975 20.5233 16.6975 20.9375V22.9778H18.1975V21.6875H25.9395V20.1875Z" />
<path fill-rule="evenodd" clip-rule="evenodd" d="M18.1975 13.1958C18.1975 12.7816 17.8617 12.4458 17.4475 12.4458H9.7056C9.29138 12.4458 8.9556 12.7816 8.9556 13.1958C8.9556 13.61 9.29138 13.9458 9.7056 13.9458H17.4475C17.8617 13.9458 18.1975 13.61 18.1975 13.1958Z" />
<path fill-rule="evenodd" clip-rule="evenodd" d="M10.4556 13.1958C10.4556 12.7816 10.1198 12.4458 9.70559 12.4458H1.96365C1.54944 12.4458 1.21365 12.7816 1.21365 13.1958V21.6877H2.71365V13.9458H8.95559V21.6877H10.4556V13.1958Z" />
<path fill-rule="evenodd" clip-rule="evenodd" d="M25.9395 12.4458H17.4475C17.0333 12.4458 16.6975 12.7816 16.6975 13.1958V21.6877H18.1975V13.9458H25.9395V12.4458Z" />
<path fill-rule="evenodd" clip-rule="evenodd" d="M21.1125 4.70361H7.12502C6.71081 4.70361 6.37502 5.0394 6.37502 5.45361V8.03426C6.37502 8.38578 6.61917 8.69014 6.96233 8.7664L12.1815 9.92621V10.6149V11.3649H13.6815V10.6149V9.32458C13.6815 8.97306 13.4373 8.6687 13.0942 8.59244L7.87502 7.43263V6.20361H21.1125V4.70361Z" />
<g >
<path d="M50.0781 0.797144C50.2824 0.490877 50.548 0.245862 50.8749 0.0825195C51.1405 0.26628 51.5286 0.409205 51.5695 0.797144C51.9985 2.51224 52.448 4.20693 52.8771 5.92203C54.7771 5.04406 56.575 4.02316 58.4751 3.12478C58.7407 2.98185 59.0471 3.16562 59.3332 3.18603C59.3536 3.47188 59.517 3.75773 59.3945 4.04358C58.7611 5.35033 58.046 6.61623 57.3718 7.90256C57.0858 8.45384 56.7589 9.00512 56.5955 9.59724C57.9235 9.86267 59.1902 10.2914 60.5182 10.5977C61.2128 10.8223 62.173 10.8019 62.4386 11.639C62.2752 11.9657 62.03 12.2107 61.7236 12.4149C60.4977 13.0274 59.3536 13.8033 58.0869 14.3546C57.8826 13.9462 57.6579 13.5379 57.4535 13.1091C58.0665 12.762 58.6998 12.4353 59.3127 12.0882C59.4149 12.027 59.6192 11.9045 59.7214 11.8432C58.3934 11.5778 57.1062 11.149 55.7782 10.8631C55.3288 10.7611 54.6137 10.6181 54.7976 9.98518C54.961 9.08679 55.6352 8.37217 55.9417 7.51462C56.289 6.84083 56.6772 6.18746 57.0041 5.49325C55.5944 6.16704 54.1846 6.88166 52.7953 7.59629C52.5093 7.75963 52.162 7.63713 51.8555 7.59629C51.3448 6.02411 51.0996 4.37027 50.548 2.79809C50.405 3.08394 50.2415 3.36979 50.0985 3.65564C49.8125 4.12525 49.5469 4.57445 49.2608 5.04406C48.8522 4.79904 48.464 4.53361 48.0554 4.2886C48.3006 3.88024 48.5458 3.45147 48.7909 3.02269C49.1995 2.26723 49.6899 1.57302 50.0781 0.797144Z" />
<path d="M30.8323 0.899414C31.3227 0.899414 31.7926 0.899414 32.2829 0.899414C32.2829 1.61404 32.2829 2.30825 32.2829 3.02287C31.813 3.02287 31.3227 3.04329 30.8528 3.04329C30.8528 2.32866 30.8528 1.61404 30.8323 0.899414Z" />
<path d="M36.8798 2.16529C38.2487 2.1857 39.5563 1.45066 40.9047 1.73651C41.1907 2.55323 41.2929 3.41078 41.4359 4.26833C41.5585 4.67668 41.5585 5.10546 41.5585 5.53423C40.7617 6.02426 39.781 6.02426 38.882 6.24886C39.0251 6.84097 39.1681 7.43309 39.3111 8.02521C39.9649 8.00479 40.6391 8.29064 40.8843 8.9236C41.109 9.59739 41.3542 10.2916 41.3746 11.0062C41.3746 11.5779 40.9455 12.0067 40.4756 12.2721C40.823 13.4359 41.3337 14.5385 41.7219 15.6819C41.9262 16.2332 42.1305 16.7641 42.3348 17.3153C44.0102 17.3766 45.7059 17.2949 47.3812 17.3153C46.5844 16.519 46.564 15.3144 46.5844 14.2731C46.6049 12.9255 46.4005 11.435 47.2586 10.2712C48.5458 8.31106 51.8147 8.29064 53.0814 10.2712C54.0008 11.5575 53.7147 13.2113 53.7352 14.6814C53.776 15.6002 53.6126 16.5803 52.9997 17.3153C54.2664 17.3358 55.5331 17.3562 56.7998 17.3562C57.9848 17.3766 59.2106 17.2132 60.3343 17.7033C61.5601 18.3158 62.3365 19.6634 62.3161 21.0314C62.3161 22.6648 62.3569 24.3187 62.3161 25.9521C62.2752 27.0751 62.929 28.1164 62.8473 29.2394C62.5612 29.6069 62.2548 30.0765 61.744 30.1582C60.9881 30.2603 60.1913 30.2398 59.4353 30.1786C58.8428 30.1173 58.3116 29.6069 58.2912 29.0148C58.1891 28.0143 58.8224 27.1159 58.7203 26.095C58.4342 24.6249 58.3525 23.1344 58.1073 21.6643C56.8815 21.6848 55.6761 21.6439 54.4502 21.6439C54.4707 25.6662 54.4298 29.6886 54.4707 33.6905C54.818 35.4056 55.3492 37.1002 55.7578 38.7949C55.9417 39.7341 56.2686 40.6734 56.3707 41.633C56.4524 42.4905 55.5944 43.1643 54.7771 43.0622C53.4083 43.0214 52.0394 43.1643 50.691 43.0214C49.8942 42.7968 50.2007 41.8372 50.2211 41.2246C50.5888 40.51 51.2222 40.02 51.9781 39.7546C51.8351 39.2849 51.6308 38.8562 51.4265 38.407C50.8136 36.9981 50.1189 35.6301 49.5877 34.1805C49.3426 33.3229 49.4856 32.4041 49.3834 31.5262C48.6888 32.1387 48.4436 33.1188 48.0759 33.915C48.178 34.9972 48.4436 36.0793 48.5866 37.1615C48.7092 37.6924 48.7296 38.2232 48.8522 38.7541C48.9748 39.6525 49.1383 40.5304 49.2813 41.4288C49.4243 42.1843 48.8114 43.001 48.0146 43.0418C46.85 43.1235 45.6855 43.0214 44.5209 43.0827C44.0306 43.0622 43.3155 43.2052 43.0499 42.6743C42.9273 42.2047 43.0295 41.7147 43.0499 41.2451C43.4381 40.5304 44.0714 39.9587 44.8887 39.7954C44.7865 39.3258 44.6435 38.8562 44.4801 38.407C44.4188 38.2028 44.3575 37.9986 44.2962 37.7944C43.9693 36.7735 43.6015 35.7527 43.2338 34.7522C43.1725 34.0171 43.1112 33.2413 43.4177 32.5471C44.2145 30.689 44.8887 28.7697 45.7059 26.9117C45.8898 26.4013 45.8285 25.85 45.8285 25.3191C45.8285 24.0941 45.8285 22.869 45.8285 21.6439C44.4188 21.6235 43.0295 21.7256 41.6198 21.6235C40.3735 21.5214 39.3315 20.6843 38.7186 19.643C38.2487 18.0095 37.7788 16.3761 37.3702 14.7223C37.0637 13.293 36.6755 11.925 36.3078 10.557C36.0422 9.43404 36.9207 8.4744 37.8809 8.00479C37.7788 7.63727 37.6971 7.26975 37.5949 6.90223C37.554 6.73889 37.4928 6.57554 37.4519 6.4122C37.0433 6.59596 36.5938 6.61638 36.1443 6.67763C35.6949 6.77972 35.2045 6.92265 34.755 6.71847C34.4077 6.31011 34.4281 5.75883 34.3464 5.24838C34.2238 4.51334 33.9787 3.7783 34.0604 3.02284C34.326 2.45114 35.1024 2.53281 35.6336 2.45114L35.654 2.34905C36.0626 2.32863 36.4508 2.28779 36.8594 2.26738L36.8798 2.16529ZM38.2078 3.45161C37.8605 3.51286 37.5132 3.57412 37.1659 3.63537C36.6551 3.75788 36.1239 3.79871 35.6131 3.88039C35.654 4.35 35.6949 4.79919 35.797 5.24838C37.2272 5.16671 38.6164 4.81961 40.0262 4.57459C39.9649 4.08456 39.9036 3.61495 39.781 3.14534C39.2498 3.26785 38.739 3.34952 38.2078 3.45161ZM37.7175 10.0057C37.8401 11.2104 38.3917 12.3538 38.596 13.5584C38.7799 13.538 39.1476 13.4768 39.3315 13.4564C39.1476 12.8234 38.8208 12.2517 38.7186 11.5983C38.6573 11.2716 38.9638 11.1083 39.1272 10.8837C39.4132 10.8837 39.6788 10.8837 39.9649 10.8837C39.8423 10.4141 39.7401 9.94449 39.638 9.47488C38.9842 9.53613 37.9627 9.16861 37.7175 10.0057ZM48.0759 11.6596C49.4651 11.5983 50.8544 11.5167 52.2437 11.68C51.876 10.8225 51.0383 10.1078 50.0576 10.1895C49.1383 10.1895 48.4436 10.8837 48.0759 11.6596ZM48.464 13.1093C47.8307 13.293 47.9124 14.416 48.6071 14.4364C49.6286 14.5181 50.6706 14.5181 51.6921 14.4568C52.4685 14.4364 52.4685 13.1093 51.6921 13.0888C50.6297 13.0072 49.5469 13.0276 48.464 13.1093ZM38.882 15.049C38.9229 15.0898 39.0046 15.1715 39.0455 15.2123C39.2498 16.274 39.6175 17.2949 39.8627 18.3566C39.9853 18.9283 40.2918 19.4796 40.823 19.8063C41.6606 20.3984 42.7434 20.1126 43.7037 20.1943C48.4845 20.2147 53.2653 20.1943 58.046 20.1943C58.7203 20.1738 59.3536 20.6843 59.4762 21.3581C59.6805 22.3994 59.7418 23.4611 59.9257 24.5024C60.2526 24.482 60.559 24.482 60.8859 24.4616C60.8655 23.1548 60.9472 21.8685 60.8451 20.5822C60.7225 19.4184 59.5375 18.6629 58.4342 18.765C53.2653 18.765 48.0759 18.765 42.9069 18.7854C42.2735 18.8058 41.5176 18.7242 41.1703 18.1116C40.6391 17.0295 40.2713 15.9065 39.8831 14.7835C39.5358 14.8448 39.2089 14.9469 38.882 15.049ZM48.0759 15.8452C48.4436 16.7028 49.2813 17.397 50.2619 17.3153C51.1813 17.3153 51.8964 16.6211 52.2437 15.8452C50.8544 15.9065 49.4651 15.9065 48.0759 15.8452ZM47.2995 21.6235C47.2995 22.0931 47.2995 22.5627 47.2995 23.0323C49.1996 23.0528 51.12 23.0732 53.0201 23.0528C53.0201 22.5627 53.0201 22.0931 53.0201 21.6031C51.0996 21.5827 49.1996 21.6643 47.2995 21.6235ZM47.2995 24.4616C47.2995 24.9516 47.2995 25.4212 47.2995 25.9113C49.1996 25.8908 51.12 25.9317 53.0201 25.8704C53.0201 25.4008 53.0201 24.9312 53.0201 24.4412C51.12 24.5024 49.1996 24.4412 47.2995 24.4616ZM60.1504 25.9113C60.2934 26.8913 59.844 27.8101 59.6805 28.7698C60.2526 28.7698 60.8451 28.7493 61.4171 28.7289C61.1515 27.8101 60.8451 26.8709 60.8451 25.9113C60.6612 25.9113 60.3139 25.9113 60.1504 25.9113ZM47.0135 27.4018C46.3188 29.3006 45.522 31.1791 44.7661 33.0779C44.5822 33.5884 44.5822 34.1601 44.7661 34.6705C45.1543 35.8547 45.6037 36.9981 45.9306 38.2028C46.0941 38.9991 46.7479 39.8158 46.4618 40.6325C45.8898 41.1226 45.0521 41.1021 44.4392 41.5513C45.5833 41.6534 46.7274 41.6534 47.892 41.6126C47.6877 40.6121 47.5651 39.6116 47.3608 38.6112C47.3199 38.2028 47.2791 37.774 47.1973 37.3657C47.0543 36.3448 46.85 35.3239 46.6866 34.303C46.5436 33.5679 46.9726 32.9146 47.2586 32.2816C47.5651 31.6282 47.892 30.9953 48.2189 30.3419C48.8931 30.1582 49.6082 30.1582 50.3028 30.2398C50.5888 30.2603 50.8136 30.4848 50.834 30.7707C50.9362 31.5262 50.8136 32.302 50.8749 33.0779C50.8544 33.8946 51.3652 34.5888 51.6308 35.3443C52.0803 36.4469 52.6319 37.5086 53.0814 38.6112C53.2857 39.1624 53.633 39.6525 53.7352 40.2242C53.776 40.7754 53.1835 40.9388 52.7545 41.0817C52.3459 41.2042 51.9373 41.3471 51.5491 41.5513C52.6728 41.7351 53.8169 41.5922 54.9406 41.6534C54.8384 41.1634 54.6954 40.6734 54.5933 40.2037C54.4911 39.8158 54.4094 39.4279 54.3277 39.0399C53.9803 37.5086 53.5513 35.9977 53.1631 34.4867C53.061 34.1601 53.0201 33.8334 53.0201 33.4863C53.0405 31.4445 53.0201 29.4027 53.0201 27.3609C51.0179 27.4222 48.9952 27.218 47.0135 27.4018Z" />
<path d="M26.7871 2.81835C27.114 2.49166 27.4613 2.14456 27.7882 1.81787C28.2785 2.28748 28.7484 2.75709 29.1979 3.24712C28.871 3.57381 28.5441 3.92091 28.1968 4.2476C27.7269 3.77799 27.2365 3.30837 26.7871 2.81835Z" />
<path d="M25.8473 5.88135C26.5623 5.90177 27.2774 5.90177 27.9925 5.90177C27.9925 6.37138 27.972 6.86141 27.972 7.33102C27.257 7.3106 26.5623 7.3106 25.8473 7.33102C25.8473 6.84099 25.8473 6.37138 25.8473 5.88135Z" />
</g>
<defs>
<clipPath >
<rect   fill="white" transform="translate(25.8473 0.0825195)"/>
</clipPath>
</defs>
</svg>
