<svg   viewBox="0 0 51 54"  xmlns="http://www.w3.org/2000/svg">
<path fill-rule="evenodd" clip-rule="evenodd" d="M26.3308 26.5599C26.3315 26.5598 26.3322 26.5598 26.333 26.5597L43.3469 25.2383C44.7352 25.0692 45.6766 26.2092 45.631 27.4173C45.6306 27.4286 45.6299 27.44 45.6289 27.4514L44.1703 44.9084C44.1358 45.3212 43.7732 45.6279 43.3605 45.5934C42.9477 45.5589 42.641 45.1963 42.6755 44.7836L44.1325 27.3462C44.1369 27.134 44.0593 26.9657 43.9568 26.8626C43.8601 26.7654 43.7199 26.7021 43.5205 26.7283C43.5073 26.73 43.4942 26.7314 43.481 26.7324L26.4447 28.0555L26.4404 28.0559C25.0263 28.1574 23.6497 28.4462 22.2434 28.9388L6.13139 34.5823C5.76244 34.7331 5.64023 35.1542 5.7636 35.4048L10.6814 44.4889C10.8786 44.8532 10.7432 45.3084 10.3789 45.5056C10.0147 45.7028 9.55951 45.5673 9.36232 45.2031L4.43938 36.1094L4.43144 36.0943C3.86425 34.9873 4.4576 33.6256 5.59579 33.181C5.60405 33.1778 5.61236 33.1747 5.62072 33.1718L21.7476 27.5231C23.2728 26.9888 24.7792 26.6715 26.3308 26.5599Z" />
<path fill-rule="evenodd" clip-rule="evenodd" d="M4.8893 11.7261C4.8121 11.3205 5.07511 10.9161 5.47676 10.8228L34.5493 4.07274C34.951 3.97948 35.3392 4.23268 35.4164 4.63827L35.85 6.91604C35.9171 7.26886 35.7263 7.62951 35.3956 7.77495L30.2359 10.0438L30.4767 11.3089L29.0222 11.6466L28.6656 9.77334C28.5984 9.42052 28.7892 9.05988 29.12 8.91443L34.2797 6.64556L34.1017 5.71035L6.48359 12.1228L6.6616 13.058L12.2118 12.8402C12.5675 12.8262 12.8737 13.0715 12.9408 13.4243L13.2974 15.2976L11.8429 15.6353L11.6021 14.3702L6.05196 14.588C5.69617 14.6019 5.39004 14.3567 5.32288 14.0039L4.8893 11.7261Z" />
<path fill-rule="evenodd" clip-rule="evenodd" d="M16.7289 5.23282C17.13 5.13515 17.515 5.3856 17.5888 5.79222L17.8944 7.4761L21.797 6.5258L21.4914 4.84192C21.4176 4.4353 21.6829 4.0265 22.084 3.92883C22.4851 3.83116 22.8701 4.08161 22.9439 4.48823L23.3831 6.90836C23.4569 7.31497 23.1916 7.72378 22.7905 7.82145L17.4354 9.12545C17.0343 9.22312 16.6494 8.97266 16.5756 8.56605L16.1363 6.14592C16.0625 5.7393 16.3278 5.33049 16.7289 5.23282Z" />
<path fill-rule="evenodd" clip-rule="evenodd" d="M24.1524 27.4219C24.5577 27.3367 24.9554 27.5962 25.0406 28.0015L26.4185 34.5555C26.5037 34.9609 26.2442 35.3585 25.8389 35.4437C25.4335 35.529 25.0358 35.2694 24.9506 34.8641L23.5727 28.3101C23.4875 27.9048 23.747 27.5071 24.1524 27.4219Z" />
<path d="M31.6479 34.0586C32.4121 33.8701 32.8791 32.8665 32.691 31.8169C32.503 30.7674 31.7311 30.0693 30.9669 30.2578C30.2027 30.4463 29.7357 31.45 29.9237 32.4995C30.1118 33.5491 30.8837 34.2471 31.6479 34.0586Z" />
<path d="M19.8508 36.5391C20.6149 36.3506 21.082 35.3469 20.8939 34.2974C20.7059 33.2478 19.9339 32.5498 19.1698 32.7383C18.4056 32.9268 17.9386 33.9304 18.1266 34.98C18.3147 36.0295 19.0866 36.7276 19.8508 36.5391Z" />
<path fill-rule="evenodd" clip-rule="evenodd" d="M26.3937 22.165L35.7134 20.2058L36.02 21.6638L26.7002 23.623L26.3937 22.165Z" />
<path fill-rule="evenodd" clip-rule="evenodd" d="M34.4142 21.6165C34.3421 21.2097 34.6082 20.799 35.0085 20.6993L43.0426 18.6978C43.443 18.5981 43.8261 18.847 43.8983 19.2538L44.5485 22.9191L43.0986 23.2803L42.579 20.3516L35.9949 21.9919L36.3066 23.7491L34.8567 24.1103L34.4142 21.6165Z" />
<path fill-rule="evenodd" clip-rule="evenodd" d="M18.546 24.0479L27.207 22.0069C27.6079 21.9124 27.9946 22.1646 28.0707 22.5701L28.4137 24.3989L26.9617 24.741L26.7565 23.6466L18.8214 25.5165L18.546 24.0479Z" />
<path fill-rule="evenodd" clip-rule="evenodd" d="M10.6812 25.7012L19.3422 23.6602C19.7432 23.5657 20.1299 23.8179 20.2059 24.2234L20.5489 26.0522L19.097 26.3944L18.8917 25.2999L10.9567 27.1698L10.6812 25.7012Z" />
<path fill-rule="evenodd" clip-rule="evenodd" d="M2.95514 28.2303C2.88297 27.8234 3.14905 27.4128 3.54944 27.313L11.5835 25.3116C11.9839 25.2118 12.367 25.4608 12.4392 25.8676L12.8816 28.3614L11.4317 28.7226L11.1199 26.9654L4.53578 28.6057L5.05535 31.5344L3.6054 31.8956L2.95514 28.2303Z" />
<path fill-rule="evenodd" clip-rule="evenodd" d="M24.8951 15.0297C24.8105 14.6277 25.0671 14.2334 25.4681 14.1491L33.3328 12.4958C33.7338 12.4115 34.1274 12.6691 34.212 13.0712C34.2965 13.4732 34.0399 13.8675 33.6389 13.9518L25.7742 15.6051C25.3732 15.6894 24.9796 15.4318 24.8951 15.0297Z" />
<path fill-rule="evenodd" clip-rule="evenodd" d="M32.7627 13.9359C32.6942 13.5283 32.9623 13.1127 33.3617 13.0078L41.6445 10.832C42.0438 10.7271 42.4232 10.9726 42.4918 11.3803L43.8513 19.4608L42.4051 19.8407L41.1698 12.4984L34.3332 14.2942L35.5685 21.6365L34.1223 22.0164L32.7627 13.9359Z" />
<path fill-rule="evenodd" clip-rule="evenodd" d="M16.9091 16.5044L25.915 14.1387C26.3144 14.0338 26.6937 14.2792 26.7623 14.6869L28.1218 22.7674L26.6756 23.1473L25.4403 15.805L17.1575 17.9808L16.9091 16.5044Z" />
<path fill-rule="evenodd" clip-rule="evenodd" d="M9.04425 18.1577L18.0502 15.792C18.4495 15.6871 18.8289 15.9326 18.8975 16.3402L20.257 24.4207L18.8108 24.8006L17.5755 17.4583L9.29265 19.6341L9.04425 18.1577Z" />
<path fill-rule="evenodd" clip-rule="evenodd" d="M1.3037 20.5497C1.23511 20.142 1.50325 19.7265 1.90261 19.6216L10.1854 17.4458C10.5848 17.3409 10.9642 17.5864 11.0327 17.9941L12.3923 26.0745L10.9461 26.4544L9.71074 19.1121L2.87411 20.908L4.10944 28.2503L2.66323 28.6302L1.3037 20.5497Z" />
<path fill-rule="evenodd" clip-rule="evenodd" d="M1.74182 45.4609C1.74182 45.0467 2.07761 44.7109 2.49182 44.7109H49.8258C50.24 44.7109 50.5758 45.0467 50.5758 45.4609C50.5758 45.8752 50.24 46.2109 49.8258 46.2109H2.49182C2.07761 46.2109 1.74182 45.8752 1.74182 45.4609Z" />
</svg>
