<svg   viewBox="0 0 32 46"  xmlns="http://www.w3.org/2000/svg">
<path d="M16.4423 13.9123C12.6631 13.9123 9.58484 10.834 9.58484 7.05477C9.58484 3.27556 12.6631 0.197266 16.4423 0.197266C20.2215 0.197266 23.2998 3.27556 23.2998 7.05477C23.2998 10.834 20.2215 13.9123 16.4423 13.9123ZM16.4423 1.61802C13.4493 1.61802 11.0056 4.06172 11.0056 7.05477C11.0056 10.0573 13.4493 12.4915 16.4423 12.4915C19.4449 12.4915 21.8791 10.0478 21.8791 7.05477C21.8791 4.06172 19.4449 1.61802 16.4423 1.61802Z" />
<path d="M31.1897 45.1973C30.8298 45.1973 30.5172 44.9226 30.4793 44.5532L28.083 20.713C27.8462 18.3546 26.3402 16.356 24.1333 15.4941L19.0944 13.524C18.725 13.3819 18.545 12.9652 18.6871 12.6052C18.8292 12.2358 19.2459 12.0559 19.6058 12.198L24.6448 14.1681C27.3537 15.2289 29.2101 17.6726 29.4943 20.5615L31.8906 44.4017C31.9285 44.79 31.6443 45.1405 31.256 45.1784C31.2371 45.1973 31.2087 45.1973 31.1897 45.1973Z" />
<path d="M6.3739 36.616C5.27519 36.616 4.18594 36.2845 3.25772 35.6215C1.5244 34.3997 0.662472 32.2685 1.06028 30.1847L3.2293 18.8756C3.665 16.5834 5.29413 14.6606 7.48209 13.8461L12.6252 11.9233C12.9946 11.7907 13.4019 11.9707 13.5345 12.3401C13.6671 12.7095 13.4871 13.1168 13.1177 13.2494L7.97462 15.1721C6.26024 15.8162 4.97209 17.3411 4.63111 19.1408L2.46209 30.45C2.16847 31.9844 2.80307 33.5661 4.08175 34.466C5.29413 35.3184 6.86643 35.4321 8.18299 34.769L16.1203 30.753C17.0674 30.27 17.4558 29.105 16.9822 28.1578C16.5086 27.2012 15.3436 26.8128 14.3869 27.2769L7.13164 30.8383C6.78118 31.0088 6.35496 30.8667 6.18447 30.5163C6.01398 30.1658 6.15605 29.7396 6.5065 29.5691L13.7618 26.0077C15.4194 25.1932 17.4274 25.8751 18.2514 27.5232C19.0754 29.1713 18.4029 31.1887 16.7549 32.0223L8.8176 36.0383C8.05039 36.4266 7.20741 36.616 6.3739 36.616Z" />
<path d="M8.10722 30.1089C8.08828 30.1089 8.06934 30.1089 8.04092 30.1089C7.65258 30.071 7.35896 29.73 7.39685 29.3417L8.05039 21.8117C8.08828 21.4233 8.42926 21.1297 8.8176 21.1676C9.20594 21.2055 9.49956 21.5465 9.46167 21.9348L8.80813 29.4648C8.77971 29.8342 8.46715 30.1089 8.10722 30.1089Z" />
<path d="M27.1453 45.1974C26.7759 45.1974 26.4633 44.9037 26.4349 44.5249L25.3741 26.8033C25.3552 26.415 25.6488 26.074 26.0371 26.0551C26.4255 26.0361 26.7664 26.3297 26.7854 26.7181L27.8462 44.4396C27.8652 44.828 27.5715 45.1689 27.1832 45.1879C27.1737 45.1974 27.1548 45.1974 27.1453 45.1974Z" />
<path d="M6.79069 45.1971C6.76227 45.1971 6.73386 45.1971 6.70544 45.1876C6.3171 45.1403 6.04242 44.7803 6.08978 44.392L6.82857 38.5006C6.87593 38.1123 7.23586 37.8376 7.6242 37.8849C8.01254 37.9323 8.28722 38.2922 8.23986 38.6806L7.50106 44.572C7.45371 44.9319 7.15061 45.1971 6.79069 45.1971Z" />
</svg>
