<svg   viewBox="0 0 53 50"  xmlns="http://www.w3.org/2000/svg">
<path d="M30.9552 0.02823C31.6948 -0.0320613 32.4465 0.000649913 33.1725 0.160999C33.5587 0.245022 33.93 0.380998 34.3046 0.505429C37.6181 1.63878 40.9341 2.76507 44.2475 3.89777C44.9319 4.14535 45.5765 4.50197 46.1505 4.94838C46.5726 5.27036 46.9241 5.67059 47.3128 6.02977C48.2877 7.00085 49.2806 7.95332 50.2536 8.92632C50.6519 9.32013 51.0778 9.69792 51.3741 10.1796C52.0931 11.2636 52.2656 12.6836 51.8314 13.9093C49.1946 21.642 46.5572 29.374 43.9223 37.1073C43.6408 37.886 43.4471 38.7192 42.9378 39.3901C42.0527 40.6151 40.496 41.3155 38.9913 41.1533C38.4307 41.1116 37.906 40.898 37.3782 40.7203C35.386 40.0552 33.4079 39.3445 31.4087 38.7025C31.8718 39.4176 32.3977 40.0911 32.8846 40.7909C34.7157 43.3423 36.5495 45.8913 38.3788 48.444C38.5327 48.6698 38.7469 48.8853 38.7623 49.1746C38.7925 49.5466 38.516 49.9154 38.1472 49.9834C37.8483 50.0494 37.5263 49.9141 37.3577 49.6607C36.8003 48.8904 36.2493 48.1163 35.6952 47.3447C35.6438 47.2305 35.5098 47.2465 35.4078 47.242C25.3366 47.2446 15.2654 47.242 5.1942 47.2433C4.71252 47.26 4.22377 47.2074 3.74593 47.2683C3.16611 48.0611 2.59976 48.8648 2.02507 49.6614C1.8102 49.9866 1.34006 50.1007 1.00525 49.8968C0.619126 49.6883 0.491488 49.1309 0.762157 48.7814C3.47526 44.9965 6.19286 41.2142 8.9066 37.43C9.04194 37.2337 9.24462 37.0663 9.49092 37.0464C9.82893 37.0015 10.1753 37.2087 10.2984 37.5262C10.3998 37.7705 10.351 38.0585 10.1971 38.2708C9.66538 39.0251 9.11378 39.7666 8.58783 40.5253C15.2391 40.5414 21.8904 40.5279 28.541 40.5324C29.2915 40.5279 30.0419 40.5414 30.7923 40.5253C30.2773 39.7775 29.7334 39.0501 29.2106 38.308C29.1151 38.1753 29.0586 38.0207 29.006 37.8674C24.928 36.4749 20.8481 35.0863 16.7695 33.6945C16.2121 33.495 15.6252 33.3481 15.1224 33.0236C14.2437 32.4886 13.5766 31.6272 13.2623 30.6491C12.982 29.7916 12.9763 28.8455 13.2572 27.988C15.9478 20.0975 18.6385 12.2071 21.3285 4.3166C21.5184 3.77462 21.6685 3.20891 21.9866 2.72402C22.578 1.75936 23.5676 1.05639 24.6644 0.787643C25.0326 0.695282 25.4123 0.664495 25.7888 0.62088C27.5109 0.42333 29.2324 0.22578 30.9552 0.02823ZM29.8912 1.70035C28.3743 1.87481 26.8574 2.04606 25.3411 2.22373C24.3553 2.35008 23.4464 3.02098 23.084 3.95357C22.9224 4.38074 22.7871 4.81689 22.6408 5.24984C27.0106 6.76096 31.3933 8.23553 35.7676 9.73512C40.5024 11.3457 45.234 12.9658 49.9694 14.5738C50.1208 14.1755 50.2504 13.7689 50.3902 13.3667C50.6455 12.606 50.5383 11.7382 50.1099 11.0602C49.861 10.6369 49.4736 10.3271 49.133 9.9827C48.0048 8.86538 46.8696 7.75577 45.7362 6.64423C45.1481 6.03554 44.413 5.56925 43.6081 5.30692C40.2099 4.14599 36.8105 2.98763 33.4111 1.82991C33.0135 1.69009 32.5985 1.60157 32.1797 1.56309C31.4132 1.48099 30.6512 1.61953 29.8912 1.70035ZM22.1399 6.71542C21.1393 9.63955 20.1381 12.5643 19.1491 15.4929C23.5112 16.9816 27.8746 18.4664 32.2361 19.9558C36.9882 21.5702 41.7333 23.2032 46.4879 24.8079C47.4782 21.8812 48.4981 18.9635 49.4685 16.0304C40.3581 12.9293 31.2503 9.81722 22.1399 6.71542ZM17.813 19.3958C16.8785 22.1391 15.9427 24.8817 15.0082 27.6243C14.8312 28.1688 14.5778 28.707 14.5894 29.2926C14.5695 30.4522 15.3424 31.5811 16.4443 31.9569C23.8255 34.4744 31.2067 36.99 38.5872 39.5074C39.1523 39.6838 39.7751 39.6806 40.3337 39.4792C41.1534 39.2053 41.8288 38.5306 42.0912 37.7051C43.3887 33.8952 44.6914 30.0866 45.9864 26.2754C36.8805 23.1589 27.7681 20.061 18.659 16.9527C18.3537 17.7583 18.1004 18.5838 17.813 19.3958ZM7.46411 42.0788C6.60271 43.2891 5.72785 44.4898 4.8703 45.7033C14.7497 45.704 24.6298 45.7033 34.5092 45.7033C33.6555 44.4866 32.7749 43.2898 31.9167 42.0769C30.2568 42.0653 28.5968 42.0749 26.9375 42.0717C20.4466 42.0769 13.955 42.0621 7.46411 42.0788Z" />
</svg>
