<svg   viewBox="0 0 46 51"  xmlns="http://www.w3.org/2000/svg">
<path d="M6.87145 0.091525C7.24036 -0.0640988 7.74505 0.131826 7.85789 0.528015C8.12636 2.10967 8.99934 3.58221 10.2604 4.57485C11.2134 5.32631 12.4082 5.77644 13.6247 5.80124C14.7425 5.80248 15.8604 5.82108 16.9783 5.80186C17.6008 5.79318 18.2289 5.83659 18.8458 5.72808C20.1454 5.51976 21.3525 4.8396 22.241 3.87424C23.0972 2.94794 23.6931 1.78293 23.9336 0.544136C24.0558 0.013403 24.8296 -0.129821 25.1737 0.268229C25.3423 0.478414 25.3392 0.762381 25.3845 1.01597C25.6133 2.55113 25.4328 4.15262 24.8116 5.57866C24.5301 6.24456 24.1513 6.86767 23.7104 7.43994C24.8494 6.5651 26.356 6.17697 27.7722 6.438C28.0282 6.4876 28.319 6.52604 28.4988 6.73747C28.722 6.98733 28.7654 7.33268 28.8014 7.65199C28.9415 8.8573 28.6749 10.1165 28.0053 11.134C27.3158 12.2252 26.193 13.0126 24.9523 13.3487C26.8025 14.7518 28.3091 16.5932 29.3544 18.6647C28.9886 18.9406 28.6172 19.2078 28.2483 19.4788C27.1304 17.0979 25.3262 15.0401 23.0935 13.6457C22.8071 13.4491 22.4921 13.3034 22.166 13.1856C21.8467 15.4183 21.474 17.6435 21.1417 19.8743C21.6799 20.6146 21.9372 21.5893 21.6997 22.4877C21.3953 23.8015 20.1299 24.8239 18.7776 24.827C16.8531 24.8314 14.9285 24.8276 13.004 24.8289C12.211 24.8357 11.4304 24.4959 10.8693 23.9398C10.2679 23.3557 9.92254 22.5144 9.95292 21.6749C9.974 21.0586 10.2015 20.4627 10.5376 19.9512C10.6077 19.8756 10.5847 19.7745 10.5723 19.6834C10.2524 17.5518 9.92564 15.4208 9.61563 13.2873C9.43211 13.3716 9.23246 13.4107 9.0477 13.4894C7.35258 14.4988 5.84284 15.8362 4.70697 17.4544C3.23444 19.5197 2.35216 21.9979 2.18599 24.5282C2.05331 26.5066 2.35712 28.513 3.06827 30.3644C3.43718 31.3459 3.94932 32.2635 4.50547 33.1495C7.36436 37.7618 8.84247 43.1993 8.78481 48.6201C9.81466 48.6443 10.8457 48.617 11.8756 48.6307C11.8812 45.556 11.8675 42.4807 11.8824 39.4061C11.8502 39.1494 12.0579 38.9299 12.2966 38.8766C12.6382 38.7954 12.9817 38.9125 13.3165 38.9758C15.0959 39.3279 16.9461 39.3131 18.7224 38.9479C18.9636 38.8995 19.2147 38.7978 19.4602 38.8822C19.6487 38.9355 19.7882 39.0787 19.9153 39.2201C19.9104 42.3567 19.9153 45.4934 19.9128 48.63C20.9278 48.6152 21.9434 48.6164 22.9584 48.6294C22.9137 45.2745 23.4711 41.9165 24.5673 38.747C24.9077 39.2145 25.2661 39.669 25.6021 40.1395C24.718 42.9457 24.3261 45.8958 24.367 48.8346C24.3664 49.0392 24.3825 49.2451 24.3584 49.4491C24.3106 49.7733 24.0049 50.0418 23.6739 50.0319C22.1852 50.0331 20.6959 50.0319 19.2073 50.0319C18.8477 50.0536 18.5352 49.733 18.5079 49.3858C18.4943 46.3763 18.5073 43.3667 18.5011 40.3572C16.7613 40.6535 14.9726 40.6504 13.2322 40.3578C13.2328 43.3686 13.2322 46.38 13.2322 49.3908C13.2049 49.725 12.9141 50.0244 12.5725 50.0306C11.1049 50.0381 9.63795 50.0238 8.17038 50.0381C7.96515 50.0331 7.73637 50.0077 7.5919 49.8434C7.37862 49.6512 7.35258 49.343 7.36684 49.0746C7.50386 43.802 6.11999 38.4878 3.35286 33.9921C2.82027 33.1365 2.3193 32.2579 1.93799 31.3242C1.19025 29.5267 0.801498 27.5842 0.780418 25.6386C0.759337 23.3272 1.26527 21.0096 2.26225 18.9232C3.3045 16.7365 4.87438 14.8045 6.80138 13.3363C5.6029 13.0263 4.53833 12.2661 3.84577 11.2413C3.09307 10.1569 2.74835 8.78104 2.96659 7.47343C3.01185 7.18946 3.05525 6.87883 3.25924 6.65811C3.4037 6.50062 3.62257 6.4628 3.81973 6.41196C5.25383 6.06847 6.82123 6.43304 7.99243 7.31966C6.55958 5.40133 5.97304 2.86361 6.49262 0.519335C6.54222 0.327131 6.6811 0.157247 6.87145 0.091525ZM20.6941 6.65315C21.0456 6.92161 21.3742 7.22356 21.6321 7.58565C22.6403 6.68415 23.4153 5.50736 23.7731 4.19789C22.9788 5.26059 21.9087 6.11745 20.6941 6.65315ZM7.95213 4.18797C8.31608 5.49868 9.07622 6.69159 10.1092 7.57573C10.4272 7.26262 10.7304 6.93277 11.0832 6.65811C9.84938 6.12055 8.76621 5.25873 7.95213 4.18797ZM11.8198 7.83427C10.9809 8.46235 10.5029 9.53064 10.5698 10.5741C10.5909 10.8637 10.6523 11.1483 10.6907 11.4359C11.0652 13.9253 11.4484 16.4128 11.8185 18.9028C12.2123 18.7354 12.6394 18.6542 13.0666 18.6591C14.9701 18.6622 16.8735 18.6548 18.777 18.6628C19.1521 18.6535 19.5154 18.7589 19.8632 18.8904C20.2532 16.4116 20.6482 13.9334 21.0407 11.4545C21.125 10.9815 21.2006 10.4985 21.1337 10.018C21.0028 8.74384 20.0207 7.60115 18.7751 7.29548C18.3485 7.18512 17.9046 7.22976 17.4694 7.21922C16.23 7.1938 14.9905 7.23906 13.7511 7.2124C13.0623 7.19876 12.3697 7.41762 11.8198 7.83427ZM4.34674 7.73879C4.12788 9.09849 4.71627 10.563 5.84284 11.364C6.64762 11.9487 7.68181 12.2116 8.66701 12.0628C8.88464 10.5909 8.14124 9.06066 6.89501 8.26767C6.14789 7.78405 5.22345 7.61355 4.34674 7.73879ZM24.0713 8.93232C23.2981 9.78174 22.9478 10.9802 23.0817 12.1155C24.4228 12.3126 25.8309 11.7162 26.645 10.6374C27.2786 9.82886 27.5434 8.755 27.3921 7.74127C26.18 7.56581 24.8897 8.01718 24.0713 8.93232ZM9.17232 8.58635C9.2492 8.70912 9.32609 8.83064 9.40669 8.95092C9.52077 8.75748 9.28951 8.68246 9.17232 8.58635ZM22.5771 8.65579C22.4859 8.72524 22.3954 8.79468 22.3042 8.86288C22.316 8.9038 22.3396 8.98564 22.3507 9.02656C22.427 8.90318 22.5033 8.78042 22.5771 8.65579ZM12.8937 20.079C12.061 20.1372 11.3591 20.911 11.3585 21.7412C11.3232 22.6303 12.1118 23.4748 13.0084 23.4642C14.9099 23.4816 16.8122 23.468 18.7137 23.4717C19.1986 23.4841 19.6605 23.2342 19.9631 22.8641C20.4485 22.3029 20.487 21.4169 20.0635 20.8106C19.7591 20.3443 19.2128 20.0449 18.653 20.0697C16.7334 20.0765 14.8132 20.0573 12.8937 20.079Z" />
<path d="M12.229 9.68211C12.7144 9.56989 13.2557 9.75217 13.5676 10.1428C13.939 10.5973 13.9247 11.2904 13.5738 11.753C13.2836 12.1529 12.746 12.3618 12.2631 12.2502C11.7348 12.1355 11.2921 11.6823 11.2276 11.1391C11.1272 10.4906 11.5934 9.82781 12.229 9.68211Z" />
<path d="M18.9264 9.68123C19.6134 9.50763 20.3431 10.0266 20.4845 10.7049C20.6643 11.3881 20.1447 12.139 19.4571 12.2543C18.7485 12.4136 17.9846 11.8544 17.9077 11.1352C17.811 10.4829 18.2835 9.81764 18.9264 9.68123Z" />
<path d="M28.7264 19.6695C29.3352 19.1555 30.1276 18.8672 30.9243 18.8604C32.5984 18.8616 34.273 18.861 35.9471 18.8604C36.8889 18.8703 37.8214 19.282 38.4538 19.9813C38.6032 20.1469 38.7328 20.3292 38.8649 20.5096C39.966 20.7588 41.038 21.1662 41.9972 21.7664C42.8943 22.3293 43.6873 23.0721 44.2546 23.9705C45.1189 25.3215 45.4234 26.9733 45.3087 28.558C45.153 30.6041 44.2057 32.5032 43.0028 34.1326C41.4782 36.1718 39.563 37.8936 37.494 39.3655C37.4797 39.9371 37.5052 40.5094 37.4816 41.0811C37.445 41.4797 37.016 41.7513 36.6359 41.6577C36.3389 41.6013 36.0915 41.326 36.0952 41.0197C36.0965 37.3077 36.0928 33.5956 36.0971 29.8836C35.4802 30.1614 34.8007 30.2761 34.1267 30.2637C34.1286 31.2557 34.1236 32.2471 34.1298 33.2391C34.3902 33.4704 34.6326 33.7215 34.8831 33.9639C35.1082 34.1766 35.1398 34.5585 34.9451 34.8009C34.7207 35.1227 34.2147 35.1816 33.9215 34.9225C33.751 34.773 33.5978 34.6056 33.4323 34.4519C33.1558 34.6875 32.9264 35.0558 32.5345 35.0899C32.2505 35.1227 31.961 34.9634 31.8419 34.703C31.7148 34.4711 31.7675 34.1667 31.9511 33.9807C32.2003 33.7159 32.4843 33.4871 32.7348 33.223C32.7261 32.2366 32.7372 31.2495 32.7292 30.2624C32.0534 30.2779 31.3714 30.1601 30.7538 29.8793C30.7575 33.5913 30.7551 37.3039 30.7551 41.016C30.7588 41.357 30.455 41.6608 30.1158 41.6701C29.7401 41.7141 29.3625 41.4029 29.3637 41.0185C29.3557 40.4685 29.3625 39.9185 29.3613 39.3686C28.045 38.4318 26.8006 37.3914 25.6666 36.2412C24.1631 34.6993 22.8176 32.9421 22.0674 30.9048C21.6241 29.705 21.4337 28.408 21.5615 27.1332C21.6824 25.719 22.2038 24.3221 23.1382 23.242C24.367 21.7961 26.1514 20.92 27.9817 20.5152C28.2043 20.212 28.4343 19.9107 28.7264 19.6695ZM29.8821 20.5053C29.3532 20.819 29.0841 21.3975 28.7078 21.8594C28.3841 22.3498 27.9197 22.7782 27.7939 23.3734C27.6705 23.9029 27.7982 24.4783 28.1188 24.9154C28.4325 25.3445 28.7487 25.7717 29.0618 26.2007C30.4302 26.303 31.8791 26.1027 33.0485 25.3439C33.2816 25.2205 33.5798 25.2236 33.8117 25.3494C34.9817 26.1015 36.4263 26.3036 37.7916 26.1995C38.1134 25.7686 38.4277 25.3321 38.7483 24.8999C39.1042 24.4157 39.2021 23.7566 39.0106 23.1874C38.8692 22.7547 38.5424 22.4242 38.2907 22.0553C37.9981 21.669 37.7296 21.2635 37.4239 20.8872C37.0439 20.4476 36.4666 20.194 35.8875 20.1952C34.2749 20.1928 32.6622 20.1959 31.0496 20.1934C30.6416 20.1847 30.228 20.287 29.8821 20.5053ZM23.473 25.2533C22.9398 26.4146 22.8145 27.7396 22.9999 28.9964C23.225 30.423 23.8661 31.7523 24.6795 32.9341C25.9524 34.7712 27.6023 36.3144 29.3625 37.6766C29.3569 34.7476 29.3637 31.818 29.3594 28.8891C28.572 27.9095 27.8633 26.8685 27.1087 25.8634C26.7684 25.4338 26.5117 24.9303 26.4112 24.3884C26.2723 23.6884 26.3895 22.9481 26.7132 22.3145C25.3349 22.8706 24.0973 23.8825 23.473 25.2533ZM40.1433 22.3089C40.6654 23.3214 40.6164 24.6116 39.9654 25.5547C39.5822 26.1021 39.1767 26.6335 38.7849 27.1748C38.3546 27.7421 37.9658 28.3429 37.4952 28.8779C37.4841 31.7734 37.4946 34.6689 37.4897 37.5644C37.4388 37.7088 37.5672 37.6344 37.605 37.5935C39.625 36.005 41.5241 34.1791 42.8038 31.9272C43.5292 30.6196 44.011 29.1346 43.9291 27.6255C43.8882 26.5306 43.5863 25.43 42.9656 24.5186C42.2898 23.5043 41.255 22.7788 40.1433 22.3089ZM30.0588 27.5598C30.2448 27.8233 30.4463 28.0812 30.7061 28.2778C31.2684 28.7471 32.01 28.9381 32.7317 28.9319C32.7434 28.6752 32.6796 28.39 32.8315 28.1624C33.0584 27.7811 33.6623 27.7297 33.9494 28.0694C34.1856 28.292 34.118 28.6405 34.1267 28.9306C35.1789 28.9827 36.231 28.4526 36.7946 27.5598C35.6259 27.5158 34.4671 27.2306 33.4217 26.7042C32.3832 27.2399 31.2232 27.5139 30.0588 27.5598Z" />
<path d="M12.9123 20.5979C13.2744 20.5607 13.6384 20.5954 14.0017 20.583C14.5696 20.578 15.0979 21.0393 15.1531 21.6085C15.2244 22.1845 14.8046 22.7958 14.2193 22.8795C13.8169 22.9335 13.4089 22.9 13.0047 22.9049C12.4802 22.9062 11.9997 22.4957 11.8967 21.9861C11.7473 21.3481 12.2625 20.6543 12.9123 20.5979Z" />
<path d="M17.5673 20.6079C18.0503 20.6041 18.5445 20.5111 19.02 20.637C19.4813 20.7573 19.8546 21.19 19.8601 21.6749C19.8955 22.197 19.5452 22.7382 19.0262 22.8604C18.5947 22.9521 18.152 22.8957 17.7149 22.9031C17.106 22.9106 16.5517 22.3501 16.5821 21.7388C16.6255 21.2099 17.0223 20.6816 17.5673 20.6079Z" />
<path d="M30.6261 23.2372C31.0409 23.1212 31.5146 23.4734 31.4855 23.9117C31.4873 24.3606 30.9659 24.6793 30.5585 24.5187C30.2324 24.4233 30.0148 24.0512 30.1128 23.7214C30.1723 23.4784 30.3868 23.2942 30.6261 23.2372Z" />
<path d="M35.8466 23.2519C36.316 23.0709 36.8957 23.5185 36.7587 24.0263C36.662 24.5484 35.9167 24.7381 35.5707 24.3438C35.2136 24.0238 35.3915 23.3753 35.8466 23.2519Z" />
</svg>
