<svg   viewBox="0 0 64 46"  xmlns="http://www.w3.org/2000/svg">
<path d="M51.206 0.679533C52.0132 0.101089 53.0608 -0.123258 54.0349 0.0652958C54.9099 0.22253 55.7006 0.711492 56.311 1.34746C57.4199 2.52352 57.9095 4.22306 57.6884 5.81458C57.6161 6.36746 57.4103 6.88838 57.2167 7.40802C57.7529 7.48984 58.3052 7.55759 58.7948 7.80878C59.7995 8.27217 60.555 9.24498 60.734 10.3399C61.6231 15.62 62.5083 20.9008 63.3967 26.1809C63.4965 26.6309 63.1564 27.1384 62.686 27.1678C62.2399 27.2068 61.7918 27.226 61.345 27.2586C61.345 32.9113 61.3457 38.5641 61.345 44.2169C61.3476 44.6656 60.9328 45.0625 60.4841 45.0389C58.7142 45.0382 56.945 45.0389 55.1752 45.0389C54.7514 45.0625 54.3417 44.7142 54.3174 44.2866C53.8828 38.7476 53.4571 33.2073 53.025 27.6683C53.0046 27.4465 53.0084 27.2202 52.9483 27.0048C52.4031 25.2222 51.8624 23.4389 51.3191 21.6563C49.957 22.8624 48.5867 24.0596 47.2208 25.2618C46.8731 25.5584 46.5503 25.8927 46.1463 26.1151C45.7922 26.3254 45.3928 26.4366 44.9997 26.5478C45.0259 27.2675 44.8712 27.9962 44.5062 28.6206C43.4248 30.4544 42.349 32.292 41.2657 34.1238C41.6006 34.6007 41.7885 35.1523 41.9796 35.6968C42.3554 35.491 42.7242 35.268 43.1256 35.1133C44.4334 34.5828 45.9495 34.5917 47.2514 35.1363C48.1322 35.4974 48.9165 36.12 49.4214 36.933C49.9123 37.6974 50.104 38.6504 49.9321 39.544C49.7435 40.5404 49.1261 41.4257 48.3163 42.0226C46.634 43.2805 44.186 43.3828 42.3938 42.2937C42.2532 42.2118 42.1126 42.1288 41.9751 42.0437C41.8262 42.4669 41.7112 42.9085 41.4728 43.2939C40.8694 44.3364 39.7042 45.0299 38.4962 45.0382C33.085 45.0369 27.6732 45.0427 22.262 45.0357C21.7692 45.0338 21.5481 44.5505 21.3448 44.1817C20.9153 44.4195 20.4851 44.6579 20.0524 44.8899C19.8881 44.982 19.6983 45.0044 19.513 45.0069C14.314 45.0069 9.11438 45.0056 3.91477 45.0075C3.64633 45.0024 3.35551 45.0376 3.11326 44.8957C2.89722 44.7864 2.75022 44.5723 2.70356 44.3371C1.81448 40.651 0.927317 36.9649 0.0382383 33.2789C-0.0461315 32.9996 0.0184239 32.6781 0.226152 32.4697C3.67764 28.7625 7.1285 25.056 10.5793 21.3482C10.7967 21.1418 10.9616 20.8644 11.2466 20.7423C11.4774 20.633 11.7394 20.6848 11.9804 20.7218C16.8106 21.5988 21.6427 22.4655 26.4735 23.3373C26.7994 23.3846 27.0474 23.6454 27.1561 23.9445C28.3226 26.8591 29.4999 29.7699 30.6645 32.6851C31.7581 32.6889 32.8511 32.6838 33.944 32.6876C35.3074 30.3688 36.6739 28.0511 38.0392 25.7329C38.3319 25.2497 38.5799 24.7256 39.0005 24.335C39.5028 23.8269 40.1682 23.515 40.856 23.345C40.8515 22.7154 40.9263 22.0698 41.226 21.5061C41.4542 21.0203 41.8205 20.6164 42.2238 20.2687C44.4992 18.2387 46.7702 16.2036 49.0456 14.1736C48.8807 13.6213 48.7062 13.0717 48.5445 12.5188C48.237 11.2059 48.8449 9.77613 49.9334 9.0053C50.2242 8.78798 50.5604 8.64609 50.8723 8.46265C50.5898 8.09704 50.2798 7.74742 50.0542 7.34155C49.4029 6.23771 49.1824 4.89674 49.4016 3.63759C49.6055 2.47495 50.2325 1.36536 51.206 0.679533ZM52.8256 1.73032C52.1903 1.89714 51.6745 2.37907 51.3734 2.95304C50.8787 3.89389 50.8499 5.0495 51.236 6.03318C51.5044 6.73562 51.9915 7.37734 52.6633 7.73464C53.1554 8.00181 53.7562 8.09576 54.2957 7.92255C54.8914 7.73528 55.3688 7.26741 55.6539 6.72092C56.1128 5.8638 56.1569 4.82068 55.8706 3.90156C55.6328 3.16461 55.1892 2.466 54.5239 2.04862C54.0304 1.72201 53.404 1.59162 52.8256 1.73032ZM56.5155 9.26224C55.0052 9.51535 53.4942 9.76271 51.9832 10.012C51.6572 10.0618 51.3191 10.1117 51.0353 10.2913C50.4096 10.6467 50.0139 11.399 50.1462 12.1161C50.2121 12.3673 50.3207 12.6044 50.4051 12.8492C50.671 12.7815 50.935 12.6594 51.2149 12.6856C51.6917 12.7329 52.0516 13.2634 51.9014 13.7236C51.8023 14.056 51.4853 14.2401 51.2545 14.474C48.5713 16.8817 45.8855 19.2863 43.2011 21.6921C42.93 21.9362 42.7255 22.2597 42.6424 22.617C42.4526 23.3514 42.7575 24.1944 43.3973 24.6124C44.0064 25.0272 44.8552 25.0004 45.4643 24.5977C45.7481 24.3958 45.9942 24.1465 46.2601 23.9221C47.2936 23.0145 48.3272 22.1063 49.3607 21.198C51.066 19.6902 52.8013 18.2169 54.5066 16.7092C54.6875 16.5532 54.869 16.3691 55.1164 16.3295C55.4289 16.2617 55.7696 16.396 55.9594 16.6529C56.2138 16.9859 56.1454 17.4992 55.8284 17.7676C54.7776 18.6644 53.7351 19.5713 52.6818 20.4655C53.234 22.3146 53.8106 24.1567 54.3609 26.0064C56.7776 25.869 59.1942 25.7342 61.6116 25.5935C60.7922 20.7225 59.9657 15.8533 59.1457 10.9829C59.108 10.7553 59.0728 10.5246 58.9878 10.3092C58.7481 9.71349 58.1805 9.25649 57.5401 9.17404C57.1956 9.11971 56.8549 9.21494 56.5155 9.26224ZM12.392 22.5102C12.3946 24.6169 12.3927 26.7242 12.3927 28.8309C14.7039 29.2163 17.017 29.5896 19.327 29.9814C21.0923 28.2243 22.8686 26.4794 24.6282 24.7166C20.5497 23.9809 16.4712 23.2414 12.392 22.5102ZM1.74609 33.2814C2.50222 36.4491 3.26027 39.6168 4.02215 42.7826C4.0669 42.9801 4.05156 43.1834 4.05156 43.3847C8.9597 43.3847 13.8679 43.3847 18.7766 43.3847C18.7773 39.4449 18.7754 35.5057 18.7773 31.5659C16.4891 31.183 14.1989 30.8123 11.912 30.4256C10.6778 32.0645 9.44483 33.7046 8.20805 35.3415C8.0099 35.6042 7.65325 35.7595 7.32855 35.6706C6.92077 35.5965 6.64529 35.1574 6.6945 34.7573C6.73285 34.4907 6.92332 34.2875 7.07928 34.081C8.22722 32.5662 9.37197 31.0488 10.5218 29.5353C10.6056 29.4119 10.7449 29.2981 10.7238 29.1339C10.7225 27.3008 10.7225 25.4676 10.7238 23.6351C7.73826 26.8565 4.73227 30.06 1.74609 33.2814ZM39.9272 25.8332C38.5658 28.1285 37.2146 30.4301 35.8539 32.726C36.7353 32.7273 37.6167 32.7254 38.4981 32.7266C39.0024 32.7317 39.4888 32.8845 39.9656 33.0334C40.955 31.3563 41.9502 29.6836 42.9416 28.0077C43.0796 27.7782 43.2209 27.5436 43.2797 27.279C43.3519 27.0016 43.3231 26.7127 43.304 26.4309C42.5465 26.1503 41.8607 25.6645 41.4165 24.9819C40.8304 25.0445 40.2449 25.3181 39.9272 25.8332ZM20.4653 31.1888C20.4583 34.9394 20.4647 38.6907 20.4621 42.4413C20.7504 42.4247 21.0693 42.5065 21.3263 42.3352C24.4511 40.635 27.56 38.9054 30.6715 37.181C29.1343 33.3351 27.5811 29.495 26.0363 25.6517C24.1757 27.4938 22.3342 29.3557 20.4653 31.1888ZM54.6868 27.6689C55.0895 32.9018 55.4928 38.1346 55.8955 43.3674C57.1489 43.37 58.403 43.3681 59.657 43.3681C59.6615 38.3059 59.657 33.2431 59.6596 28.1809C59.494 28.1802 59.3285 28.1802 59.1642 28.1796C59.1629 28.0096 59.1629 27.8396 59.1636 27.6702C57.6711 27.6676 56.1793 27.6702 54.6868 27.6689ZM31.3343 34.3565C31.7038 35.2731 32.0681 36.1922 32.4324 37.1113C32.5615 37.4034 32.5225 37.7287 32.5264 38.0394C33.6142 38.0419 34.7021 38.0355 35.7899 38.0419C36.2143 38.0279 36.5678 38.4369 36.5627 38.8473C36.5684 39.2813 36.1901 39.6795 35.7509 39.6692C33.7018 39.6705 31.6533 39.6692 29.6047 39.6692C29.4302 39.6635 29.2915 39.7856 29.1445 39.8591C27.0347 41.0307 24.9241 42.1997 22.8142 43.3694C27.9129 43.3675 33.0115 43.3687 38.1101 43.3687C38.4533 43.377 38.8068 43.3732 39.1277 43.2358C39.8103 42.9673 40.2986 42.2668 40.2922 41.5299C40.2916 39.7421 40.2935 37.9544 40.2916 36.1666C40.2954 35.2123 39.4351 34.3712 38.4879 34.3591C36.1031 34.3527 33.719 34.3584 31.3343 34.3565ZM44.7274 36.3954C43.9776 36.4728 43.2407 36.7719 42.6827 37.2852C42.2391 37.7025 41.9259 38.2918 41.9451 38.9118C41.9457 39.558 42.2986 40.1582 42.783 40.5673C44.1726 41.7293 46.4608 41.6647 47.7302 40.3512C48.1603 39.9038 48.4115 39.2685 48.3316 38.6459C48.2594 38.0259 47.8791 37.475 47.3895 37.103C46.6404 36.5277 45.6599 36.2976 44.7274 36.3954Z" />
<path d="M18.9601 3.51999C19.2068 3.33335 19.5551 3.29564 19.8344 3.42987C22.9491 4.81749 26.0663 6.20001 29.1803 7.58955C31.3586 7.13575 33.5381 6.6845 35.717 6.23133C35.9797 6.16422 36.2834 6.20384 36.4815 6.40262C37.6895 7.62599 38.9129 8.83465 40.1254 10.0542C40.25 10.189 40.443 10.2095 40.6073 10.2721C41.7578 10.6588 42.9147 11.0283 44.0652 11.415C44.4992 11.5492 44.7318 12.0835 44.5541 12.4971C44.4039 12.9125 43.8894 13.1202 43.4848 12.9605C42.2653 12.5444 41.0381 12.1532 39.8173 11.7428C37.3437 12.9681 34.8829 14.219 32.4062 15.4372C32.0093 17.0083 31.62 18.5813 31.2288 20.1536C31.1739 20.4003 31.1061 20.6669 30.9022 20.8356C30.5743 21.1258 30.0112 21.1073 29.7319 20.7589C29.5485 20.5499 29.4839 20.2495 29.5638 19.9836C30.0253 18.1728 30.4522 16.3519 30.9476 14.5507C31.0396 14.3359 31.2314 14.1838 31.4398 14.0892C33.7535 12.9426 36.0558 11.7729 38.367 10.6198C37.4671 9.71925 36.5607 8.82506 35.6614 7.92384C31.2352 8.83656 26.809 9.74865 22.3847 10.671C21.9929 10.7841 21.5538 10.5361 21.4324 10.1507C21.2572 9.69305 21.5768 9.13825 22.0568 9.0526C23.4994 8.74644 24.942 8.44092 26.3859 8.14307C24.1878 7.14981 21.9763 6.18531 19.7776 5.19332C18.2135 7.63302 16.6565 10.0778 15.0912 12.5169C16.7281 13.8035 18.3778 15.0742 20.0185 16.3563C20.2812 16.5577 20.3713 16.9303 20.2755 17.2403C20.1604 17.6104 19.7616 17.8616 19.3774 17.806C19.1199 17.783 18.9255 17.5982 18.7325 17.4468C17.0956 16.1748 15.46 14.9022 13.8225 13.6322C11.3329 14.49 8.84528 15.3548 6.35509 16.2125C4.84538 19.2677 3.34399 22.3274 1.84003 25.3852C1.67832 25.6977 1.57797 26.0972 1.23218 26.2615C0.767511 26.5178 0.107254 26.204 0.0184099 25.6798C-0.0634032 25.3539 0.146243 25.0682 0.27855 24.7901C1.74032 21.8186 3.20656 18.8491 4.67025 15.8782C4.80128 15.6264 4.91569 15.3663 5.05567 15.1189C5.16369 14.9246 5.36886 14.8147 5.57275 14.7463C7.21988 14.1793 8.86573 13.6098 10.5129 13.0423C11.4901 12.6958 12.4802 12.3795 13.4511 12.0158C15.1558 9.38816 16.8323 6.74074 18.5261 4.10546C18.6641 3.90668 18.7651 3.67211 18.9601 3.51999Z" />
</svg>
