<svg  viewBox="0 0 16 16" xmlns="http://www.w3.org/2000/svg">
    <path d="M7.56708 0.10083C3.43141 0.10083 0.0670776 3.46516 0.0670776 7.60083C0.0670776 11.7365 3.43141 15.1008 7.56708 15.1008C11.7027 15.1008 15.0671 11.7365 15.0671 7.60083C15.0671 3.46516 11.7027 0.10083 7.56708 0.10083ZM11.134 11.4801C11.0121 11.602 10.8521 11.6634 10.6921 11.6634C10.5321 11.6634 10.372 11.602 10.2503 11.4801L7.12522 8.35522C7.00769 8.23838 6.94212 8.07954 6.94212 7.91337V3.85083C6.94212 3.50522 7.22204 3.22587 7.56708 3.22587C7.91212 3.22587 8.19204 3.50522 8.19204 3.85083V7.65462L11.134 10.5964C11.3783 10.8409 11.3783 11.2358 11.134 11.4801Z"
          />
</svg>
