<svg   viewBox="0 0 63 51"  xmlns="http://www.w3.org/2000/svg">
<path d="M15.385 1.05201C15.9541 0.448854 16.8947 0.241329 17.6665 0.547154C18.2612 0.742542 18.6228 1.28502 19.0682 1.68793C19.4978 2.06172 19.8485 2.55565 19.9031 3.13574C20.0294 3.91123 19.6386 4.66972 19.0609 5.16608C19.8158 5.47676 20.5585 5.81414 21.3109 6.13331C21.8995 5.58477 22.476 5.02287 23.0464 4.45491C23.8267 3.66729 25.2284 3.66123 26.0124 4.44763C26.5718 5.05321 27.3449 5.56656 27.5039 6.43549C27.6895 7.21219 27.3327 7.98404 26.8097 8.5435C28.5536 9.30199 30.2927 10.0726 32.0403 10.8251C34.5621 8.27287 37.1094 5.74739 39.6422 3.20734C40.5451 2.36511 41.6046 1.68793 42.7538 1.23647C44.0245 0.736475 45.3922 0.548368 46.7478 0.471912C48.3982 0.397883 49.9249 1.86875 49.9237 3.51802C49.8533 5.56778 49.4249 7.67457 48.2599 9.39787C47.5839 10.4731 46.6264 11.319 45.7441 12.2158C42.465 15.4937 39.1871 18.7716 35.9092 22.0508C32.8776 25.0459 29.942 28.143 26.7539 30.9731C24.9529 32.5811 23.09 34.1187 21.175 35.5884C18.9784 37.2789 16.6884 38.8444 14.4129 40.4269C15.3364 42.1502 15.7357 44.1976 15.3 46.1223C14.9663 47.6866 14.0828 49.0883 12.9602 50.2085C12.5779 50.6065 11.8206 50.3711 11.7539 49.8177C11.6034 48.1745 10.7017 46.7036 9.56822 45.5459C9.22234 45.2352 9.31579 44.6126 9.72477 44.4063C9.99176 44.251 10.3619 44.2837 10.5755 44.518C11.5973 45.5034 12.4056 46.7218 12.8631 48.0689C13.5731 47.0774 13.9978 45.8748 14.0185 44.6515C14.0488 43.2158 13.5816 41.8019 12.8267 40.592C12.5961 40.2716 12.7393 39.8068 13.0609 39.609C15.3485 37.9791 17.6884 36.4185 19.9214 34.7134C23.5815 31.9379 27.0366 28.893 30.2672 25.6284C35.5063 20.3906 40.7441 15.1515 45.982 9.91486C46.5888 9.28986 47.1228 8.58719 47.4978 7.79836C48.1652 6.5168 48.3776 5.05928 48.4662 3.63453C48.5196 2.71827 47.658 1.8724 46.7441 1.93186C45.6325 2.00225 44.5099 2.14302 43.4577 2.53016C42.4796 2.88574 41.573 3.43428 40.7951 4.12482C35.2781 9.61146 29.8024 15.1394 24.3146 20.6539C20.5342 24.4294 17.0731 28.5265 13.9651 32.8736C12.908 34.3663 11.8692 35.8723 10.8134 37.3651C10.6107 37.7267 10.1131 37.8092 9.78545 37.5714C8.50026 36.7801 6.98448 36.3068 5.46628 36.4185C4.35099 36.4949 3.27333 36.9124 2.36313 37.5544C3.72599 38.0507 4.98449 38.8529 5.96871 39.9209C6.3607 40.3602 5.92866 41.1248 5.35706 41.075C5.08157 41.0823 4.89226 40.8651 4.70172 40.7C3.59129 39.6272 2.16653 38.8092 0.607068 38.6697C0.0585248 38.6175 -0.184194 37.8323 0.223573 37.4682C1.42867 36.2219 3.01119 35.3044 4.73691 35.041C6.53424 34.7449 8.39103 35.1648 9.99055 36.001C11.5233 33.8347 13.0087 31.6333 14.6265 29.5277C17.5536 25.6842 20.7721 22.0653 24.2235 18.6867C17.1471 13.484 10.0694 8.28258 2.99177 3.08234C3.55245 2.51074 4.12405 1.91487 4.8789 1.60298C6.45779 0.922153 8.24783 1.04594 9.89467 1.38575C11.2151 1.6406 12.4068 2.28502 13.6325 2.80565C14.2187 2.22312 14.8024 1.63817 15.385 1.05201ZM16.1592 2.3105C15.4286 3.05443 14.6799 3.78137 13.9529 4.52894C12.7502 4.02894 11.584 3.44157 10.3571 3.0071C8.73934 2.569 6.92381 2.28744 5.33886 2.99254C11.9723 7.88331 18.6192 12.7534 25.2563 17.6381C27.1604 15.751 29.0378 13.8384 30.9201 11.9306C29.033 11.103 27.1422 10.2826 25.2575 9.45127C24.8704 9.30806 24.6374 8.81292 24.857 8.44277C25.1895 7.94399 25.749 7.63088 26.0512 7.11146C26.2502 6.6151 25.7769 6.27409 25.4735 5.9719C25.1847 5.72312 24.9614 5.30443 24.5306 5.31292C24.3 5.30686 24.1082 5.45127 23.9541 5.6054C23.3073 6.25346 22.6374 6.87724 21.9796 7.51438C21.7624 7.74132 21.4141 7.78986 21.1374 7.64666C19.925 7.11996 18.709 6.5969 17.4966 6.06778C17.1034 5.90394 16.9299 5.37239 17.1786 5.01802C17.5391 4.54108 18.0403 4.19035 18.408 3.72069C18.6386 3.22191 18.1859 2.83841 17.8655 2.53259C17.5682 2.27409 17.3243 1.84327 16.8789 1.86269C16.5718 1.86875 16.3619 2.11511 16.1592 2.3105Z" />
<path d="M6.23811 10.2266C6.89223 9.85163 7.61432 10.7994 7.11068 11.3371C6.03058 12.4402 4.92743 13.5215 3.84005 14.6186C3.56821 14.9451 3.02331 14.939 2.75146 14.6174C2.48205 14.331 2.52452 13.8504 2.80607 13.5895C3.81578 12.5725 4.8352 11.5664 5.84248 10.547C5.96384 10.4281 6.08398 10.3019 6.23811 10.2266Z" />
<path d="M49.6847 13.3819C49.8679 13.2181 50.0403 13.03 50.2636 12.9183C50.6992 12.7581 51.2005 13.1222 51.2187 13.5785C51.3679 15.4025 51.5087 17.229 51.6471 19.0554C55.1155 18.0045 58.5669 16.8965 62.0366 15.8516C62.6543 15.6525 63.1458 16.5105 62.7563 16.9838C60.4905 19.8188 58.215 22.6464 55.9383 25.4717C57.7502 26.5384 59.539 27.6464 61.3461 28.7241C61.6932 28.8879 61.8473 29.3576 61.647 29.6901C61.5233 29.9571 61.2235 30.0493 60.9601 30.11C58.9784 30.5724 57.0014 31.053 55.0208 31.5166C55.5063 32.7435 55.9966 33.9692 56.4735 35.1998C56.6798 35.6695 56.2004 36.1901 55.7211 36.1404C54.391 36.019 53.0621 35.8661 51.7332 35.7229C51.2259 35.6658 50.9517 34.9887 51.2441 34.5809C51.4019 34.3685 51.6835 34.2496 51.9468 34.2921C52.8607 34.3928 53.7733 34.5032 54.6883 34.6003C54.2356 33.4887 53.7939 32.3709 53.3582 31.252C53.1689 30.8552 53.4905 30.3964 53.8995 30.3321C55.6507 29.9086 57.4055 29.5032 59.158 29.0845C57.6216 28.1598 56.0864 27.2314 54.5548 26.2969C54.1495 26.1076 54.0694 25.5348 54.3509 25.2071C56.2951 22.7739 58.2514 20.3491 60.2004 17.9195C57.2041 18.8066 54.2199 19.7302 51.2247 20.6149C50.8036 20.7872 50.2721 20.4972 50.2696 20.0251C50.1289 18.388 50.0257 16.7472 49.8934 15.1088C49.2866 15.6914 48.6653 16.2593 48.0718 16.8564C47.8085 17.1015 47.5051 17.4377 47.1034 17.3333C46.5827 17.2484 46.357 16.4923 46.7733 16.1501C47.7247 15.2083 48.7272 14.3176 49.6847 13.3819Z" />
<path d="M12.4335 15.0737C12.7927 14.8297 13.3303 15.0178 13.4796 15.4195C13.6106 15.7108 13.5038 16.0579 13.2745 16.2691C12.266 17.2873 11.2441 18.2958 10.2357 19.314C10.0366 19.5154 9.78541 19.7278 9.47959 19.6671C9.05968 19.6477 8.74658 19.1987 8.84609 18.797C8.88857 18.5518 9.09852 18.3941 9.25628 18.2229C10.3242 17.1817 11.3509 16.0979 12.4335 15.0737Z" />
<path d="M38.1228 29.2363C38.5269 28.8333 39.3255 29.1404 39.3279 29.7217C39.9687 35.4098 40.5791 41.1015 41.2223 46.7896C41.9468 46.2314 42.4711 45.4559 42.8364 44.6258C43.2757 43.6355 43.6131 42.5858 43.7005 41.5008C43.7806 40.4947 43.8692 39.4887 43.9553 38.4826C45.0536 38.1828 46.1386 37.8382 47.232 37.5227C47.5937 37.4462 47.8728 37.0688 47.7709 36.6986C47.6653 36.2921 47.5415 35.8892 47.4177 35.4875C47.3315 35.1598 46.9699 34.9098 46.6337 34.9923C46.0973 35.1088 45.59 35.3418 45.0451 35.428C44.6034 35.4765 44.2078 35.0202 44.2963 34.5882C44.4092 33.2957 44.5233 32.0032 44.641 30.7108C44.6519 30.36 44.9177 30.0166 45.2806 29.9875C45.692 29.9232 46.118 30.2836 46.0961 30.7059C46.0245 31.7035 45.9153 32.6974 45.8413 33.695C46.5973 33.4049 47.5184 33.4693 48.1362 34.0299C48.8291 34.57 48.9068 35.5045 49.1701 36.2812C49.4929 37.3394 48.8303 38.5506 47.7794 38.8758C46.9638 39.1234 46.1471 39.3673 45.3267 39.6003C45.1786 40.9195 45.1944 42.2702 44.7879 43.5469C44.2951 45.1598 43.5585 46.8066 42.1956 47.8697C41.5548 48.3879 40.7551 48.6209 39.9723 48.8236C39.3073 42.6938 38.6192 36.5663 37.9432 30.4377C37.9104 30.036 37.7551 29.5336 38.1228 29.2363Z" />
<path d="M8.21631 41.2232C8.66048 40.9805 9.2964 41.3506 9.27092 41.864C9.29398 42.131 9.11072 42.3543 8.93718 42.5339C7.90077 43.5606 6.87408 44.5982 5.83888 45.6261C5.61801 45.8749 5.23694 45.9683 4.93961 45.8021C4.50515 45.62 4.39714 44.9671 4.75029 44.654C5.91049 43.5169 7.0282 42.3288 8.21631 41.2232Z" />
</svg>
