<svg   viewBox="0 0 46 47"  xmlns="http://www.w3.org/2000/svg">
<path fill-rule="evenodd" clip-rule="evenodd" d="M2.47925 2.44128C2.12002 2.44128 1.823 2.73831 1.823 3.09753V43.8788C1.823 44.238 2.12002 44.535 2.47925 44.535H24.2761C24.6903 44.535 25.0261 44.8708 25.0261 45.285C25.0261 45.6992 24.6903 46.035 24.2761 46.035H2.47925C1.2916 46.035 0.322998 45.0664 0.322998 43.8788V3.09753C0.322998 1.90988 1.2916 0.941284 2.47925 0.941284H32.7136C33.9013 0.941284 34.8699 1.90988 34.8699 3.09753V19.2694C34.8699 19.6836 34.5341 20.0194 34.1199 20.0194C33.7057 20.0194 33.3699 19.6836 33.3699 19.2694V3.09753C33.3699 2.73831 33.0728 2.44128 32.7136 2.44128H2.47925Z" />
<path fill-rule="evenodd" clip-rule="evenodd" d="M5.99487 5.86316C6.40909 5.86316 6.74487 6.19895 6.74487 6.61316V12.8944H28.448V6.61316C28.448 6.19895 28.7838 5.86316 29.198 5.86316C29.6122 5.86316 29.948 6.19895 29.948 6.61316V13.6444C29.948 14.0586 29.6122 14.3944 29.198 14.3944H5.99487C5.58066 14.3944 5.24487 14.0586 5.24487 13.6444V6.61316C5.24487 6.19895 5.58066 5.86316 5.99487 5.86316Z" />
<path fill-rule="evenodd" clip-rule="evenodd" d="M7.40112 18.6132C7.0419 18.6132 6.74487 18.9102 6.74487 19.2694V39.66C6.74487 40.0193 7.0419 40.3163 7.40112 40.3163H20.0574C20.4716 40.3163 20.8074 40.6521 20.8074 41.0663C20.8074 41.4805 20.4716 41.8163 20.0574 41.8163H7.40112C6.21347 41.8163 5.24487 40.8477 5.24487 39.66V19.2694C5.24487 18.0818 6.21347 17.1132 7.40112 17.1132H27.7917C28.9794 17.1132 29.948 18.0818 29.948 19.2694C29.948 19.6836 29.6122 20.0194 29.198 20.0194C28.7838 20.0194 28.448 19.6836 28.448 19.2694C28.448 18.9102 28.151 18.6132 27.7917 18.6132H7.40112Z" />
<path fill-rule="evenodd" clip-rule="evenodd" d="M9.46362 25.5975C9.46362 25.1833 9.79941 24.8475 10.2136 24.8475H20.0574C20.4716 24.8475 20.8074 25.1833 20.8074 25.5975C20.8074 26.0117 20.4716 26.3475 20.0574 26.3475H10.2136C9.79941 26.3475 9.46362 26.0117 9.46362 25.5975Z" />
<path fill-rule="evenodd" clip-rule="evenodd" d="M13.7292 17.1132C14.1435 17.1132 14.4792 17.4489 14.4792 17.8632V41.0663C14.4792 41.4805 14.1435 41.8163 13.7292 41.8163C13.315 41.8163 12.9792 41.4805 12.9792 41.0663V17.8632C12.9792 17.4489 13.315 17.1132 13.7292 17.1132Z" />
<path fill-rule="evenodd" clip-rule="evenodd" d="M21.4636 17.1132C21.8778 17.1132 22.2136 17.4489 22.2136 17.8632V19.9725C22.2136 20.3867 21.8778 20.7225 21.4636 20.7225C21.0494 20.7225 20.7136 20.3867 20.7136 19.9725V17.8632C20.7136 17.4489 21.0494 17.1132 21.4636 17.1132Z" />
<path fill-rule="evenodd" clip-rule="evenodd" d="M9.46362 33.3319C9.46362 32.9177 9.79941 32.5819 10.2136 32.5819H17.2449C17.6591 32.5819 17.9949 32.9177 17.9949 33.3319C17.9949 33.7461 17.6591 34.0819 17.2449 34.0819H10.2136C9.79941 34.0819 9.46362 33.7461 9.46362 33.3319Z" />
<path fill-rule="evenodd" clip-rule="evenodd" d="M22.1199 5.20691C22.1199 4.7927 22.4557 4.45691 22.8699 4.45691H24.2761C24.6903 4.45691 25.0261 4.7927 25.0261 5.20691C25.0261 5.62112 24.6903 5.95691 24.2761 5.95691H22.8699C22.4557 5.95691 22.1199 5.62112 22.1199 5.20691Z" />
<path fill-rule="evenodd" clip-rule="evenodd" d="M22.1199 10.8319C22.1199 10.4177 22.4557 10.0819 22.8699 10.0819H24.2761C24.6903 10.0819 25.0261 10.4177 25.0261 10.8319C25.0261 11.2461 24.6903 11.5819 24.2761 11.5819H22.8699C22.4557 11.5819 22.1199 11.2461 22.1199 10.8319Z" />
<path fill-rule="evenodd" clip-rule="evenodd" d="M21.4636 5.16003C21.8778 5.16003 22.2136 5.49582 22.2136 5.91003V7.31628C22.2136 7.7305 21.8778 8.06628 21.4636 8.06628C21.0494 8.06628 20.7136 7.7305 20.7136 7.31628V5.91003C20.7136 5.49582 21.0494 5.16003 21.4636 5.16003Z" />
<path fill-rule="evenodd" clip-rule="evenodd" d="M25.6824 5.16003C26.0966 5.16003 26.4324 5.49582 26.4324 5.91003V7.31628C26.4324 7.7305 26.0966 8.06628 25.6824 8.06628C25.2682 8.06628 24.9324 7.7305 24.9324 7.31628V5.91003C24.9324 5.49582 25.2682 5.16003 25.6824 5.16003Z" />
<path fill-rule="evenodd" clip-rule="evenodd" d="M21.4636 7.97253C21.8778 7.97253 22.2136 8.30832 22.2136 8.72253V10.1288C22.2136 10.543 21.8778 10.8788 21.4636 10.8788C21.0494 10.8788 20.7136 10.543 20.7136 10.1288V8.72253C20.7136 8.30832 21.0494 7.97253 21.4636 7.97253Z" />
<path fill-rule="evenodd" clip-rule="evenodd" d="M25.6824 7.97253C26.0966 7.97253 26.4324 8.30832 26.4324 8.72253V10.1288C26.4324 10.543 26.0966 10.8788 25.6824 10.8788C25.2682 10.8788 24.9324 10.543 24.9324 10.1288V8.72253C24.9324 8.30832 25.2682 7.97253 25.6824 7.97253Z" />
<path fill-rule="evenodd" clip-rule="evenodd" d="M21.528 21.35C21.2244 20.8566 20.4564 20.6478 19.7598 21.0956C19.1035 21.5175 18.9658 22.3126 19.3381 22.8503L19.3445 22.8596L26.3995 33.3843C26.465 33.4548 26.5257 33.5293 26.5803 33.6081L26.591 33.624L27.9269 35.6631C28.1531 36.0083 28.0579 36.4713 27.7139 36.6993C27.3699 36.9272 26.9064 36.8345 26.6766 36.4917L25.237 34.3442C25.1537 34.2711 25.0298 34.185 24.8564 34.0963C24.5878 33.959 24.2534 33.8426 23.8987 33.7663C23.5438 33.69 23.1925 33.659 22.8924 33.6764C22.5904 33.6939 22.3986 33.7568 22.3002 33.8165C22.1571 33.9177 22.1109 33.9904 22.096 34.0209C22.0842 34.0451 22.0745 34.0768 22.0837 34.1446C22.1094 34.3331 22.2514 34.621 22.5725 35.0847L22.584 35.1019L24.6894 38.3302C25.8315 40.008 27.288 41.4535 29.0453 42.3663C29.1267 42.4062 29.2731 42.4569 29.4957 42.5312L34.1265 43.9345C34.2928 43.9849 34.4365 44.0915 34.533 44.2362L34.9549 44.869C35.1846 45.2137 35.0915 45.6793 34.7468 45.9091C34.4022 46.1388 33.9365 46.0457 33.7068 45.7011L33.4341 45.292L29.0508 43.9637L29.0312 43.9575L29.0021 43.9478C28.8143 43.8853 28.56 43.8007 28.3704 43.7059L28.3605 43.7009C26.3256 42.6458 24.6917 41.0012 23.445 39.1677L23.437 39.1557L21.3332 35.9299C21.0229 35.481 20.6767 34.9285 20.5975 34.3473C20.554 34.0284 20.5881 33.691 20.7477 33.3636C20.9038 33.0434 21.1543 32.7853 21.4586 32.5746C21.4656 32.5698 21.4727 32.565 21.4799 32.5604C21.8767 32.3053 22.3592 32.2047 22.8056 32.1789C23.1347 32.1598 23.4794 32.1793 23.8189 32.2286L18.1013 23.6991C17.2125 22.4092 17.6379 20.6765 18.9487 19.8338C20.2171 19.0184 21.9737 19.2279 22.7982 20.552L25.3732 24.4332C25.5969 24.0353 25.9207 23.6838 26.3315 23.4198C27.3809 22.7452 28.7644 22.772 29.6778 23.5512C29.9019 23.1113 30.2452 22.7219 30.6909 22.4354C31.7216 21.7728 33.0747 21.7869 33.9881 22.526C34.2124 22.1029 34.5481 21.7286 34.9799 21.451C36.2481 20.6358 38.0043 20.845 38.829 22.1685L41.9215 26.8072C43.522 29.2807 44.5399 31.97 45.0498 34.8662C45.136 35.2322 45.1357 35.6472 45.1355 35.9015C45.1355 35.9125 45.1355 35.9231 45.1355 35.9335C45.1355 35.9527 45.1348 35.9719 45.1333 35.991L45.0125 37.561L45.2908 37.9784C45.5206 38.323 45.4274 38.7887 45.0828 39.0184C44.7381 39.2482 44.2725 39.1551 44.0427 38.8104L43.6208 38.1776C43.5278 38.038 43.4842 37.8713 43.4971 37.7041L43.6355 35.9048C43.6352 35.612 43.6298 35.37 43.5876 35.2013C43.5832 35.1839 43.5795 35.1664 43.5764 35.1487C43.1008 32.4307 42.1521 29.9262 40.6648 27.6264L37.574 22.9901C37.5689 22.9826 37.564 22.9749 37.5593 22.9672C37.2556 22.4738 36.4877 22.265 35.7911 22.7128C35.2122 23.0849 35.0368 23.7473 35.2589 24.2674L35.9454 25.3316C36.1688 25.6778 36.071 26.1393 35.7265 26.3653C35.382 26.5913 34.9197 26.497 34.6912 26.1542L34.132 25.3154C34.059 25.2094 33.9948 25.1003 33.9393 24.989L33.2787 23.9651L33.2702 23.9515C32.9666 23.4581 32.1986 23.2494 31.502 23.6972C30.8457 24.1191 30.708 24.9142 31.0803 25.4519C31.0858 25.4599 31.0912 25.4679 31.0964 25.4761L31.5886 26.2496C31.8093 26.5964 31.7097 27.0563 31.3652 27.2806C31.0207 27.505 30.5598 27.4103 30.3318 27.0682L28.9255 24.9589C28.9205 24.9513 28.9156 24.9437 28.9108 24.9359C28.6072 24.4425 27.8392 24.2337 27.1426 24.6815C26.4863 25.1034 26.3486 25.8985 26.7209 26.4362C26.7251 26.4422 26.7291 26.4483 26.7331 26.4544L27.6472 27.8607C27.8721 28.2068 27.7751 28.6697 27.43 28.8963C27.0849 29.1229 26.6216 29.0281 26.3934 28.684L21.5418 21.3715C21.5371 21.3644 21.5325 21.3572 21.528 21.35Z" />
</svg>
