<svg viewBox="0 0 46 44"  xmlns="http://www.w3.org/2000/svg">
<path d="M10.6574 0.969798C11.2567 0.411617 12.0438 0.0213734 12.8726 0.00445887C13.8796 -0.0426603 14.8891 0.359665 15.6061 1.06404C16.0864 1.531 16.4362 2.13207 16.5993 2.78207C17.0221 4.43608 17.4474 6.09008 17.8709 7.74409C17.9162 7.91323 17.9482 8.08842 18.0225 8.2485C18.8779 9.84874 19.4373 11.6127 19.6276 13.4183C19.833 15.3587 19.5406 17.3703 18.6622 19.1216C18.5668 19.3203 18.4297 19.5112 18.4327 19.7414C18.1155 23.7851 18.7982 27.9111 20.4491 31.6184C21.0375 33.0278 21.3613 34.5362 21.5166 36.0512C21.5758 36.9254 21.5842 37.8188 21.3486 38.6706C20.8793 40.5028 19.5376 42.0716 17.8268 42.8666C17.4335 43.0641 17.007 43.1807 16.5968 43.3366C14.4759 43.9352 12.0794 43.2786 10.5209 41.7315C9.82195 41.061 9.28552 40.2267 8.94179 39.323C7.09447 34.5271 5.24595 29.7312 3.39924 24.9353C3.02471 23.938 2.60245 22.9569 2.29436 21.936C1.92043 20.8269 1.59784 19.7015 1.31815 18.5652C0.882596 16.8695 0.462752 15.1696 0.0513655 13.4679C-0.0893879 12.8668 0.0640516 12.2077 0.451275 11.7269C0.900115 11.153 1.64496 10.8388 2.36987 10.9023C2.36141 10.7053 2.29919 10.5157 2.29134 10.3193C2.25328 9.60831 2.61755 8.89851 3.20473 8.50101C3.61128 8.21588 4.11086 8.09204 4.6032 8.09808C4.48057 7.63535 4.46063 7.13274 4.65032 6.68451C4.9572 5.87684 5.79326 5.31201 6.6559 5.32047C6.73142 5.30899 6.87942 5.35007 6.87459 5.22623C6.92473 4.62939 7.20986 4.04885 7.69132 3.68398C8.19573 3.28709 8.87896 3.17775 9.50057 3.29374C9.61112 2.41781 10.011 1.57691 10.6574 0.969798ZM12.228 1.62705C11.3835 2.02575 10.835 2.98686 10.9601 3.91898C11.0283 4.36238 11.1878 4.78585 11.3364 5.20811C11.7617 6.37823 12.2721 7.51514 12.8056 8.63935C12.9916 8.99818 12.8122 9.48629 12.431 9.62825C12.0915 9.77867 11.6554 9.61375 11.505 9.27365C10.9589 8.13977 10.446 6.98837 10.0128 5.80616C9.92948 5.56513 9.69811 5.40685 9.64737 5.14891C9.54528 4.73812 9.01972 4.5871 8.66995 4.77799C8.40052 4.9115 8.26581 5.24737 8.34555 5.53371C8.69532 6.92977 9.11154 8.30891 9.42506 9.71343C9.52051 10.0771 9.29035 10.4879 8.92427 10.5833C8.54127 10.7084 8.09364 10.4444 8.01451 10.0505C7.81274 9.12866 7.55781 8.21951 7.31134 7.30914C7.24006 7.01253 6.97366 6.74975 6.6547 6.76848C6.23968 6.76485 5.85488 7.17926 5.98174 7.5979C6.33694 8.99335 6.70544 10.3852 7.06065 11.7806C7.15247 12.0978 6.98997 12.4494 6.70363 12.604C6.3309 12.8172 5.80413 12.6113 5.67788 12.2011C5.50148 11.5837 5.36375 10.9554 5.18554 10.3381C5.09433 10.0765 5.01157 9.7684 4.74335 9.63308C4.29934 9.37272 3.64934 9.80525 3.75264 10.3193C4.01965 11.4834 4.30357 12.6439 4.61468 13.7965C4.72764 14.1281 4.58024 14.5311 4.25766 14.6815C3.91635 14.8675 3.44455 14.7177 3.28326 14.3625C3.10082 13.9131 3.07243 13.4117 2.84831 12.9773C2.7577 12.7484 2.65259 12.4886 2.40128 12.3968C1.94097 12.189 1.34231 12.639 1.46796 13.1453C1.7247 14.2308 1.99473 15.314 2.26355 16.3971C2.68823 18.0626 3.08149 19.7377 3.63182 21.3676C3.88191 22.1976 4.20812 23.0004 4.51802 23.8087C6.37802 28.6348 8.23802 33.4615 10.0968 38.2882C10.2575 38.7032 10.4043 39.1261 10.6248 39.5145C11.2307 40.6 12.2413 41.4633 13.4266 41.8493C14.4082 42.1743 15.5125 42.2124 16.4845 41.8348C17.5139 41.5267 18.4466 40.893 19.0966 40.0358C19.8076 39.117 20.167 37.9378 20.0945 36.7786C20.1 36.1666 20.0051 35.5601 19.903 34.9584C19.7152 33.9025 19.4276 32.8598 18.9836 31.8812C17.5996 28.6644 16.908 25.1582 16.9067 21.6587C16.4579 22.0973 16.0103 22.5401 15.5113 22.9225C15.1941 23.1666 14.6879 23.0729 14.4795 22.731C14.2717 22.4241 14.3508 21.9735 14.6505 21.756C15.6122 20.9858 16.4627 20.0645 17.0837 18.9971C17.9494 17.5358 18.3209 15.8087 18.2273 14.1191C18.1385 12.4729 17.6872 10.8509 16.9659 9.37151C16.8439 9.09604 16.6585 8.84776 16.5805 8.55417C16.1226 6.75398 15.6563 4.9562 15.199 3.15601C14.9253 1.90614 13.4084 1.06645 12.228 1.62705Z" />
<path d="M30.8691 0.522839C31.7577 -0.0117822 32.8916 -0.163409 33.8733 0.194214C35.1672 0.666614 36.1229 1.91467 36.2594 3.28354C36.8937 3.19051 37.5921 3.28233 38.1001 3.70218C38.5942 4.08457 38.8685 4.69711 38.9066 5.31329C39.6357 5.27463 40.3866 5.57728 40.8288 6.16868C41.2583 6.70512 41.3592 7.44573 41.1701 8.09755C41.6274 8.09272 42.0901 8.19602 42.4779 8.4449C43.0808 8.81038 43.4723 9.493 43.4826 10.198C43.488 10.4354 43.4288 10.6674 43.3853 10.8993C43.9386 10.8601 44.5059 11.0153 44.9469 11.356C45.4416 11.7402 45.763 12.3467 45.7709 12.9762C45.7817 13.3024 45.6796 13.6159 45.6065 13.9301C45.3069 15.1763 44.9946 16.4189 44.6817 17.6621C44.3301 19.0697 43.9743 20.4772 43.5031 21.8509C43.172 22.9498 42.7184 24.0057 42.3161 25.0792C40.4681 29.8763 38.6202 34.6734 36.7717 39.4699C36.0456 41.2948 34.4629 42.7579 32.5708 43.2998C31.3125 43.6629 29.9243 43.6568 28.7004 43.1705C26.8525 42.5719 25.2994 41.116 24.6186 39.2923C24.3177 38.493 24.183 37.6328 24.2253 36.7792C24.2229 36.009 24.3679 35.2497 24.4434 34.4849C24.4579 34.1351 24.7321 33.8113 25.0867 33.7769C25.515 33.7123 25.9439 34.1025 25.8938 34.5393C25.7742 35.777 25.4939 37.0475 25.8195 38.2786C26.2321 39.9447 27.5853 41.3123 29.2169 41.8137C30.8667 42.4595 32.8342 41.9938 34.1228 40.8067C34.7045 40.2763 35.1618 39.6094 35.4463 38.8748C37.5661 33.3782 39.6828 27.881 41.8008 22.3837C42.2019 21.19 42.5976 19.9927 42.9026 18.77C43.3787 16.9209 43.839 15.0676 44.2896 13.2118C44.3863 12.9218 44.2383 12.5926 43.9761 12.447C43.7018 12.2803 43.3158 12.3286 43.1147 12.586C42.7957 13.0867 42.6954 13.6782 42.5353 14.2406C42.4375 14.6362 41.9669 14.8682 41.5911 14.716C41.239 14.597 41.033 14.182 41.1477 13.8286C41.4268 12.801 41.6757 11.7656 41.9252 10.7308C41.9766 10.4861 42.0956 10.2221 41.9772 9.97869C41.8147 9.57818 41.2353 9.41266 40.9067 9.71289C40.6784 9.92916 40.6161 10.2572 40.5249 10.5459C40.3824 11.086 40.2507 11.6297 40.1014 12.1685C40.012 12.5171 39.6303 12.7497 39.2799 12.6748C38.8812 12.615 38.6009 12.1818 38.7066 11.7934C39.0648 10.3895 39.4333 8.98798 39.7934 7.58468C39.9033 7.17933 39.5475 6.78788 39.1488 6.76855C38.8341 6.74499 38.5375 6.97817 38.4674 7.28263C38.2112 8.20568 37.9636 9.13115 37.7497 10.0651C37.6676 10.4595 37.2133 10.7109 36.8339 10.5798C36.4805 10.4789 36.2546 10.0862 36.3416 9.7292C36.6557 8.31381 37.0774 6.92501 37.4283 5.51868C37.4845 5.3 37.4145 5.06259 37.2652 4.89707C36.9469 4.56542 36.2751 4.65362 36.135 5.12179C36.074 5.39303 35.8354 5.5664 35.7508 5.82556C35.3503 6.92138 34.8748 7.9876 34.3777 9.04295C34.2997 9.17283 34.3396 9.32446 34.3529 9.46582C34.5716 11.3083 34.3662 13.2118 33.6775 14.9395C33.2571 15.9906 32.6699 16.9771 31.9226 17.8283C32.035 18.0512 32.1564 18.2795 32.1776 18.5338C32.235 19.0485 31.9909 19.5892 31.5542 19.8725C31.1005 20.1885 30.4601 20.1969 29.9956 19.9003C29.5951 19.6484 29.3251 19.1911 29.3238 18.7151C29.3051 18.2191 29.5758 17.7292 29.9992 17.4725C30.1859 17.351 30.4287 17.3226 30.5791 17.1462C31.9535 15.7218 32.7654 13.7972 32.9405 11.8333C33.0221 11.0473 32.984 10.2554 32.9013 9.47125C32.917 9.18431 32.8391 8.87683 32.9786 8.61042C33.5779 7.34545 34.1505 6.06418 34.5982 4.73699C34.748 4.28331 34.8893 3.80366 34.8018 3.3216C34.6749 2.48614 34.046 1.74311 33.2305 1.50811C32.1172 1.2254 30.883 1.98051 30.5918 3.08359C30.1388 4.84633 29.6863 6.60907 29.2363 8.37302C29.1861 8.55303 29.1601 8.75238 29.0339 8.89918C28.8744 9.08161 28.6829 9.23203 28.5192 9.41085C27.4989 10.4783 26.7365 11.8 26.3692 13.2329C26.2732 13.6298 25.799 13.8709 25.422 13.7144C25.062 13.59 24.8656 13.1659 24.984 12.8071C25.4015 11.1863 26.2683 9.69598 27.4065 8.47571C27.5629 8.29207 27.8064 8.15615 27.8601 7.90484C28.2969 6.18983 28.7385 4.47602 29.1771 2.7616C29.4145 1.83009 30.0415 1.00974 30.8691 0.522839Z" />
<path d="M27.9924 14.0135C28.1205 13.8136 28.3404 13.671 28.582 13.6728C29.0665 13.6674 29.551 13.6704 30.0348 13.6716C30.4348 13.6571 30.796 14.028 30.7634 14.4279C30.7555 14.7831 30.4493 15.0991 30.0947 15.1154C29.7268 15.1353 29.3583 15.1057 28.9904 15.1287C28.2328 16.265 27.4771 17.4019 26.7178 18.537C26.6175 18.7061 26.4453 18.8589 26.4683 19.0728C26.4719 22.5173 26.4671 25.9619 26.4707 29.4064C29.3269 29.407 32.1836 29.4106 35.0404 29.4052C35.0404 26.0428 35.0385 22.681 35.041 19.3193C35.0331 19.1223 35.0742 18.9097 34.9733 18.7297C34.7764 18.3249 34.5577 17.9299 34.374 17.5185C34.2248 17.1784 34.4024 16.747 34.7407 16.6002C35.0639 16.4408 35.491 16.5694 35.6668 16.886C35.8559 17.2267 36.0154 17.5837 36.1954 17.9299C36.324 18.1969 36.5053 18.4608 36.4902 18.7714C36.489 22.5397 36.4902 26.308 36.4896 30.0763C36.5198 30.4768 36.1827 30.8592 35.7767 30.8556C32.4319 30.8598 29.0864 30.8568 25.7416 30.8568C25.3549 30.8659 25.0154 30.5234 25.0221 30.1386C25.0161 26.3497 25.0227 22.5602 25.0185 18.7714C25.013 18.5889 25.0553 18.4047 25.1628 18.2555C26.1082 16.8431 27.0494 15.4271 27.9924 14.0135Z" />
</svg>
