<svg   viewBox="0 0 43 46"  xmlns="http://www.w3.org/2000/svg">
<path fill-rule="evenodd" clip-rule="evenodd" d="M0.661743 44.2465C2.04543 41.058 4.33153 38.4711 7.15907 36.6061V17.1141C7.15907 12.9631 8.96388 9.11281 11.3703 6.16495C14.258 2.67564 18.1083 0.449707 21.1163 0.449707C24.1243 0.449707 27.9746 2.67564 30.8623 6.16495C33.3289 9.11281 35.1337 12.9631 35.1337 17.1141V36.6061C37.9612 38.4711 40.2473 41.058 41.631 44.2465L42.1724 45.4497H40.9091H8.84356V43.7652H22.139V40.2158H22.9813H23.8235V43.7652H27.4331V37.8695H28.2754H29.1176V43.7652H39.5855C37.7206 40.3962 34.7125 37.8695 31.1029 36.3053C28.0949 34.9818 24.6658 34.32 21.2366 34.32C17.8075 34.32 14.3783 34.9818 11.3703 36.3053C7.33955 38.05 4.03073 40.9377 2.28607 44.9083L0.661743 44.2465ZM12.8743 14.1663L13.7166 14.4069L14.5588 14.6476C14.7994 13.9858 15.0401 13.324 15.401 12.7224C16.2433 11.1583 17.5067 9.65425 18.9505 8.63153C19.6123 8.15024 20.274 7.78928 20.9358 7.54864L20.635 6.76655L20.3342 5.98447C16.8449 7.308 13.9572 10.7371 12.8743 14.1663ZM8.90372 35.5834C9.44517 35.2826 10.0468 34.9818 10.6484 34.7412C13.897 33.3575 17.5668 32.6355 21.2366 32.6355C24.9064 32.6355 28.516 33.3575 31.8248 34.7412C32.4264 34.9818 33.028 35.2826 33.5695 35.5834V17.1141C33.5695 13.4444 31.9452 9.95505 29.7192 7.24784C27.1323 4.17965 23.8235 2.1342 21.2366 2.1342C18.7099 2.1342 15.3409 4.11949 12.754 7.24784C10.5281 9.89489 8.90372 13.3842 8.90372 17.1141V35.5834Z" />
</svg>
