<svg   viewBox="0 0 46 51"  xmlns="http://www.w3.org/2000/svg">
<path fill-rule="evenodd" clip-rule="evenodd" d="M25.1756 36.6152V16.3272V15.411H26.0919H34.1416V11.2225H26.0919H25.1756V10.3063V2.25654H20.9872V10.3063V11.2225H20.0709H12.0212V15.411H20.0709H20.9872V16.3272V36.6152C21.7071 36.5497 22.3615 36.5497 23.0814 36.5497C23.7359 36.5497 24.4558 36.5497 25.1756 36.6152ZM12.0866 1.01309L16.1442 5.07068L14.8353 6.37958L10.7777 2.32199L12.0866 1.01309ZM31.262 20.1885L35.3196 24.2461L34.0107 25.555L29.9531 21.4974L31.262 20.1885ZM35.3196 2.32199L31.262 6.37958L29.9531 5.07068L34.0107 1.01309L35.3196 2.32199ZM16.1442 21.4974L12.0866 25.555L10.7777 24.2461L14.8353 20.1885L16.1442 21.4974ZM19.0893 36.8115V17.3089H11.0395H10.1233V16.3927V10.3717V9.4555H11.0395H19.0893V1.40577V0.358643H20.0055H26.0264H26.9427V1.27487V9.32461H34.9924H35.9086V10.2408V16.2618V17.178H34.9924H26.9427V36.6806C29.5605 37.0079 32.1128 37.7278 34.4688 38.7094C39.2463 40.7382 43.173 44.2068 45.2673 49.0497L45.8563 50.3586H44.4819H9.59973V48.5262H43.0421C41.0133 44.8613 37.7411 42.1126 33.8144 40.411C30.5421 38.9712 26.8118 38.2513 23.0814 38.2513C19.351 38.2513 15.6207 38.9712 12.3484 40.411C7.9636 42.3089 4.36413 45.4503 2.46622 49.7696L0.764648 49.0497C2.85889 44.2068 6.85104 40.7382 11.5631 38.7094C13.9191 37.7932 16.4715 37.1387 19.0893 36.8115Z" />
</svg>
