<svg   viewBox="0 0 44 46"  xmlns="http://www.w3.org/2000/svg">
<path d="M26.9141 25.3415C29.2435 25.3415 31.0837 21.6067 32.0621 18.1203C33.1925 14.5286 33.6531 10.7596 33.4209 7.00135C33.3641 5.84109 33.0091 4.71507 32.3902 3.73206C31.7712 2.74904 30.9092 1.94225 29.8874 1.38961C28.8657 0.836963 27.7187 0.557144 26.5572 0.577177C25.3957 0.59721 24.259 0.916418 23.2569 1.50397C22.975 1.67945 22.6495 1.77245 22.3174 1.77245C21.9853 1.77245 21.6598 1.67945 21.3779 1.50397C20.3758 0.916418 19.2391 0.59721 18.0776 0.577177C16.9162 0.557144 15.7691 0.836963 14.7474 1.38961C13.7256 1.94225 12.8636 2.74904 12.2447 3.73206C11.6257 4.71507 11.2707 5.84109 11.2139 7.00135C10.9817 10.7596 11.4423 14.5286 12.5728 18.1203C13.5511 21.6067 15.4224 25.3415 17.7207 25.3415C18.9631 25.3415 19.2737 23.7885 19.7706 21.5523C20.2675 19.3161 20.8809 16.3345 22.3174 16.3345C23.7539 16.3345 24.3983 19.3549 24.8642 21.5523C25.3301 23.7497 25.6717 25.3415 26.9141 25.3415ZM22.3174 14.7815C18.4972 14.7815 18.4817 22.1657 17.5654 23.7652C16.7113 23.5478 15.1739 21.6377 14.0636 17.701C12.9867 14.2825 12.5472 10.6952 12.7669 7.11782C13.0542 3.3209 17.1306 0.750798 20.5704 2.83173C21.0095 3.12014 21.4134 3.4589 21.7739 3.84113C22.8689 4.72075 24.2549 5.15596 25.6562 5.06018H25.7882V3.50725C24.9924 3.542 24.1984 3.40701 23.4588 3.11125C24.3052 2.80843 24.9729 2.09408 26.72 2.09408C28.0461 2.15041 29.3049 2.69423 30.2549 3.62129C31.2048 4.54834 31.7792 5.79342 31.8679 7.11782C32.0876 10.6952 31.6481 14.2825 30.5712 17.701C29.4609 21.6377 27.9235 23.5478 27.0694 23.7652C26.1376 22.1347 26.1376 14.7815 22.3174 14.7815Z" />
<path d="M14.312 7.23425L15.865 7.35848C15.8903 6.81244 16.1114 6.29378 16.4879 5.8974C16.8643 5.50102 17.3708 5.25342 17.9148 5.1999V3.64697C16.9788 3.69867 16.0944 4.09277 15.43 4.75425C14.7657 5.41573 14.3678 6.2984 14.312 7.23425Z" />
<path d="M17.3015 28.354L13.1862 25.9548C12.752 25.7037 12.2603 25.5694 11.7588 25.5648C11.2573 25.5603 10.7631 25.6857 10.3245 25.9289C9.88589 26.172 9.51772 26.5247 9.25585 26.9524C8.99398 27.3801 8.84734 27.8683 8.83022 28.3696L8.24011 28.0046L5.60789 17.4757C5.46785 16.8507 5.08527 16.307 4.54431 15.964C4.27645 15.7942 3.97778 15.6789 3.66533 15.6245C3.35288 15.5701 3.03278 15.5778 2.72332 15.6472C2.41385 15.7165 2.12106 15.8461 1.86168 16.0286C1.60231 16.2111 1.38141 16.4429 1.21161 16.7107C0.868688 17.2517 0.754704 17.9067 0.894738 18.5317L3.68225 32.5314C3.79096 33.0827 3.68225 32.6867 11.4469 38.2152V44.7996C11.4469 45.0055 11.5287 45.203 11.6743 45.3486C11.8199 45.4942 12.0174 45.5761 12.2234 45.5761H19.988C20.194 45.5761 20.3915 45.4942 20.5371 45.3486C20.6827 45.203 20.7645 45.0055 20.7645 44.7996V34.3872C20.7644 33.1667 20.4446 31.9676 19.837 30.9091C19.2295 29.8506 18.3553 28.9697 17.3015 28.354ZM19.2116 44.0231H12.9998V37.8114C12.9996 37.6862 12.9692 37.5629 12.911 37.4521C12.8529 37.3412 12.7688 37.246 12.666 37.1747L5.15754 31.918L2.42438 18.2289C2.39062 18.0131 2.44008 17.7925 2.56276 17.6117C2.68544 17.431 2.87218 17.3035 3.08523 17.2552C3.29827 17.2069 3.52172 17.2413 3.71039 17.3514C3.89906 17.4615 4.03887 17.6392 4.10154 17.8485C6.95894 28.9442 6.66388 28.8432 7.15305 29.1538L13.3648 33.0361C13.5381 33.1439 13.747 33.179 13.946 33.134C14.1451 33.0889 14.3185 32.9673 14.4285 32.7954C14.5377 32.6239 14.5753 32.4165 14.5332 32.2175C14.4911 32.0186 14.3727 31.8442 14.2034 31.7317L10.981 29.5809C10.6783 29.3924 10.4628 29.0915 10.382 28.7442C10.3012 28.3969 10.3617 28.0317 10.5501 27.729C10.7385 27.4263 11.0395 27.2108 11.3868 27.13C11.7341 27.0492 12.0992 27.1096 12.402 27.298L16.5172 29.6973C17.3321 30.1732 18.0091 30.853 18.4815 31.6698C18.9539 32.4867 19.2055 33.4125 19.2116 34.3561V44.0231Z" />
<path d="M41.9543 15.7133C41.3335 15.5604 40.6775 15.659 40.1292 15.9877C39.5808 16.3164 39.1847 16.8485 39.027 17.4681L36.3948 28.0047L35.8047 28.3697C35.792 27.8666 35.6482 27.3755 35.3873 26.9451C35.1265 26.5148 34.7577 26.16 34.3176 25.916C33.8774 25.672 33.3812 25.5472 32.878 25.554C32.3748 25.5609 31.8821 25.699 31.4487 25.9549L27.3334 28.3542C26.2796 28.9698 25.4054 29.8507 24.7979 30.9092C24.1903 31.9677 23.8705 33.1668 23.8704 34.3873V44.7997C23.8704 45.0056 23.9522 45.2031 24.0978 45.3487C24.2434 45.4944 24.4409 45.5762 24.6469 45.5762H32.4115C32.6174 45.5762 32.8149 45.4944 32.9606 45.3487C33.1062 45.2031 33.188 45.0056 33.188 44.7997V38.2153L40.6188 33.0129C40.7886 32.9022 40.9085 32.7295 40.9526 32.5315L43.7557 18.5552C43.882 17.9404 43.7649 17.3006 43.4288 16.7705C43.0928 16.2404 42.5642 15.8614 41.9543 15.7133ZM42.2183 18.229L39.4774 31.9181L31.9689 37.1748C31.8661 37.2462 31.782 37.3413 31.7239 37.4522C31.6657 37.5631 31.6353 37.6863 31.6351 37.8115V44.0232H25.4233V34.3873C25.4294 33.4437 25.681 32.5179 26.1534 31.701C26.6258 30.8841 27.3028 30.2043 28.1177 29.7285L32.2329 27.3292C32.5287 27.1939 32.8635 27.1704 33.1752 27.2632C33.4869 27.356 33.7544 27.5587 33.928 27.8338C34.1016 28.1088 34.1694 28.4375 34.119 28.7589C34.0686 29.0802 33.9033 29.3723 33.6539 29.581L30.4315 31.7318C30.2622 31.8443 30.1438 32.0188 30.1017 32.2177C30.0596 32.4166 30.0971 32.6241 30.2064 32.7955C30.3164 32.9674 30.4898 33.0891 30.6889 33.1341C30.8879 33.1792 31.0968 33.144 31.2701 33.0362C37.7148 28.9132 37.6915 29.2238 37.8235 28.6803L40.5333 17.8097C40.5884 17.5887 40.7288 17.3984 40.9238 17.2806C41.1188 17.1627 41.3525 17.1268 41.5738 17.1808C41.7973 17.2361 41.99 17.3769 42.1106 17.573C42.2312 17.7691 42.2698 18.0047 42.2183 18.229Z" />
</svg>
