<svg   viewBox="0 0 60 48"  xmlns="http://www.w3.org/2000/svg">
<path d="M9.85698 3.14221C14.4348 2.10115 19.0131 1.06069 23.5915 0.0208242C23.8078 -0.0356257 24.0253 0.0362737 24.2374 0.0760857C25.8988 0.409437 27.5614 0.741006 29.2235 1.07317C29.5812 1.15517 29.9496 1.19795 30.3013 1.30372C30.5254 1.43267 30.8118 1.47723 30.9782 1.68996C33.2962 4.78044 35.6136 7.87093 37.9316 10.9614C38.07 11.1486 38.2495 11.3334 38.2626 11.58C38.303 11.9044 38.0576 12.1516 37.8942 12.4018C36.6546 14.1999 35.4014 15.9878 34.1702 17.7913C35.6403 19.5406 37.0961 21.3018 38.562 23.0542C38.7991 23.3132 38.7979 23.7429 38.5615 24.0013C36.1668 26.2576 33.7561 28.4971 31.3662 30.7569C31.3121 31.0172 31.1873 31.2537 31.0863 31.4979C30.5479 32.7612 30.0108 34.0251 29.4689 35.2866C27.8431 35.2854 26.2173 35.2848 24.5916 35.2866C24.4912 35.2574 24.4823 35.3739 24.4537 35.4357C23.626 37.8411 22.7882 40.2429 21.9634 42.6488C23.5351 41.086 25.0955 39.5126 26.6684 37.951C28.6667 37.9534 30.665 37.951 32.6639 37.9522C33.8666 35.5522 35.0889 33.1617 36.2916 30.7611C36.3944 30.5483 36.4021 30.2803 36.6023 30.1247C38.9721 28.0533 41.3388 25.9783 43.7097 23.9075C42.3133 22.0969 40.9217 20.2822 39.5259 18.471C39.391 18.2975 39.2287 18.1199 39.2186 17.8875C39.186 17.6195 39.3369 17.3664 39.5425 17.206C41.28 15.604 43.0085 13.9931 44.7442 12.3893C43.1713 9.84905 41.5943 7.31178 40.0214 4.77212C39.9198 4.59861 39.7897 4.43937 39.7219 4.24803C39.6073 3.9028 39.8063 3.48566 40.1533 3.36919C40.3934 3.27353 40.6489 3.36147 40.8896 3.40663C43.4643 3.92181 46.0396 4.43699 48.6149 4.95157C48.7979 4.99139 48.988 5.011 49.1627 5.0823C49.4242 5.1958 49.587 5.47983 49.5704 5.76208C49.5686 13.8825 49.5704 22.003 49.5698 30.1229C52.6561 30.1253 55.743 30.1211 58.8293 30.1247C59.1175 30.114 59.3879 30.3243 59.4527 30.6042C59.5507 30.9863 59.2186 31.388 58.8258 31.3636C51.6739 31.3648 44.522 31.3636 37.3701 31.3642C36.0616 33.9757 34.7377 36.5796 33.4215 39.187C31.3477 39.187 29.2734 39.1798 27.1996 39.1905C26.6588 39.679 26.1627 40.2209 25.6386 40.7295C23.4376 42.9293 21.2385 45.1314 19.0363 47.33C20.5599 42.9031 22.0989 38.481 23.6218 34.0536C25.2993 34.0512 26.9773 34.053 28.6554 34.0524C29.0297 33.1569 29.4195 32.2674 29.7951 31.3719C20.0792 31.3612 10.3632 31.3654 0.64673 31.363C0.221276 31.3986 -0.125148 30.9156 0.0436075 30.524C0.132739 30.2768 0.385278 30.111 0.647325 30.1253C5.54183 30.1211 10.4363 30.1247 15.3308 30.1235C15.6767 30.1223 16.0237 30.1336 16.3689 30.1003C14.2161 29.7699 12.074 29.373 9.9259 29.0153C9.55809 28.9868 9.25267 28.6546 9.26812 28.2844C9.26752 20.1414 9.26633 11.9977 9.26871 3.85466C9.25385 3.51299 9.52422 3.20044 9.85698 3.14221ZM16.9435 2.99128C16.9726 3.25927 16.9613 3.52963 16.9625 3.79881C16.9631 7.75803 16.9625 11.7172 16.9631 15.6771C17.568 15.6782 18.1735 15.6741 18.779 15.6777C19.1332 15.6753 19.4541 15.9801 19.4713 16.3343C19.5123 16.7246 19.173 17.1002 18.7802 17.0996C18.1747 17.1091 17.5686 17.0996 16.9631 17.1032C16.9625 20.9923 16.9625 24.882 16.9631 28.7711C18.9947 29.1193 21.0269 29.4675 23.0591 29.8127C23.0621 28.7104 23.0591 27.6082 23.0609 26.5059C22.6444 26.5059 22.2284 26.5053 21.8125 26.5065C21.8125 26.0312 21.8119 25.5558 21.8131 25.0804C22.2284 25.0792 22.6444 25.0804 23.0603 25.0798C23.0609 19.0759 23.0603 13.072 23.0603 7.06815C22.6444 7.06755 22.2284 7.06815 21.8125 7.06815C21.8125 6.59278 21.8125 6.11741 21.8125 5.64205C22.2284 5.64145 22.6444 5.64205 23.0603 5.64205C23.0603 4.29616 23.0603 2.95087 23.0603 1.60499C21.021 2.06431 18.984 2.53492 16.9435 2.99128ZM24.487 1.583C24.4858 11.0369 24.487 20.4907 24.4864 29.9452C26.3689 29.9416 28.2519 29.9529 30.1338 29.9393C32.4488 27.796 34.7401 25.6229 37.048 23.4701C35.6789 21.8188 34.3022 20.174 32.9295 18.5251C32.7887 18.3504 32.6057 18.1858 32.5718 17.9523C32.5231 17.7372 32.6063 17.5209 32.7334 17.3498C33.992 15.5362 35.244 13.7185 36.5049 11.9062C36.5459 11.8153 36.6885 11.7167 36.6327 11.6133C34.4044 8.62854 32.1648 5.65096 29.93 2.671C28.1158 2.30556 26.3017 1.9425 24.487 1.583ZM10.6948 4.41441C10.6924 5.24155 10.6942 6.06928 10.6936 6.89702C11.1119 6.89702 11.5309 6.89702 11.9492 6.89702C11.948 7.37238 11.9492 7.84775 11.9486 8.32312C11.5303 8.32371 11.1119 8.32312 10.6936 8.32312C10.693 13.4904 10.6936 18.6576 10.6936 23.8249C11.1119 23.8249 11.5303 23.8249 11.9486 23.8249C11.9486 24.3002 11.9486 24.7756 11.9486 25.251C11.5303 25.251 11.1119 25.251 10.6936 25.251C10.6936 26.0674 10.6936 26.8844 10.6936 27.7009C12.3081 27.9754 13.922 28.2511 15.5358 28.5286C15.5364 24.7203 15.5364 20.912 15.5358 17.1032C15.1312 17.0978 14.7259 17.1127 14.3213 17.0972C13.9606 17.0853 13.6504 16.7579 13.6564 16.3984C13.6385 16.033 13.9511 15.6943 14.3153 15.6788C14.7218 15.6711 15.1294 15.68 15.5364 15.6765C15.5358 11.5556 15.5364 7.43478 15.5358 3.31393C13.922 3.68056 12.3081 4.04778 10.6948 4.41441ZM41.8771 5.05972C43.3324 7.40566 44.787 9.7516 46.2422 12.0975C46.37 12.2895 46.4175 12.5402 46.3296 12.7583C46.2624 12.9508 46.0978 13.0804 45.9534 13.2129C44.2623 14.7733 42.5813 16.3444 40.8878 17.9012C42.3418 19.7872 43.7923 21.6762 45.2445 23.5634C45.4757 23.8457 45.4335 24.2978 45.1578 24.5355C43.0275 26.3966 40.902 28.2636 38.7694 30.1223C41.8938 30.1253 45.0187 30.1229 48.1437 30.1235C48.1437 22.186 48.1437 14.2492 48.1431 6.31231C46.055 5.8934 43.9658 5.47745 41.8771 5.05972Z" />
<path d="M0.545135 37.9819C6.85861 37.9635 13.1733 37.9807 19.4873 37.9736C19.7203 37.9569 19.9758 38.0264 20.1142 38.2285C20.3145 38.4828 20.2634 38.8892 20.0013 39.0818C19.7904 39.2547 19.5022 39.2101 19.2497 39.2155C13.0491 39.2137 6.84792 39.2161 0.647339 39.2143C0.321712 39.2285 0.00380991 38.9588 0.00380991 38.6248C-0.0235237 38.3105 0.236146 38.0146 0.545135 37.9819Z" />
<path d="M36.9737 37.9867C39.0273 37.9576 41.0833 37.9826 43.1375 37.9743C47.9506 37.9737 52.7631 37.9755 57.5756 37.9737C57.7829 37.9784 58.0087 37.9481 58.1965 38.0598C58.4764 38.2119 58.5928 38.6 58.4372 38.8804C58.326 39.111 58.0622 39.2298 57.8144 39.2156C50.921 39.2144 44.027 39.215 37.1336 39.215C36.7741 39.2488 36.433 38.9256 36.4597 38.5637C36.4657 38.2815 36.698 38.0295 36.9737 37.9867Z" />
<path d="M0.429225 45.1174C0.61759 45.0698 0.814868 45.0942 1.00739 45.09C6.19722 45.0912 11.387 45.0888 16.5763 45.0912C16.8561 45.0829 17.1218 45.2956 17.1723 45.5707C17.2703 45.938 16.9554 46.3301 16.5781 46.3218C11.2682 46.3248 5.95775 46.323 0.6473 46.323C0.392979 46.3361 0.142222 46.1816 0.0483369 45.9439C-0.093085 45.6242 0.0923086 45.2148 0.429225 45.1174Z" />
<path d="M23.844 45.1186C24.0294 45.0681 24.2255 45.0954 24.4163 45.0901C35.4507 45.0907 46.4852 45.0907 57.5191 45.0901C57.7734 45.0978 58.0699 45.0402 58.2761 45.2291C58.5364 45.4217 58.5827 45.8305 58.3777 46.08C58.2535 46.2595 58.0295 46.3355 57.818 46.3243C46.5648 46.3219 35.3117 46.3243 24.058 46.3231C23.7727 46.3391 23.4935 46.1299 23.4376 45.8483C23.3592 45.5482 23.544 45.2065 23.844 45.1186Z" />
</svg>
