<svg   viewBox="0 0 53 53"  xmlns="http://www.w3.org/2000/svg">
<path fill-rule="evenodd" clip-rule="evenodd" d="M21.7767 28.3966C21.4321 28.6264 21.339 29.092 21.5687 29.4367C21.7984 29.7812 22.2639 29.8744 22.6085 29.6449C22.6084 29.6449 22.6085 29.6449 22.6085 29.6449" />
<path fill-rule="evenodd" clip-rule="evenodd" d="M31.1133 19.3219C31.0156 19.4685 30.9307 19.7143 30.9307 20.0231C30.9307 20.332 31.0156 20.5778 31.1133 20.7244C31.1709 20.8108 31.2143 20.8406 31.2341 20.8502C31.2538 20.8406 31.2973 20.8108 31.3549 20.7244C31.4526 20.5778 31.5374 20.332 31.5374 20.0231C31.5374 19.7143 31.4526 19.4685 31.3549 19.3219C31.2973 19.2355 31.2538 19.2057 31.2341 19.1961C31.2143 19.2057 31.1709 19.2355 31.1133 19.3219ZM31.2458 19.1919C31.2458 19.192 31.2448 19.1923 31.2425 19.1926C31.2447 19.1919 31.2458 19.1918 31.2458 19.1919ZM31.2257 19.1926C31.2234 19.1923 31.2223 19.192 31.2223 19.1919C31.2224 19.1918 31.2235 19.1919 31.2257 19.1926ZM31.2223 20.8544C31.2223 20.8543 31.2234 20.854 31.2257 20.8537C31.2235 20.8544 31.2224 20.8545 31.2223 20.8544ZM31.2425 20.8537C31.2448 20.854 31.2458 20.8543 31.2458 20.8544C31.2458 20.8545 31.2447 20.8544 31.2425 20.8537ZM29.8652 18.4899C30.1452 18.0699 30.6144 17.6931 31.2341 17.6931C31.8537 17.6931 32.3229 18.0699 32.603 18.4899C32.8865 18.9151 33.0374 19.4594 33.0374 20.0231C33.0374 20.5869 32.8865 21.1312 32.603 21.5564C32.3229 21.9764 31.8537 22.3532 31.2341 22.3532C30.6144 22.3532 30.1452 21.9764 29.8652 21.5564C29.5817 21.1312 29.4307 20.5869 29.4307 20.0231C29.4307 19.4594 29.5817 18.9151 29.8652 18.4899Z" />
<path fill-rule="evenodd" clip-rule="evenodd" d="M21.5453 19.3219C21.4476 19.4685 21.3627 19.7143 21.3627 20.0231C21.3627 20.332 21.4476 20.5778 21.5453 20.7244C21.6029 20.8108 21.6463 20.8406 21.6661 20.8502C21.6858 20.8406 21.7293 20.8108 21.7869 20.7244C21.8846 20.5778 21.9694 20.332 21.9694 20.0231C21.9694 19.7143 21.8846 19.4685 21.7869 19.3219C21.7293 19.2355 21.6858 19.2057 21.6661 19.1961C21.6463 19.2057 21.6029 19.2355 21.5453 19.3219ZM21.6778 19.1919C21.6779 19.192 21.6768 19.1923 21.6745 19.1926C21.6767 19.1919 21.6778 19.1918 21.6778 19.1919ZM21.6577 19.1926C21.6554 19.1923 21.6543 19.192 21.6543 19.1919C21.6544 19.1918 21.6555 19.1919 21.6577 19.1926ZM21.6543 20.8544C21.6543 20.8543 21.6554 20.854 21.6577 20.8537C21.6555 20.8544 21.6544 20.8545 21.6543 20.8544ZM21.6745 20.8537C21.6768 20.854 21.6779 20.8543 21.6778 20.8544C21.6778 20.8545 21.6767 20.8544 21.6745 20.8537ZM20.2972 18.4899C20.5772 18.0699 21.0464 17.6931 21.6661 17.6931C22.2858 17.6931 22.755 18.0699 23.035 18.4899C23.3185 18.9151 23.4694 19.4594 23.4694 20.0231C23.4694 20.5869 23.3185 21.1312 23.035 21.5564C22.755 21.9764 22.2858 22.3532 21.6661 22.3532C21.0464 22.3532 20.5772 21.9764 20.2972 21.5564C20.0137 21.1312 19.8627 20.5869 19.8627 20.0231C19.8627 19.4594 20.0137 18.9151 20.2972 18.4899Z" />
<path fill-rule="evenodd" clip-rule="evenodd" d="M23.9859 15.6426C24.054 16.0511 23.778 16.4376 23.3694 16.5057L20.2094 17.0323C19.8008 17.1004 19.4144 16.8244 19.3463 16.4158C19.2782 16.0073 19.5542 15.6208 19.9628 15.5527L23.1228 15.0261C23.5314 14.958 23.9178 15.234 23.9859 15.6426Z" />
<path fill-rule="evenodd" clip-rule="evenodd" d="M28.8701 15.6442C28.9373 15.2355 29.3231 14.9586 29.7318 15.0258L32.9358 15.5525C33.3445 15.6197 33.6214 16.0055 33.5542 16.4142C33.487 16.8229 33.1012 17.0998 32.6925 17.0326L29.4885 16.5059C29.0798 16.4387 28.8029 16.0529 28.8701 15.6442Z" />
<path fill-rule="evenodd" clip-rule="evenodd" d="M35.2437 40.6567C35.3377 40.2533 35.7409 40.0024 36.1443 40.0964L42.4699 41.5695C47.8469 41.6164 52.1734 45.972 52.1734 51.3604V52.1104H0.726746V51.3604C0.726746 45.9707 5.05531 41.6143 10.4341 41.5694L16.6755 40.1825C17.0798 40.0926 17.4805 40.3476 17.5703 40.7519C17.6602 41.1563 17.4052 41.5569 17.0009 41.6467L10.6004 43.0691H10.5181C6.18167 43.0691 2.63738 46.3745 2.25999 50.6104H50.6401C50.2628 46.3745 46.7185 43.0691 42.3821 43.0691H42.2959L35.8041 41.5573C35.4006 41.4633 35.1498 41.0601 35.2437 40.6567Z" />
<path fill-rule="evenodd" clip-rule="evenodd" d="M37.3747 17.302C37.3747 16.8878 37.7105 16.552 38.1247 16.552C40.1558 16.552 41.552 18.4729 41.552 20.506C41.552 22.5476 40.1048 24.4599 38.1247 24.4599H37.95C37.5357 24.4599 37.1992 24.1241 37.1992 23.7099C37.1992 23.2957 37.535 22.9599 37.9492 22.9599H38.1242C39.0409 22.9599 40.052 21.9755 40.052 20.506C40.052 19.0279 39.0782 18.052 38.1247 18.052C37.7105 18.052 37.3747 17.7162 37.3747 17.302Z" />
<path fill-rule="evenodd" clip-rule="evenodd" d="M11.392 20.5498C11.392 18.5253 12.781 16.5958 14.7754 16.5958C15.1896 16.5958 15.5254 16.9316 15.5254 17.3458C15.5254 17.76 15.1896 18.0958 14.7754 18.0958C13.873 18.0958 12.892 19.063 12.892 20.5498C12.892 22.0365 13.873 23.0037 14.7754 23.0037C15.1896 23.0037 15.5254 23.3395 15.5254 23.7537C15.5254 24.168 15.1896 24.5037 14.7754 24.5037C12.781 24.5037 11.392 22.5742 11.392 20.5498Z" />
<path fill-rule="evenodd" clip-rule="evenodd" d="M14.7357 21.4248C15.1494 21.4029 15.5024 21.7205 15.5243 22.1341C15.7366 26.1466 17.0628 29.703 19.0473 32.2397C21.031 34.7752 23.6387 36.2585 26.45 36.2585C29.2614 36.2585 31.8691 34.7752 33.8528 32.2397C35.8373 29.703 37.1635 26.1466 37.3758 22.1341C37.3977 21.7205 37.7507 21.4029 38.1644 21.4248C38.578 21.4467 38.8956 21.7997 38.8737 22.2134C38.6471 26.496 37.2302 30.357 35.0342 33.1639C32.8374 35.972 29.8271 37.7585 26.45 37.7585C23.073 37.7585 20.0627 35.972 17.8659 33.1639C15.6699 30.357 14.253 26.496 14.0264 22.2134C14.0045 21.7997 14.3221 21.4467 14.7357 21.4248Z" />
<path fill-rule="evenodd" clip-rule="evenodd" d="M17.2823 3.6052C19.6412 1.61868 22.8794 0.663818 26.4501 0.663818C33.2813 0.663818 39.4474 5.0573 39.4014 12.4764C39.4014 13.9149 39.3185 16.1363 38.8363 17.583C38.7053 17.976 38.2806 18.1883 37.8876 18.0573C37.4946 17.9264 37.2823 17.5016 37.4133 17.1087C37.8085 15.9228 37.9014 13.9324 37.9014 12.4741V12.4693H37.9015C37.942 6.10846 32.6973 2.16382 26.4501 2.16382C23.13 2.16382 20.2675 3.05233 18.2485 4.75256C16.2473 6.43775 14.9987 8.98299 14.9987 12.4741C14.9987 13.8365 15.0901 15.8387 15.4912 17.1221C15.6148 17.5175 15.3944 17.9381 14.9991 18.0617C14.6037 18.1852 14.1831 17.9649 14.0595 17.5695C13.5828 16.0441 13.4987 13.8328 13.4987 12.4741C13.4987 8.59164 14.9054 5.60675 17.2823 3.6052Z" />
<path fill-rule="evenodd" clip-rule="evenodd" d="M25.6162 8.45709C25.6162 8.45709 25.6162 8.45708 25.6162 8.45709C25.3263 8.27765 24.9514 8.31611 24.7043 8.55108C24.4571 8.78615 24.3997 9.15844 24.5646 9.45708L26.331 12.6566C26.1946 12.6621 26.0482 12.6661 25.8931 12.6678C24.946 12.6783 23.7025 12.6038 22.4738 12.2761C21.4982 12.0173 20.4372 11.4768 19.596 10.9785C19.1811 10.7327 18.8307 10.504 18.5848 10.3372C18.462 10.2539 18.3657 10.1863 18.3008 10.1402C18.2684 10.1171 18.2439 10.0994 18.2279 10.0878L18.2105 10.075L18.2067 10.0723C18.2067 10.0723 18.2066 10.0722 18.2067 10.0723C18.0464 9.95358 17.8448 9.90322 17.6476 9.93308C17.4503 9.96295 17.2731 10.0702 17.1551 10.2311L17.1516 10.2358L17.1428 10.2479L17.1099 10.2933C17.0815 10.3325 17.0406 10.3892 16.9901 10.4601C16.8891 10.6018 16.7489 10.8007 16.5919 11.0307C16.2814 11.4854 15.8911 12.081 15.6092 12.5978C15.6049 12.6056 15.6008 12.6135 15.5968 12.6215C15.443 12.9291 15.2524 13.409 15.1103 13.8825C14.9913 14.2793 15.2165 14.6974 15.6132 14.8164C16.01 14.9354 16.4281 14.7103 16.5471 14.3136C16.6663 13.9163 16.8234 13.5251 16.9327 13.3038C17.1773 12.8574 17.5294 12.3177 17.8306 11.8766C17.8693 11.8199 17.907 11.7651 17.9433 11.7128C18.1854 11.8728 18.4877 12.0654 18.8315 12.269C19.7127 12.791 20.9125 13.4136 22.0873 13.7255C23.4919 14.1 24.8818 14.1791 25.9098 14.1677C26.4263 14.162 26.8578 14.1333 27.1623 14.1057C27.3147 14.0919 27.4356 14.0784 27.52 14.0681C27.5622 14.0629 27.5953 14.0586 27.6186 14.0554L27.6461 14.0515L27.6543 14.0504L27.6569 14.05L27.6582 14.0498C27.6584 14.0497 27.6586 14.0497 27.5473 13.308L27.6582 14.0498C27.9011 14.0133 28.111 13.8603 28.2198 13.6401C28.3285 13.42 28.3226 13.1605 28.2039 12.9455L27.0352 10.8286C28.1566 11.2849 29.6245 11.7328 31.0342 11.6877C32.2588 11.663 33.2985 11.3753 34.0309 11.0954C34.2425 11.0146 34.4295 10.934 34.5893 10.8597C34.7 11.025 34.8276 11.2175 34.961 11.4231C35.3657 12.0466 35.7904 12.7384 35.9865 13.164C36.0682 13.3702 36.2326 13.8234 36.3985 14.3625C36.5203 14.7584 36.94 14.9806 37.3359 14.8588C37.7318 14.7369 37.9539 14.3173 37.8321 13.9214C37.6514 13.334 37.4692 12.8316 37.3728 12.5906C37.3685 12.5799 37.3639 12.5693 37.3592 12.5588C37.1131 12.0173 36.6215 11.2262 36.2192 10.6064C36.0128 10.2884 35.8206 10.0016 35.6801 9.79434C35.6098 9.69061 35.5523 9.60658 35.5122 9.54827L35.4657 9.4808L35.4491 9.45687C35.4491 9.45683 35.4487 9.45631 34.833 9.88461L35.4491 9.45687C35.2192 9.12636 34.769 9.03582 34.4296 9.25236L34.4237 9.25596C34.416 9.26066 34.4025 9.26879 34.3835 9.27986C34.3454 9.30201 34.2853 9.3359 34.2048 9.37778C34.0437 9.46166 33.8026 9.5769 33.4955 9.69424C32.8792 9.92972 32.0115 10.1683 30.9999 10.1881L30.99 10.1884C29.8155 10.2269 28.488 9.81683 27.4065 9.35861C26.8755 9.13369 26.4236 8.90578 26.1052 8.73448C25.9463 8.64899 25.8215 8.57804 25.7375 8.52919C25.6956 8.50478 25.6639 8.48592 25.6434 8.47358L25.6211 8.46008L25.6162 8.45709Z" />
<path fill-rule="evenodd" clip-rule="evenodd" d="M26.4501 39.3385C26.2825 39.3385 26.1467 39.4743 26.1467 39.6419C26.1467 39.8094 26.2825 39.9452 26.4501 39.9452C26.6176 39.9452 26.7534 39.8094 26.7534 39.6419C26.7534 39.4743 26.6176 39.3385 26.4501 39.3385ZM24.6467 39.6419C24.6467 38.6459 25.4541 37.8385 26.4501 37.8385C27.4461 37.8385 28.2534 38.6459 28.2534 39.6419C28.2534 40.6378 27.446 41.4452 26.4501 41.4452C25.4541 41.4452 24.6467 40.6378 24.6467 39.6419Z" />
<path fill-rule="evenodd" clip-rule="evenodd" d="M29.1712 37.8863C29.5591 37.7409 29.9914 37.9374 30.1368 38.3252C30.3082 38.7822 30.3601 39.2273 30.3601 39.6419C30.3601 41.8117 28.576 43.5959 26.4062 43.5959C24.2364 43.5959 22.4522 41.8117 22.4522 39.6419C22.4522 39.2491 22.4985 38.7364 22.6884 38.2931C22.8516 37.9124 23.2925 37.7361 23.6732 37.8992C24.0539 38.0624 24.2303 38.5033 24.0671 38.884C23.9937 39.0552 23.9522 39.3325 23.9522 39.6419C23.9522 40.9833 25.0648 42.0959 26.4062 42.0959C27.7476 42.0959 28.8601 40.9833 28.8601 39.6419C28.8601 39.3543 28.8243 39.0972 28.7323 38.8519C28.5869 38.4641 28.7834 38.0318 29.1712 37.8863Z" />
<path fill-rule="evenodd" clip-rule="evenodd" d="M31.2602 37.3064C31.6532 37.1754 32.0779 37.3878 32.2089 37.7807C32.4097 38.383 32.5107 38.9897 32.5107 39.6418C32.5107 42.9967 29.8049 45.7025 26.4501 45.7025C23.0952 45.7025 20.3894 42.9967 20.3894 39.6418C20.3894 39.0345 20.4902 38.4403 20.6353 37.9083C20.7443 37.5087 21.1566 37.2731 21.5562 37.3821C21.9558 37.4911 22.1914 37.9034 22.0824 38.303C21.9642 38.7366 21.8894 39.1959 21.8894 39.6418C21.8894 42.1682 23.9237 44.2025 26.4501 44.2025C28.9765 44.2025 31.0107 42.1682 31.0107 39.6418C31.0107 39.1528 30.9363 38.7062 30.7859 38.2551C30.6549 37.8621 30.8673 37.4374 31.2602 37.3064Z" />
<path fill-rule="evenodd" clip-rule="evenodd" d="M19.7748 36.3047C20.1634 36.4479 20.3624 36.8791 20.2192 37.2678C19.941 38.0229 19.7827 38.857 19.7827 39.6858C19.7827 43.3562 22.7415 46.3532 26.4501 46.3532C30.1205 46.3532 33.1175 43.3943 33.1175 39.6858C33.1175 38.8153 32.9599 38.0251 32.6809 37.2678C32.5377 36.8791 32.7367 36.4479 33.1254 36.3047C33.5141 36.1616 33.9452 36.3606 34.0884 36.7492C34.4239 37.6597 34.6175 38.6251 34.6175 39.6858C34.6175 44.2285 30.9431 47.8532 26.4501 47.8532C21.9073 47.8532 18.2827 44.1789 18.2827 39.6858C18.2827 38.6712 18.4755 37.6619 18.8117 36.7492C18.9549 36.3606 19.3861 36.1616 19.7748 36.3047Z" />
</svg>
