<svg   viewBox="0 0 49 64"  xmlns="http://www.w3.org/2000/svg">
<path d="M5.6889 1.13145C5.82955 0.744968 5.78308 0.177474 6.25884 0.0221473C6.84713 -0.124618 7.17001 0.491797 7.47333 0.877056C8.3527 2.08176 8.39428 3.73287 7.77053 5.06109C10.6508 6.99473 13.3709 9.1742 15.8145 11.6399C18.3438 8.20065 20.8718 4.759 23.3986 1.31735C23.8536 1.75765 24.3587 2.20773 24.5299 2.84371C24.9225 4.20129 24.5116 5.63103 23.9196 6.86631C24.3465 7.34819 25.0326 7.73834 25.0436 8.45871C25.0937 9.14362 24.5214 9.61082 24.0603 10.0169C23.6249 10.3936 22.9962 10.3141 22.5217 10.0609C22.4434 10.248 22.3676 10.4352 22.2905 10.6211C22.7015 11.0662 23.3216 11.4478 23.3607 12.1132C23.4341 12.8348 22.8177 13.3387 22.3235 13.7557C21.9114 14.0872 21.3512 13.9869 20.895 13.8144C20.6101 14.4957 20.3043 15.1671 20.012 15.8447C21.2522 17.0971 22.5205 18.3214 23.7386 19.5921C24.1153 19.9272 23.8817 20.617 23.3864 20.6659C22.984 20.743 22.7406 20.3504 22.485 20.1143C19.8848 17.4958 17.2663 14.8956 14.6612 12.282C12.4291 10.0817 9.98791 8.09792 7.39016 6.34529C7.05749 6.10435 6.68935 5.90377 6.40316 5.60413C6.10963 5.21275 6.48878 4.81282 6.6331 4.44957C7.00123 3.70229 7.00735 2.81925 6.71015 2.04751C6.39093 2.56119 6.07906 3.11278 5.57761 3.47236C5.08105 3.76589 4.43161 3.14458 4.72514 2.63947C5.0786 2.16003 5.52135 1.72218 5.6889 1.13145ZM16.7257 12.5608C17.5035 13.3301 18.274 14.1067 19.0482 14.8797C19.3784 14.1129 19.7172 13.3497 20.0475 12.584C20.1563 12.3138 20.3703 12.0484 20.6908 12.0594C21.0932 12.0961 21.3268 12.4764 21.6044 12.7235C21.7732 12.5535 21.942 12.3835 22.112 12.2135C21.734 11.8037 21.2913 11.4527 20.9525 11.0088C20.785 10.4829 21.2228 10.0083 21.3757 9.52643C21.6191 9.09837 21.6729 8.38289 22.2746 8.32051C22.7235 8.31317 22.9779 8.76081 23.2849 9.02254C23.4524 8.85498 23.6187 8.68742 23.7863 8.51987C23.3264 8.06 22.8641 7.60258 22.4092 7.13783C22.9192 5.9796 23.5576 4.79325 23.3937 3.48092C21.1665 6.50429 18.9382 9.52643 16.7257 12.5608Z" />
<path d="M2.62883 2.28482C3.00919 2.04877 3.38956 2.36065 3.63417 2.63828C4.11727 3.1703 4.6921 3.6216 5.12628 4.19521C5.41125 4.75292 4.63951 5.37056 4.16864 4.94739C3.58647 4.41903 3.04711 3.8442 2.49062 3.28771C2.19342 3.01987 2.25702 2.45482 2.62883 2.28482Z" />
<path d="M2.70342 4.65992C3.20486 4.31991 3.89466 5.01093 3.55221 5.51115C3.1963 6.00404 2.65572 6.31347 2.14571 6.6229C2.95414 6.95557 3.89711 6.9091 4.66763 6.49326C4.9367 6.37707 5.21066 6.12879 5.52254 6.24131C5.79527 6.31347 5.92369 6.58988 6.08636 6.79413C7.18465 8.411 8.32453 10.0034 9.58305 11.5016C12.056 14.47 14.9449 17.0543 17.6123 19.8404C18.0221 20.2794 17.4619 21.0402 16.9176 20.8102C16.5287 20.5913 16.2572 20.2195 15.9392 19.9162C15.1907 20.2146 14.4801 20.6194 13.7047 20.8457C13.1531 20.8775 12.8241 20.1168 13.2534 19.7535C13.7867 19.4111 14.4031 19.2288 14.9693 18.9475C14.1952 18.1795 13.4271 17.4065 12.6553 16.636C10.8868 17.9459 9.11217 19.2447 7.3461 20.5558C7.10883 20.7295 6.8104 20.9411 6.50464 20.8029C6.05945 20.6451 5.96528 19.9676 6.36399 19.7021C8.15208 18.369 9.95485 17.0555 11.7478 15.726C9.25405 13.3081 7.10516 10.5611 5.1544 7.69429C4.42302 8.0025 3.62192 8.19085 2.8245 8.09667C1.86563 8.0025 0.977699 7.50961 0.300131 6.83938C0.070199 6.62413 0.021277 6.24743 0.220633 5.99548C0.421213 5.7044 0.819925 5.75576 1.11957 5.64814C1.74455 5.49892 2.21175 5.04028 2.70342 4.65992Z" />
<path d="M34.0648 14.9971C34.3705 14.8283 34.6641 14.6253 34.998 14.514C35.3832 14.4529 35.7037 14.7354 36.0217 14.9066C39.8938 17.1913 43.7721 19.4661 47.6455 21.7471C47.9769 21.9489 48.3292 22.1177 48.6361 22.3562C48.8649 22.5482 48.8612 22.8674 48.8636 23.1401C48.8538 25.5862 48.8685 28.0336 48.8575 30.4796C48.8942 30.9102 48.5138 31.2942 48.0821 31.2526C46.0482 31.2575 44.0143 31.2538 41.9803 31.2526C41.9816 41.9555 41.9791 52.6571 41.9816 63.36C41.4923 63.3588 41.0031 63.36 40.5139 63.3588C40.5127 52.4345 40.5102 41.5103 40.5151 30.586C40.4686 30.1763 40.8099 29.7874 41.2233 29.7947C43.2792 29.7739 45.3364 29.7947 47.3923 29.7862C47.3935 27.7278 47.3923 25.6694 47.3923 23.6098C45.3339 23.611 43.2755 23.6098 41.2172 23.611C41.2159 24.1198 41.2171 24.6298 41.2147 25.1398C40.7255 25.1386 40.2363 25.1398 39.747 25.1386C39.7642 24.3473 39.7201 23.5548 39.7654 22.7647C39.8045 22.3574 40.235 22.1018 40.6203 22.1434C42.2262 22.1434 43.832 22.1348 45.4367 22.1507C42.2482 20.2709 39.0499 18.4033 35.8663 16.5149C35.8602 19.1334 35.8724 21.752 35.8614 24.3705C35.9189 24.8854 35.3551 25.2878 34.8806 25.1056C34.5772 24.9967 34.3828 24.6849 34.4011 24.3669C34.3926 21.7422 34.3999 19.1175 34.3974 16.4941C29.7217 19.1432 25.0387 21.7826 20.3618 24.4317C23.812 24.439 27.2622 24.4366 30.7112 24.4317C31.1221 24.4415 31.6419 24.3595 31.9049 24.7582C33.1084 26.4069 34.2751 28.0837 35.4737 29.736C35.6988 30.0186 35.9104 30.3427 35.8663 30.7243C35.8639 41.6032 35.8651 52.481 35.8663 63.36C35.3771 63.3588 34.8879 63.36 34.3987 63.3588C34.395 52.6571 34.4011 41.9555 34.395 31.2538C24.9482 31.2551 15.5014 31.2538 6.05459 31.2551C6.05582 32.9147 6.0497 34.5744 6.05581 36.2341C6.04358 36.5056 6.13531 36.8077 6.40683 36.9214C6.95598 37.2027 7.48311 37.566 7.82067 38.0943C8.53615 39.1217 8.45665 40.5918 7.69592 41.5727C7.06727 42.4215 5.96898 42.8887 4.92083 42.7272C3.39936 42.5535 2.1543 41.0504 2.31085 39.5204C2.40747 39.0177 3.08381 38.7841 3.47152 39.118C3.80541 39.3504 3.72836 39.8041 3.83599 40.1478C4.04757 41.0492 5.19357 41.5849 6.01056 41.1189C6.79943 40.7385 7.09418 39.639 6.60863 38.9125C6.27596 38.3634 5.56048 38.2802 5.15443 37.8094C4.77406 37.3752 4.57715 36.7967 4.58571 36.2218C4.58449 34.5671 4.58571 32.9111 4.58694 31.2551C3.26605 31.2428 1.94394 31.2758 0.62427 31.2416C0.0641154 31.2037 -0.209847 30.4356 0.188865 30.043C1.68832 28.2794 3.20245 26.5268 4.70557 24.7656C4.89148 24.51 5.21069 24.4231 5.51401 24.4354C9.38739 24.4354 13.2608 24.4366 17.1342 24.4354C17.4778 24.4427 17.753 24.2066 18.0441 24.0574C23.3815 21.0316 28.7262 18.0205 34.0648 14.9971ZM5.41372 26.1868C4.3937 27.3902 3.36267 28.5851 2.33531 29.7837C12.7911 29.7898 23.2457 29.7862 33.7015 29.7862C32.7843 28.4897 31.8523 27.2043 30.9374 25.9079C22.5779 25.8993 14.2172 25.903 5.85768 25.9055C5.64976 25.8651 5.53847 26.0632 5.41372 26.1868Z" />
<path d="M13.7585 45.0742C13.7598 43.2898 13.7573 41.5066 13.7585 39.7222C14.2478 39.7234 14.737 39.7222 15.2262 39.7246C15.2287 41.5078 15.2262 43.2922 15.2274 45.0754C17.0314 45.0742 18.8342 45.0742 20.6382 45.0754C20.6394 43.2922 20.637 41.5078 20.6394 39.7246C21.1274 39.7222 21.6166 39.7234 22.1058 39.7222C22.1071 41.5066 22.1058 43.2898 22.1071 45.0742C23.9111 45.0742 25.7138 45.0767 27.5178 45.073C27.5178 43.2898 27.519 41.5066 27.5178 39.7234C28.007 39.7234 28.4962 39.7222 28.9855 39.7246C28.9855 41.5078 28.9867 43.291 28.9855 45.0754C29.7499 45.0742 30.5143 45.0742 31.2787 45.0754C31.2787 45.5647 31.2787 46.0539 31.2787 46.5443C24.6534 46.5394 18.0294 46.5455 11.4042 46.5406C11.4054 52.1471 11.403 57.7535 11.4054 63.36C10.9162 63.3587 10.427 63.36 9.93776 63.3587C9.93409 57.5737 9.9402 51.7887 9.93409 46.0037C9.93164 45.7444 9.94999 45.4497 10.1652 45.2723C10.3927 45.0522 10.7266 45.0767 11.0177 45.0718C11.9313 45.0767 12.8449 45.0754 13.7585 45.0742Z" />
<path d="M15.2935 50.4006C15.2727 50.0019 15.6408 49.6557 16.0322 49.6692C17.5463 49.6472 19.0617 49.668 20.577 49.6619C20.577 50.1499 20.577 50.6403 20.5782 51.1295C19.3038 51.1295 18.0294 51.1283 16.7562 51.1295C16.755 52.4039 16.755 53.6771 16.755 54.9515C16.2658 54.9503 15.7766 54.9503 15.2886 54.9503C15.2935 53.4337 15.2776 51.9172 15.2935 50.4006Z" />
<path d="M23.6995 50.4116C23.6689 49.9896 24.0591 49.6313 24.4737 49.6655C25.978 49.6509 27.4824 49.6668 28.9867 49.6594C28.9855 50.1486 28.9855 50.6391 28.9855 51.1283C27.7111 51.1295 26.4379 51.1295 25.1635 51.1283C25.1647 52.4027 25.1635 53.6759 25.1647 54.9491C24.6743 54.9503 24.185 54.9503 23.6958 54.9515C23.6995 53.4374 23.6885 51.9245 23.6995 50.4116Z" />
<path d="M15.2922 58.8372C15.2604 58.4226 15.6212 58.0679 16.031 58.0789C17.5463 58.0532 19.0629 58.0777 20.5783 58.0691C20.577 58.5583 20.5783 59.0476 20.5758 59.538C19.3026 59.5368 18.0282 59.5368 16.755 59.5368C16.7562 60.8112 16.7562 62.0856 16.755 63.3588C16.2658 63.36 15.7754 63.3588 15.2861 63.36C15.2935 61.852 15.2788 60.344 15.2922 58.8372Z" />
<path d="M23.6994 58.8458C23.6664 58.4153 24.0505 58.0447 24.4773 58.0741C25.9792 58.0606 27.4835 58.0728 28.9854 58.0704C28.9854 58.5596 28.9854 59.0488 28.9867 59.5393C27.7123 59.5356 26.4378 59.538 25.1647 59.538C25.1634 60.8112 25.1622 62.0856 25.1659 63.3601C24.6754 63.3588 24.1862 63.3588 23.697 63.3601C23.6994 61.8545 23.6884 60.3501 23.6994 58.8458Z" />
</svg>
