<svg   viewBox="0 0 45 64"  xmlns="http://www.w3.org/2000/svg">
<path fill-rule="evenodd" clip-rule="evenodd" d="M10.7709 16.9878C10.9493 17.3617 10.7909 17.8093 10.417 17.9877L6.41899 19.8955C5.43109 20.3649 4.82073 21.3496 4.82195 22.3612L4.85228 47.4286C4.85408 48.9125 6.09059 50.146 7.57443 50.1442L30.2856 50.1167C31.7694 50.1149 33.0029 48.8785 33.0012 47.3946C33.0012 47.3946 33.0012 47.3947 33.0012 47.3946L32.9708 24.3273C32.9703 23.913 33.3056 23.5768 33.7199 23.5763C34.1341 23.5757 34.4703 23.9111 34.4708 24.3253L34.5012 47.3927C34.504 49.7049 32.5997 51.6139 30.2874 51.6167L7.57624 51.6442C5.26398 51.647 3.35508 49.7427 3.35229 47.4304L3.32195 22.3631C3.32001 20.7569 4.27722 19.2527 5.77469 18.5409C5.77487 18.5408 5.77452 18.541 5.77469 18.5409L9.77105 16.6339C10.1449 16.4555 10.5925 16.614 10.7709 16.9878Z" />
<path fill-rule="evenodd" clip-rule="evenodd" d="M3.3897 24.3271C3.3892 23.9129 3.72458 23.5767 4.13879 23.5762L33.7222 23.5404C34.1364 23.5399 34.4726 23.8753 34.4731 24.2895C34.4736 24.7037 34.1383 25.0399 33.724 25.0404L4.14061 25.0762C3.7264 25.0767 3.3902 24.7414 3.3897 24.3271Z" />
<path fill-rule="evenodd" clip-rule="evenodd" d="M3.4024 34.8643C3.4019 34.45 3.73728 34.1139 4.15149 34.1134L33.7349 34.0776C34.1491 34.0771 34.4853 34.4124 34.4858 34.8266C34.4863 35.2409 34.151 35.5771 33.7367 35.5776L4.1533 35.6133C3.73909 35.6139 3.4029 35.2785 3.4024 34.8643Z" />
<path fill-rule="evenodd" clip-rule="evenodd" d="M24.5823 42.7882C24.125 42.7888 23.7619 43.1283 23.7625 43.61L23.7633 44.33C23.7639 44.7872 24.1034 45.1504 24.5851 45.1498L29.0357 45.1444C29.4724 45.1439 29.8561 44.7592 29.8555 44.3226L29.8547 43.6026C29.8541 43.1454 29.5146 42.7822 29.0329 42.7828L24.5823 42.7882ZM22.2625 43.6118C22.2608 42.261 23.336 41.2897 24.5804 41.2882L29.031 41.2828C30.3819 41.2812 31.3532 42.3564 31.3547 43.6008L31.3555 44.3208C31.3571 45.5858 30.3026 46.6429 29.0375 46.6444L24.5869 46.6498C23.2361 46.6514 22.2648 45.5762 22.2633 44.3318L22.2625 43.6118Z" />
<path fill-rule="evenodd" clip-rule="evenodd" d="M6.55444 43.6304C6.55294 42.386 7.52157 41.3084 8.87244 41.3068L13.323 41.3014C14.5675 41.2999 15.645 42.2685 15.6467 43.6194L15.6475 44.3393C15.649 45.5837 14.6804 46.6613 13.3295 46.6629L8.87892 46.6683C7.61386 46.6699 6.55685 45.6154 6.55532 44.3503L6.55444 43.6304ZM8.87425 42.8068C8.39251 42.8073 8.05389 43.1713 8.05444 43.6286L8.05531 44.3485C8.05584 44.7851 8.44048 45.1689 8.87711 45.1683L13.3277 45.1629C13.8095 45.1624 14.1481 44.7984 14.1475 44.3411L14.1467 43.6212C14.1461 43.1394 13.7821 42.8008 13.3249 42.8014L8.87425 42.8068Z" />
<path fill-rule="evenodd" clip-rule="evenodd" d="M5.888 54.6768C5.888 54.2625 6.22379 53.9268 6.638 53.9268H31.1818C31.596 53.9268 31.9318 54.2625 31.9318 54.6768C31.9318 55.091 31.596 55.4268 31.1818 55.4268H6.638C6.22379 55.4268 5.888 55.091 5.888 54.6768Z" />
<path fill-rule="evenodd" clip-rule="evenodd" d="M28.3228 50.6632C28.6593 50.4217 29.1279 50.4987 29.3694 50.8352L37.3543 61.9618C37.5958 62.2983 37.5188 62.7669 37.1823 63.0084C36.8457 63.2499 36.3772 63.1728 36.1357 62.8363L28.1507 51.7098C27.9092 51.3733 27.9863 50.9047 28.3228 50.6632Z" />
<path fill-rule="evenodd" clip-rule="evenodd" d="M9.49684 50.6632C9.83337 50.9047 9.91039 51.3733 9.66889 51.7098L1.68397 62.8363C1.44247 63.1728 0.973882 63.2499 0.637358 63.0084C0.300834 62.7669 0.223807 62.2983 0.465312 61.9618L8.45023 50.8352C8.69173 50.4987 9.16032 50.4217 9.49684 50.6632Z" />
<path fill-rule="evenodd" clip-rule="evenodd" d="M2.28815 59.7158C2.28815 59.3016 2.62393 58.9658 3.03815 58.9658H34.8469C35.2611 58.9658 35.5969 59.3016 35.5969 59.7158C35.5969 60.13 35.2611 60.4658 34.8469 60.4658H3.03815C2.62393 60.4658 2.28815 60.13 2.28815 59.7158Z" />
<path fill-rule="evenodd" clip-rule="evenodd" d="M33.7231 24.1235C32.8081 22.9435 31.605 21.5519 30.5904 20.4358C30.2496 20.0666 29.6533 19.8395 29.1422 19.8679L27.0124 20.0666C26.8988 20.095 26.6716 19.9815 26.5864 19.8963L24.9394 17.6813C24.627 17.2837 24.0591 16.9714 23.5479 16.9714H21.4465C21.3613 16.9714 21.2477 16.8862 21.2477 16.8294L20.9922 15.8923C20.8218 15.3243 20.2822 14.9268 19.6859 14.9268H13.2113C12.1017 14.9268 10.8769 15.2926 9.77521 15.8919V17.2011C10.8468 16.4965 12.1367 16.0342 13.2397 16.0342H19.7143C19.7995 16.0342 19.8847 16.1194 19.9131 16.1762L20.1686 17.1133C20.197 17.2269 20.2538 17.3121 20.3106 17.3973L18.266 19.3567C18.1525 19.4703 18.0956 19.6123 18.0956 19.7543V23.0484C18.0956 23.3607 18.3512 23.6163 18.6636 23.6163C18.976 23.6163 19.2315 23.3607 19.2315 23.0484V20.0099L21.2761 18.0504C21.3045 18.0504 21.34 18.0575 21.3755 18.0646C21.411 18.0717 21.4465 18.0788 21.4749 18.0788H23.5763C23.7183 18.0788 23.9739 18.2208 24.0591 18.3344L25.7061 20.5494C25.7061 20.5494 25.7061 20.5778 25.7345 20.5778L24.5702 21.6853L22.4688 20.5494C22.1849 20.4074 21.8441 20.4926 21.7021 20.7766C21.5601 21.0606 21.6453 21.4013 21.9293 21.5433L24.3998 22.878C24.485 22.9348 24.5702 22.9348 24.6838 22.9348C24.8258 22.9348 24.9678 22.878 25.0814 22.7928L26.7852 21.1741C26.9272 21.2025 27.0692 21.2025 27.1827 21.2025L29.3409 20.9754C29.4261 20.947 29.6817 21.0605 29.7953 21.1457C30.8176 22.2702 31.6779 23.277 32.3657 24.1235H33.7231Z" />
<path fill-rule="evenodd" clip-rule="evenodd" d="M9.65574 15.6723C10.7848 15.0581 12.0506 14.6768 13.2113 14.6768H19.6859C20.3911 14.6768 21.0291 15.1453 21.2316 15.8204L21.2334 15.8265L21.4774 16.7214H23.5479C24.146 16.7214 24.7829 17.0775 25.136 17.5268L25.1401 17.5321L26.7725 19.7276C26.7798 19.7335 26.7911 19.7417 26.8066 19.7516C26.8309 19.7669 26.8594 19.7822 26.8884 19.7948C26.918 19.8077 26.943 19.8155 26.9605 19.8192C26.963 19.8197 26.9651 19.8201 26.9668 19.8203L26.9702 19.8195L29.1283 19.6181C29.7087 19.5858 30.3793 19.8385 30.7741 20.2662L30.7754 20.2676C31.7924 21.3864 33.0002 22.7832 33.9207 23.9703L34.2333 24.3735H32.2467L32.1717 24.2812C31.491 23.4434 30.6399 22.4472 29.6286 21.334C29.5905 21.3088 29.5287 21.2757 29.4646 21.2501C29.4284 21.2356 29.3993 21.2267 29.3802 21.2226C29.3802 21.2226 29.3802 21.2226 29.3802 21.2226L29.3671 21.224L27.1959 21.4525L27.1762 21.4525C27.0951 21.4525 26.9864 21.4526 26.8688 21.4396L25.243 22.9841L25.2314 22.9928C25.0837 23.1035 24.8903 23.1848 24.6838 23.1848C24.6785 23.1848 24.6731 23.1848 24.6675 23.1848C24.5672 23.1851 24.4182 23.1856 24.2723 23.0932L21.8136 21.765C21.3901 21.5505 21.2854 21.0509 21.4785 20.6648C21.6919 20.238 22.1934 20.1322 22.5806 20.3258L22.5878 20.3294L24.5294 21.379L25.3975 20.5533L23.8591 18.4844C23.859 18.4844 23.8591 18.4845 23.8591 18.4844C23.8561 18.4806 23.8432 18.4662 23.8155 18.4449C23.789 18.4246 23.7561 18.4033 23.7205 18.3842C23.6847 18.3649 23.65 18.3498 23.6206 18.34C23.5934 18.3309 23.5791 18.3292 23.5766 18.3289C23.5761 18.3289 23.5763 18.3289 23.5766 18.3289L21.4749 18.3288C21.4341 18.3288 21.3913 18.3222 21.36 18.3164L19.4815 20.1165V23.0484C19.4815 23.4988 19.114 23.8663 18.6636 23.8663C18.2132 23.8663 17.8456 23.4988 17.8456 23.0484V19.7543C17.8456 19.5439 17.9303 19.3389 18.0893 19.1799L18.093 19.1762L19.9936 17.3549C19.9675 17.3025 19.9437 17.2433 19.9268 17.1768L19.6834 16.2842H13.2397C12.1983 16.2842 10.9555 16.7242 9.91256 17.41L9.52521 17.6647V15.7433L9.65574 15.6723ZM10.0252 16.0419V16.7531C11.0425 16.164 12.2087 15.7842 13.2397 15.7842H19.7143C19.8367 15.7842 19.9335 15.8426 19.9912 15.8887C20.0508 15.9364 20.1041 15.9993 20.1367 16.0644L20.1478 16.0866L20.4112 17.0527C20.4277 17.1188 20.46 17.1706 20.5186 17.2586L20.6348 17.4329L18.4412 19.5352C18.3741 19.603 18.3456 19.6813 18.3456 19.7543V23.0484C18.3456 23.2227 18.4893 23.3663 18.6636 23.3663C18.8379 23.3663 18.9815 23.2227 18.9815 23.0484V19.9032L21.1757 17.8004H21.2761C21.3305 17.8004 21.3885 17.8122 21.4182 17.8182C21.4205 17.8187 21.4226 17.8191 21.4246 17.8195C21.4434 17.8233 21.456 17.8257 21.4669 17.8275C21.4728 17.8284 21.476 17.8287 21.4771 17.8288H23.5763C23.7105 17.8288 23.8548 17.8886 23.9575 17.9439C24.0627 18.0006 24.1847 18.0853 24.2591 18.1844L24.2597 18.1852L25.8528 20.3278H26.3601L24.611 21.9915L22.3538 20.7714C22.1742 20.6834 21.9959 20.748 21.9257 20.8884C21.8354 21.0691 21.8999 21.2491 22.0411 21.3197L22.0482 21.3232L24.5289 22.6635L24.5385 22.67C24.5458 22.6748 24.5526 22.678 24.5692 22.6806C24.5928 22.6842 24.6222 22.6848 24.6838 22.6848C24.7578 22.6848 24.8439 22.6552 24.9208 22.6005L26.707 20.9036L26.8342 20.929C26.9442 20.951 27.0577 20.9525 27.1697 20.9525L29.2979 20.7285C29.3737 20.7127 29.4451 20.7253 29.4837 20.7334C29.54 20.7454 29.5978 20.7648 29.6503 20.7858C29.7532 20.827 29.8663 20.8865 29.9453 20.9457L29.9643 20.96L29.9803 20.9776C30.9686 22.0647 31.8065 23.0427 32.4845 23.8735H33.2084C32.349 22.7956 31.3043 21.5928 30.4062 20.6048C30.1203 20.2956 29.6012 20.0943 29.1605 20.1172L27.0495 20.3143C26.9777 20.3275 26.9095 20.3192 26.8592 20.3088C26.7995 20.2965 26.7411 20.2759 26.6891 20.2533C26.59 20.2102 26.4817 20.1451 26.4096 20.073L26.3967 20.0601L24.7408 17.8332C24.4687 17.4887 23.9711 17.2214 23.5479 17.2214H21.4465C21.3322 17.2214 21.2316 17.17 21.1681 17.1238C21.1334 17.0986 21.097 17.0658 21.0668 17.0255C21.0452 16.9967 21.0126 16.9453 21.0016 16.8768L20.7518 15.9612C20.6126 15.502 20.1723 15.1768 19.6859 15.1768H13.2113C12.1956 15.1768 11.0643 15.4994 10.0252 16.0419Z" />
<path d="M26.36 3.67016L25.4177 9.46755C25.3534 9.84705 25.6185 10.2286 25.998 10.2929C26.0754 10.3127 26.1802 10.2901 26.2501 10.275C26.5296 10.2147 26.7714 9.97972 26.8158 9.67762L27.7582 3.88022C27.8225 3.50072 27.5573 3.11921 27.1778 3.05488C26.8058 3.02549 26.4244 3.29065 26.36 3.67016Z" />
<path d="M31.4102 14.0241C31.5952 14.2035 31.8274 14.2631 32.0719 14.2103C32.2117 14.1801 32.3439 14.115 32.4336 14.0225L39.0428 7.03847C39.312 6.76099 39.2838 6.29176 39.0063 6.0226C38.7289 5.75343 38.2596 5.7816 37.9905 6.05907L31.3813 13.0431C31.1046 13.2857 31.0978 13.7624 31.4102 14.0241Z" />
<path d="M35.0168 18.8757C35.1272 19.2175 35.5019 19.4291 35.8513 19.3537C35.8862 19.3461 35.8862 19.3461 35.9211 19.3386L43.3237 17.046C43.7004 16.9282 43.9045 16.5185 43.7866 16.1418C43.6687 15.765 43.294 15.5534 42.8823 15.6788L35.4798 17.9714C35.1455 18.1167 34.9339 18.4914 35.0168 18.8757Z" />
</svg>
