<svg   viewBox="0 0 58 61"  xmlns="http://www.w3.org/2000/svg">
<path fill-rule="evenodd" clip-rule="evenodd" d="M39.1471 20.958C39.1478 20.9579 39.1486 20.9579 39.1493 20.9578L52.4936 19.9214C53.6951 19.777 54.502 20.7682 54.4631 21.7979C54.4627 21.8093 54.462 21.8207 54.4611 21.832L53.3167 35.5284C53.2822 35.9412 52.9196 36.2478 52.5068 36.2134C52.094 36.1789 51.7874 35.8163 51.8219 35.4035L52.9645 21.728C52.9659 21.6052 52.9206 21.5178 52.8736 21.4706C52.833 21.4298 52.773 21.3975 52.6668 21.4115C52.6537 21.4132 52.6405 21.4145 52.6273 21.4156L39.2611 22.4536L39.2568 22.454C38.1622 22.5326 37.0962 22.7561 36.0058 23.138L23.3691 27.5642C23.2797 27.602 23.2091 27.676 23.172 27.767C23.1345 27.859 23.1431 27.9357 23.1664 27.9847L27.0232 35.1089C27.2204 35.4732 27.0849 35.9283 26.7207 36.1255C26.3564 36.3227 25.9013 36.1873 25.7041 35.823L21.8416 28.6884L21.8337 28.6733C21.3415 27.7126 21.8575 26.5441 22.8322 26.1634C22.8405 26.1602 22.8488 26.1571 22.8572 26.1542L35.5099 21.7223C36.7193 21.2987 37.9151 21.0467 39.1471 20.958Z" />
<path fill-rule="evenodd" clip-rule="evenodd" d="M22.1801 9.5171C22.1029 9.11151 22.3659 8.70712 22.7676 8.61386L45.5772 3.31783C45.9789 3.22458 46.3671 3.47777 46.4443 3.88336L46.7844 5.67043C46.8516 6.02325 46.6608 6.38389 46.33 6.52934L42.4047 8.25543L42.5988 9.27515L41.1443 9.61286L40.8344 7.98494C40.7673 7.63212 40.958 7.27148 41.2888 7.12603L45.2142 5.39994L45.1296 4.95545L23.7744 9.91377L23.859 10.3583L28.0814 10.1926C28.4372 10.1786 28.7433 10.4239 28.8105 10.7767L29.1204 12.4046L27.6659 12.7423L27.4718 11.7226L23.2494 11.8883C22.8936 11.9022 22.5875 11.657 22.5203 11.3042L22.1801 9.5171Z" />
<path fill-rule="evenodd" clip-rule="evenodd" d="M31.597 4.22842C31.9981 4.13075 32.3831 4.3812 32.4569 4.78782L32.6679 5.95033L35.4169 5.28093L35.2059 4.11842C35.1321 3.71181 35.3974 3.303 35.7985 3.20533C36.1996 3.10765 36.5846 3.35811 36.6584 3.76472L37.003 5.66348C37.0768 6.0701 36.8115 6.47891 36.4104 6.57658L32.2089 7.59968C31.8078 7.69735 31.4228 7.4469 31.349 7.04028L31.0044 5.14152C30.9306 4.7349 31.1959 4.32609 31.597 4.22842Z" />
<path fill-rule="evenodd" clip-rule="evenodd" d="M37.4168 21.6372C37.8222 21.552 38.2199 21.8115 38.3051 22.2169L39.3861 27.359C39.4713 27.7643 39.2118 28.162 38.8065 28.2472C38.4011 28.3324 38.0034 28.0729 37.9182 27.6675L36.8372 22.5255C36.7519 22.1201 37.0115 21.7224 37.4168 21.6372Z" />
<path d="M43.3308 27.0023C43.9304 26.8544 44.2968 26.067 44.1493 25.2435C44.0017 24.4201 43.3961 23.8724 42.7966 24.0203C42.197 24.1682 41.8306 24.9556 41.9781 25.7791C42.1257 26.6025 42.7313 27.1502 43.3308 27.0023Z" />
<path d="M34.0751 28.9486C34.6746 28.8007 35.0411 28.0132 34.8935 27.1898C34.746 26.3663 34.1404 25.8187 33.5408 25.9666C32.9413 26.1145 32.5749 26.9019 32.7224 27.7254C32.8699 28.5488 33.4756 29.0965 34.0751 28.9486Z" />
<path fill-rule="evenodd" clip-rule="evenodd" d="M39.0189 17.5464L46.6444 15.9434L46.9509 17.4013L39.3254 19.0043L39.0189 17.5464Z" />
<path fill-rule="evenodd" clip-rule="evenodd" d="M45.3451 17.2791C45.2729 16.8723 45.539 16.4616 45.9394 16.3619L52.2428 14.7916C52.6432 14.6919 53.0263 14.9408 53.0984 15.3476L53.6368 18.382L52.1868 18.7432L51.7792 16.4454L46.9257 17.6545L47.1703 19.0332L45.7204 19.3944L45.3451 17.2791Z" />
<path fill-rule="evenodd" clip-rule="evenodd" d="M32.8654 19.0264L39.8171 17.3885C40.218 17.294 40.6047 17.5462 40.6808 17.9518L40.9796 19.5446L39.5277 19.8867L39.3666 19.0282L33.1409 20.495L32.8654 19.0264Z" />
<path fill-rule="evenodd" clip-rule="evenodd" d="M26.6949 20.3232L33.6465 18.6851C34.0474 18.5906 34.4341 18.8428 34.5102 19.2484L34.809 20.8414L33.357 21.1835L33.196 20.3248L26.9704 21.7919L26.6949 20.3232Z" />
<path fill-rule="evenodd" clip-rule="evenodd" d="M20.6632 22.4681C20.591 22.0612 20.8571 21.6506 21.2574 21.5508L27.5607 19.9806C27.9611 19.8808 28.3442 20.1297 28.4164 20.5366L28.7917 22.6519L27.3417 23.0131L27.0971 21.6344L22.2438 22.8435L22.6514 25.1413L21.2015 25.5025L20.6632 22.4681Z" />
<path fill-rule="evenodd" clip-rule="evenodd" d="M37.8763 12.1054C37.7918 11.7034 38.0484 11.3091 38.4494 11.2248L44.6199 9.92722C45.0209 9.8429 45.4145 10.1005 45.499 10.5025C45.5835 10.9046 45.3269 11.2989 44.9259 11.3832L38.7554 12.6808C38.3544 12.7651 37.9608 12.5075 37.8763 12.1054Z" />
<path fill-rule="evenodd" clip-rule="evenodd" d="M44.0498 11.2548C43.9812 10.8471 44.2493 10.4316 44.6487 10.3267L51.1472 8.61963C51.5466 8.51473 51.9259 8.76019 51.9945 9.16788L53.088 15.6667L51.6417 16.0466L50.6725 10.286L45.6202 11.6131L46.5894 17.3737L45.1432 17.7536L44.0498 11.2548Z" />
<path fill-rule="evenodd" clip-rule="evenodd" d="M31.5846 13.1108L38.8061 11.2138C39.2055 11.1089 39.5848 11.3543 39.6534 11.762L40.7468 18.2611L39.3006 18.641L38.3314 12.8801L31.833 14.5872L31.5846 13.1108Z" />
<path fill-rule="evenodd" clip-rule="evenodd" d="M25.414 14.4087L32.6356 12.5117C33.035 12.4068 33.4143 12.6523 33.4829 13.06L34.5764 19.5588L33.1301 19.9387L32.1609 14.1781L25.6624 15.8851L25.414 14.4087Z" />
<path fill-rule="evenodd" clip-rule="evenodd" d="M19.3677 16.4438C19.2991 16.0361 19.5673 15.6205 19.9666 15.5156L26.4651 13.8086C26.8645 13.7037 27.2439 13.9492 27.3125 14.3568L28.4059 20.8557L26.9597 21.2355L25.9904 15.4749L20.9381 16.8021L21.9074 22.5627L20.4612 22.9426L19.3677 16.4438Z" />
<path fill-rule="evenodd" clip-rule="evenodd" d="M39.1282 38.1822C35.0948 36.9188 30.821 37.113 26.9334 38.7167L26.9285 38.7187L24.5494 39.6804C24.1654 39.8356 23.7282 39.6502 23.573 39.2662C23.4178 38.8821 23.6032 38.445 23.9872 38.2897L26.3638 37.329C30.574 35.5929 35.2075 35.3825 39.5754 36.7505C39.5758 36.7506 39.5762 36.7507 39.5766 36.7508L41.6989 37.4077C41.6992 37.4078 41.6987 37.4077 41.6989 37.4077C45.4889 38.5737 49.6185 38.4766 53.3553 37.071L55.3728 36.264C55.7574 36.1102 56.1939 36.2972 56.3477 36.6818C56.5016 37.0664 56.3145 37.5029 55.9299 37.6567L53.9052 38.4666L53.891 38.4721C49.8348 39.9998 45.3616 40.1041 41.2578 38.8414L39.1307 38.183L39.1282 38.1822Z" />
<path d="M8.87615 6.06683C8.83039 5.87558 8.89595 5.68015 9.07703 5.59188C9.23177 5.48745 9.43827 5.50544 9.60137 5.62367L14.6339 10.036L16.7971 6.77734C16.8941 6.61933 17.0803 6.55232 17.2443 6.58047C17.4083 6.60862 17.5552 6.75319 17.5959 6.92319L18.3362 10.7675L20.6177 9.97441C20.7613 9.91757 20.9253 9.94571 21.0409 10.0529C21.1564 10.16 21.2132 10.3037 21.2063 10.4626L20.8427 12.8861C20.8196 13.0714 20.67 13.1971 20.5 13.2378C20.4362 13.253 20.3937 13.2632 20.3249 13.2572C20.0921 13.223 19.9248 12.9935 19.9589 12.7606L20.2252 11.0569L18.1511 11.7779C18.0287 11.8296 17.891 11.8177 17.7857 11.753C17.6803 11.6883 17.6073 11.571 17.5819 11.4648L16.9475 8.15675L15.0964 10.9363C15.0318 11.0416 14.9145 11.1146 14.7819 11.1239C14.6493 11.1331 14.5278 11.0948 14.4437 11.0251L10.0941 7.21321L11.5318 12.8452C11.5623 12.9727 11.5291 13.1155 11.4644 13.2208C11.3785 13.3313 11.2561 13.383 11.1235 13.3923L8.09117 13.4889L9.29621 14.863C9.45331 15.0501 9.42934 15.3254 9.26352 15.4775C9.07645 15.6346 8.80111 15.6106 8.6491 15.4448L6.84708 13.3598C6.72648 13.2314 6.70705 13.0563 6.78278 12.9033C6.85852 12.7504 6.99201 12.6511 7.16709 12.6316L10.5759 12.5123L8.87615 6.06683Z" />
<path fill-rule="evenodd" clip-rule="evenodd" d="M0.361084 57.0087L1.86193 59.5297C1.87258 59.5477 1.88411 59.5651 1.89651 59.5819C2.16404 59.9468 2.56782 60.1566 2.99282 60.1566C3.02785 60.1566 3.06305 60.1551 3.09833 60.1523C3.55854 60.1146 3.96817 59.8362 4.20224 59.4046L8.64724 52.7294L13.3047 54.2616C13.9388 54.4703 14.6089 54.1767 14.9344 53.5478C14.9508 53.5164 14.9644 53.4837 14.9754 53.45L19.8079 38.6506L19.8234 38.6601L19.8235 38.6601C20.6533 39.1689 21.5939 39.7456 24.0886 39.7456C24.4503 39.7456 24.7436 39.4523 24.7436 39.0905C24.7436 38.7287 24.4503 38.4354 24.0886 38.4354C21.9635 38.4354 21.2566 38.002 20.5082 37.5432L20.5057 37.5417C20.3259 37.4315 20.141 37.3181 19.9361 37.2082L15.808 28.0805C15.6895 27.6608 15.4184 27.3216 15.0538 27.1383L11.1724 24.813L8.63353 21.184C8.42609 20.8875 8.01768 20.8155 7.72124 21.0228C7.42481 21.2302 7.35257 21.6387 7.56001 21.9351L10.0294 25.4648L9.43148 29.4808C9.3782 29.8386 9.62503 30.1719 9.98287 30.2251C10.0156 30.23 10.048 30.2324 10.0802 30.2324C10.3992 30.2324 10.6788 29.9988 10.7273 29.6737L11.2195 26.3685L14.4046 28.2766C14.4162 28.2884 14.4263 28.2915 14.4367 28.2946C14.468 28.3041 14.5024 28.3145 14.5917 28.5703L18.2316 36.6186C17.6996 36.5189 17.0538 36.4578 16.243 36.4578C13.7987 36.4578 12.5616 36.9873 11.3653 37.4995L11.3651 37.4996C10.2407 37.9809 9.17867 38.4355 7.00321 38.4355C4.82803 38.4355 3.76604 37.981 2.64188 37.4998L2.64136 37.4996C1.96466 37.2099 1.27494 36.9146 0.361084 36.7127V38.0611C1.02857 38.2342 1.56919 38.4656 2.12501 38.7035L2.12552 38.7038C3.32184 39.2159 4.55886 39.7455 7.00303 39.7455C9.44729 39.7455 10.6844 39.2159 11.8808 38.7038C13.0052 38.2224 14.0673 37.7678 16.2429 37.7678C17.3536 37.7678 18.0766 37.8863 18.6209 38.0649L13.7516 52.9776C13.7313 53.0058 13.7142 53.0172 13.7142 53.0172L8.58305 51.3293L8.58138 51.3287L6.23556 50.5639C5.89135 50.4518 5.5218 50.6397 5.40966 50.9837C5.29751 51.3276 5.48547 51.6973 5.82942 51.8095L7.35476 52.3068L3.09318 58.7066C3.07886 58.728 3.06584 58.7503 3.05423 58.7732C3.02603 58.8289 2.99757 58.8452 2.9948 58.8467L2.99475 58.8468C2.99151 58.8458 2.98077 58.8397 2.96636 58.8237L0.361084 54.4477V57.0087ZM0.361084 17.0541V18.516L3.91489 16.7477C3.91996 16.749 3.93926 16.7597 3.96109 16.791L6.24954 20.062C6.45697 20.3585 6.86538 20.4307 7.16182 20.2233C7.45826 20.0158 7.53049 19.6074 7.32305 19.311L5.0347 16.04C4.63467 15.4681 3.93594 15.2774 3.3352 15.5758L0.361084 17.0541Z" />
</svg>
