<svg   viewBox="0 0 45 33" xmlns="http://www.w3.org/2000/svg">
    <path fill-rule="evenodd" clip-rule="evenodd"
          d="M21.0055 8.12759C21.4371 7.34855 22.2676 6.86108 23.1578 6.86108H32.8292C33.7446 6.86108 34.5518 7.35228 34.9815 8.12759L34.9836 8.13142L36.5934 11.0833C36.6903 11.2679 36.8886 11.3918 37.1158 11.3918H38.2139C38.7645 11.3918 39.2018 11.8326 39.2018 12.3805V13.5026C39.2018 13.9214 38.9381 14.2575 38.6109 14.4034L38.2203 14.6384C38.1331 14.6883 38.0615 14.8081 38.0615 14.9211V20.8068C38.0615 21.9539 37.1321 22.8541 36.0178 22.8541H35.2365C34.0882 22.8541 33.1928 21.9199 33.1928 20.8068V20.6946H22.7942V20.8279C22.7942 21.9751 21.8648 22.8753 20.7505 22.8753H19.9691C18.8209 22.8753 17.9255 21.9411 17.9255 20.8279V14.9423C17.9255 14.8159 17.8606 14.7132 17.7667 14.6594L17.7546 14.6525L17.3877 14.4316C16.9976 14.2743 16.7852 13.9011 16.7852 13.5238V12.3805C16.7852 11.8326 17.2224 11.3918 17.773 11.3918H18.8711C19.0983 11.3918 19.2967 11.268 19.3936 11.0833L19.3984 11.0742L21.0055 8.12759ZM34.4928 20.0234V20.8068C34.4928 21.218 34.8221 21.5541 35.2365 21.5541H36.0178C36.4238 21.5541 36.7615 21.2263 36.7615 20.8068V14.9211C36.7615 14.3592 37.0672 13.8041 37.5672 13.5142L37.9018 13.3129V12.6918H37.1158C36.4158 12.6918 35.7712 12.3096 35.4449 11.6926L33.8444 8.75767C33.844 8.75709 33.8437 8.7565 33.8434 8.75591C33.6393 8.38899 33.2644 8.16108 32.8292 8.16108H23.1578C22.7393 8.16108 22.3456 8.39274 22.1435 8.75599L20.542 11.6926C20.2157 12.3096 19.5711 12.6918 18.8711 12.6918H18.0852V13.3341L18.4197 13.5353C18.9131 13.8212 19.2255 14.3515 19.2255 14.9423V20.8279C19.2255 21.2392 19.5548 21.5753 19.9691 21.5753H20.7505C21.1565 21.5753 21.4942 21.2475 21.4942 20.8279V20.0446C21.4942 19.6856 21.7852 19.3946 22.1442 19.3946H33.6776C33.7303 19.3808 33.7857 19.3734 33.8428 19.3734C34.2017 19.3734 34.4928 19.6644 34.4928 20.0234Z"
          />
    <path fill-rule="evenodd" clip-rule="evenodd"
          d="M20.0371 20.0233C20.0371 19.6643 20.3281 19.3733 20.6871 19.3733H22.1442C22.5031 19.3733 22.7942 19.6643 22.7942 20.0233C22.7942 20.3823 22.5031 20.6733 22.1442 20.6733H20.6871C20.3281 20.6733 20.0371 20.3823 20.0371 20.0233Z"
          />
    <path fill-rule="evenodd" clip-rule="evenodd"
          d="M33.1929 20.0233C33.1929 19.6643 33.4839 19.3733 33.8429 19.3733H35.2999C35.6589 19.3733 35.9499 19.6643 35.9499 20.0233C35.9499 20.3823 35.6589 20.6733 35.2999 20.6733H33.8429C33.4839 20.6733 33.1929 20.3823 33.1929 20.0233Z"
          />
    <path fill-rule="evenodd" clip-rule="evenodd"
          d="M6.69141 16.4664C6.69141 16.1074 6.98242 15.8164 7.34141 15.8164H13.1062C13.4652 15.8164 13.7562 16.1074 13.7562 16.4664C13.7562 16.8254 13.4652 17.1164 13.1062 17.1164H7.34141C6.98242 17.1164 6.69141 16.8254 6.69141 16.4664Z"
          />
    <path fill-rule="evenodd" clip-rule="evenodd"
          d="M6.69141 18.6896C6.69141 18.3306 6.98242 18.0396 7.34141 18.0396H13.1062C13.4652 18.0396 13.7562 18.3306 13.7562 18.6896C13.7562 19.0485 13.4652 19.3396 13.1062 19.3396H7.34141C6.98242 19.3396 6.69141 19.0485 6.69141 18.6896Z"
          />
    <path fill-rule="evenodd" clip-rule="evenodd"
          d="M6.69141 20.9127C6.69141 20.5537 6.98242 20.2627 7.34141 20.2627H13.1062C13.4652 20.2627 13.7562 20.5537 13.7562 20.9127C13.7562 21.2717 13.4652 21.5627 13.1062 21.5627H7.34141C6.98242 21.5627 6.69141 21.2717 6.69141 20.9127Z"
          />
    <path fill-rule="evenodd" clip-rule="evenodd"
          d="M0.314453 27.984C0.314453 27.625 0.605468 27.334 0.964453 27.334H44.2113C44.5702 27.334 44.8613 27.625 44.8613 27.984V30.1571C44.8869 31.3519 43.9322 32.2967 42.7542 32.2967H2.44262C1.28565 32.2967 0.314453 31.3538 0.314453 30.1647V27.984ZM1.61445 28.634V30.1647C1.61445 30.6269 1.99472 30.9967 2.44262 30.9967H42.7542C43.2204 30.9967 43.573 30.6335 43.5615 30.1813L43.5613 30.1647V28.634H1.61445Z"
          />
    <path fill-rule="evenodd" clip-rule="evenodd"
          d="M3.14404 3.0439C3.14404 1.89675 4.07339 0.996582 5.18774 0.996582H40.0301C41.1309 0.996582 42.0789 1.88561 42.0527 3.03093V28.0051C42.0527 28.3641 41.7617 28.6551 41.4027 28.6551H3.79404C3.43506 28.6551 3.14404 28.3641 3.14404 28.0051V3.0439ZM5.18774 2.29658C4.78169 2.29658 4.44404 2.62436 4.44404 3.0439V27.3551H40.7527V3.02273L40.753 3.00473C40.7633 2.63043 40.4467 2.29658 40.0301 2.29658H5.18774Z"
          />
    <path fill-rule="evenodd" clip-rule="evenodd"
          d="M6.54395 7.48984C6.54395 7.13086 6.83496 6.83984 7.19395 6.83984H13.2544C13.6134 6.83984 13.9044 7.13086 13.9044 7.48984V13.5661C13.9044 13.925 13.6134 14.2161 13.2544 14.2161H7.19395C6.83496 14.2161 6.54395 13.925 6.54395 13.5661V7.48984ZM7.84395 8.13984V12.9161H12.6044V8.13984H7.84395Z"
          />
</svg>
