<svg   viewBox="0 0 41 35"  xmlns="http://www.w3.org/2000/svg">
<path d="M40.3627 32.2175H30.9978C30.652 32.2175 30.3728 31.9382 30.3728 31.5925C30.3728 31.247 30.652 30.9675 30.9978 30.9675H39.7377V4.71747H30.9978C30.652 4.71747 30.3728 4.43823 30.3728 4.09247C30.3728 3.74701 30.652 3.46747 30.9978 3.46747H40.3627C40.7085 3.46747 40.9877 3.74701 40.9877 4.09247V31.5925C40.9877 31.9382 40.7085 32.2175 40.3627 32.2175Z" />
<path d="M21.6128 32.2175H1.61279C1.26703 32.2175 0.987793 31.9382 0.987793 31.5925V4.09247C0.987793 3.74701 1.26703 3.46747 1.61279 3.46747H21.6128C21.9586 3.46747 22.2378 3.74701 22.2378 4.09247C22.2378 4.43823 21.9586 4.71747 21.6128 4.71747H2.23779V30.9675H21.6128C21.9586 30.9675 22.2378 31.247 22.2378 31.5925C22.2378 31.9382 21.9586 32.2175 21.6128 32.2175Z" />
<path d="M21.6122 29.7138H4.11279C3.76703 29.7138 3.48779 29.4346 3.48779 29.0888V6.58881C3.48779 6.24335 3.76703 5.96381 4.11279 5.96381H21.6122C21.9576 5.96381 22.2372 6.24335 22.2372 6.58881C22.2372 6.93457 21.9576 7.21381 21.6122 7.21381H4.73779V28.4638H21.6122C21.9576 28.4638 22.2372 28.7433 22.2372 29.0888C22.2372 29.4346 21.9576 29.7138 21.6122 29.7138Z" />
<path d="M24.1128 34.7138C23.9865 34.7138 23.861 34.675 23.7545 34.6006C23.5873 34.4837 23.4878 34.2927 23.4878 34.0888V1.58881C23.4878 1.38495 23.5873 1.19391 23.7545 1.07703C23.9214 0.960146 24.1348 0.931459 24.3264 1.00196L38.0764 6.00196C38.3233 6.09137 38.4878 6.32575 38.4878 6.58881V29.0888C38.4878 29.3519 38.3233 29.5862 38.0764 29.6757L24.3264 34.6757C24.2565 34.7019 24.1848 34.7138 24.1128 34.7138ZM24.7378 2.48145V33.1971L37.2378 28.6521V7.02704L24.7378 2.48145Z" />
<path d="M40.3516 10.9638H37.8516C37.5061 10.9638 37.2266 10.6846 37.2266 10.3388C37.2266 9.99335 37.5061 9.71381 37.8516 9.71381H40.3516C40.6973 9.71381 40.9766 9.99335 40.9766 10.3388C40.9766 10.6846 40.6973 10.9638 40.3516 10.9638Z" />
<path d="M40.3516 13.4638H37.8516C37.5061 13.4638 37.2266 13.1846 37.2266 12.8388C37.2266 12.4933 37.5061 12.2138 37.8516 12.2138H40.3516C40.6973 12.2138 40.9766 12.4933 40.9766 12.8388C40.9766 13.1846 40.6973 13.4638 40.3516 13.4638Z" />
<path d="M40.3516 23.4638H37.8516C37.5061 23.4638 37.2266 23.1846 37.2266 22.8388C37.2266 22.4933 37.5061 22.2138 37.8516 22.2138H40.3516C40.6973 22.2138 40.9766 22.4933 40.9766 22.8388C40.9766 23.1846 40.6973 23.4638 40.3516 23.4638Z" />
<path d="M40.3516 25.9638H37.8516C37.5061 25.9638 37.2266 25.6846 37.2266 25.3388C37.2266 24.9933 37.5061 24.7138 37.8516 24.7138H40.3516C40.6973 24.7138 40.9766 24.9933 40.9766 25.3388C40.9766 25.6846 40.6973 25.9638 40.3516 25.9638Z" />
<path d="M4.1073 34.7175C3.76154 34.7175 3.4823 34.4382 3.4823 34.0925V31.5925C3.4823 31.247 3.76154 30.9675 4.1073 30.9675C4.45276 30.9675 4.7323 31.247 4.7323 31.5925V34.0925C4.7323 34.4382 4.45276 34.7175 4.1073 34.7175Z" />
<path d="M10.3573 34.7175H4.1073C3.76154 34.7175 3.4823 34.4382 3.4823 34.0925C3.4823 33.747 3.76154 33.4675 4.1073 33.4675H10.3573C10.7028 33.4675 10.9823 33.747 10.9823 34.0925C10.9823 34.4382 10.7028 34.7175 10.3573 34.7175Z" />
<path d="M10.3573 34.7175C10.0115 34.7175 9.7323 34.4382 9.7323 34.0925V31.5925C9.7323 31.247 10.0115 30.9675 10.3573 30.9675C10.7028 30.9675 10.9823 31.247 10.9823 31.5925V34.0925C10.9823 34.4382 10.7028 34.7175 10.3573 34.7175Z" />
<path d="M31.6128 34.7175C31.267 34.7175 30.9878 34.4382 30.9878 34.0925V31.5925C30.9878 31.247 31.267 30.9675 31.6128 30.9675C31.9586 30.9675 32.2378 31.247 32.2378 31.5925V34.0925C32.2378 34.4382 31.9586 34.7175 31.6128 34.7175Z" />
<path d="M37.8628 34.7175H31.6128C31.267 34.7175 30.9878 34.4382 30.9878 34.0925C30.9878 33.747 31.267 33.4675 31.6128 33.4675H37.8628C38.2086 33.4675 38.4878 33.747 38.4878 34.0925C38.4878 34.4382 38.2086 34.7175 37.8628 34.7175Z" />
<path d="M37.8628 34.7175C37.517 34.7175 37.2378 34.4382 37.2378 34.0925V31.5925C37.2378 31.247 37.517 30.9675 37.8628 30.9675C38.2086 30.9675 38.4878 31.247 38.4878 31.5925V34.0925C38.4878 34.4382 38.2086 34.7175 37.8628 34.7175Z" />
<path d="M24.1128 34.7138H21.6122C21.2664 34.7138 20.9872 34.4346 20.9872 34.0888V1.58881C20.9872 1.24335 21.2664 0.963806 21.6122 0.963806H24.1128C24.4586 0.963806 24.7378 1.24335 24.7378 1.58881V34.0888C24.7378 34.4346 24.4586 34.7138 24.1128 34.7138ZM22.2372 33.4638H23.4878V2.21381H22.2372V33.4638Z" />
<path d="M22.8815 13.4675C22.536 13.4675 22.2534 13.1882 22.2534 12.8425C22.2534 12.497 22.5296 12.2175 22.8748 12.2175H22.8815C23.2266 12.2175 23.5065 12.497 23.5065 12.8425C23.5065 13.1882 23.2266 13.4675 22.8815 13.4675Z" />
<path d="M22.8815 18.4675C22.536 18.4675 22.2534 18.1882 22.2534 17.8425C22.2534 17.497 22.5296 17.2175 22.8748 17.2175H22.8815C23.2266 17.2175 23.5065 17.497 23.5065 17.8425C23.5065 18.1882 23.2266 18.4675 22.8815 18.4675Z" />
<path d="M22.8815 23.4675C22.536 23.4675 22.2534 23.1882 22.2534 22.8425C22.2534 22.497 22.5296 22.2175 22.8748 22.2175H22.8815C23.2266 22.2175 23.5065 22.497 23.5065 22.8425C23.5065 23.1882 23.2266 23.4675 22.8815 23.4675Z" />
<path d="M34.7384 17.8425C34.6936 17.8425 34.6478 17.8376 34.6023 17.8281L28.9773 16.5781C28.6404 16.5033 28.4277 16.1695 28.5022 15.8326C28.5772 15.4956 28.9129 15.2875 29.2477 15.3577L34.8727 16.6077C35.2096 16.6825 35.4223 17.0163 35.3479 17.3533C35.2835 17.6444 35.0247 17.8425 34.7384 17.8425Z" />
<path d="M29.1122 20.3425C28.826 20.3425 28.5672 20.1444 28.5022 19.8533C28.4277 19.5163 28.6404 19.1825 28.9773 19.1077L34.6023 17.8577C34.9383 17.7863 35.2728 17.9956 35.3479 18.3326C35.4223 18.6695 35.2096 19.0033 34.8727 19.0781L29.2477 20.3281C29.2028 20.3376 29.1571 20.3425 29.1122 20.3425Z" />
<path d="M29.1128 20.3425C28.1909 20.3425 27.8628 19.0513 27.8628 17.8425C27.8628 16.634 28.1909 15.3425 29.1128 15.3425C29.4586 15.3425 29.7378 15.622 29.7378 15.9675C29.7378 16.2375 29.5672 16.4677 29.327 16.5543C29.2379 16.7271 29.1128 17.1918 29.1128 17.8425C29.1128 18.4931 29.2379 18.9582 29.327 19.1306C29.5672 19.2176 29.7378 19.4477 29.7378 19.7175C29.7378 20.0632 29.4586 20.3425 29.1128 20.3425Z" />
<path d="M34.7378 19.0925C34.392 19.0925 34.1128 18.8132 34.1128 18.4675V17.2175C34.1128 16.872 34.392 16.5925 34.7378 16.5925C35.0836 16.5925 35.3628 16.872 35.3628 17.2175V18.4675C35.3628 18.8132 35.0836 19.0925 34.7378 19.0925Z" />
<path d="M28.8003 22.2175C27.2234 22.2175 25.9878 20.2958 25.9878 17.8425C25.9878 15.3895 27.2234 13.4675 28.8003 13.4675C29.9651 13.4675 30.9902 14.5356 31.4117 16.1881C31.4971 16.5226 31.2948 16.8632 30.9603 16.9483C30.6265 17.0331 30.2859 16.8314 30.2004 16.4969C29.9328 15.4496 29.3572 14.7175 28.8003 14.7175C28.0609 14.7175 27.2378 16.0013 27.2378 17.8425C27.2378 19.6839 28.0609 20.9675 28.8003 20.9675C29.3585 20.9675 29.9334 20.2357 30.2004 19.1877C30.2853 18.8526 30.6277 18.6481 30.9597 18.7357C31.2942 18.8209 31.4965 19.1608 31.4117 19.495C30.9915 21.1487 29.9667 22.2175 28.8003 22.2175Z" />
<path d="M12.8728 22.8419C12.527 22.8419 12.2478 22.5626 12.2478 22.2169C12.2478 20.5445 13.5634 19.2557 14.7246 18.1183C15.7009 17.1625 16.6228 16.2589 16.6228 15.3513C16.6228 13.2831 14.941 11.6013 12.8728 11.6013C10.8046 11.6013 9.1228 13.2831 9.1228 15.3513C9.1228 15.6971 8.84326 15.9763 8.4978 15.9763C8.15204 15.9763 7.8728 15.6971 7.8728 15.3513C7.8728 12.5944 10.1158 10.3513 12.8728 10.3513C15.6295 10.3513 17.8728 12.5944 17.8728 15.3513C17.8728 16.7844 16.7165 17.9163 15.5989 19.0107C14.5659 20.0226 13.4978 21.0688 13.4978 22.2162C13.4978 22.5626 13.2177 22.8419 12.8728 22.8419Z" />
<path d="M12.8915 25.9769C12.546 25.9769 12.2634 25.6977 12.2634 25.3519C12.2634 25.0065 12.5396 24.7269 12.8848 24.7269H12.8915C13.2366 24.7269 13.5165 25.0065 13.5165 25.3519C13.5165 25.6977 13.2366 25.9769 12.8915 25.9769Z" />
</svg>
