<svg   viewBox="0 0 52 68"  xmlns="http://www.w3.org/2000/svg">
<path d="M26.9379 0.14711C32.3492 0.0382767 37.7883 0.266068 43.1301 1.18989C45.3915 1.62522 47.7011 2.09093 49.7449 3.19952C50.4523 3.59436 51.1584 4.14612 51.4255 4.94086C51.6862 5.72421 51.3052 6.57337 50.7092 7.09349C49.7803 7.91354 48.5958 8.35647 47.4391 8.75257C44.4715 9.68146 41.3773 10.1181 38.2933 10.4382C32.9047 10.9495 27.4706 10.9824 22.0732 10.5876C19.0095 10.3421 15.9444 9.97252 12.9553 9.24232C11.4911 8.87026 10.0193 8.4324 8.70947 7.66044C8.00838 7.23902 7.31994 6.62652 7.17441 5.78116C7.03141 5.01299 7.47434 4.26634 8.04635 3.78925C9.03977 2.97299 10.2698 2.5288 11.4771 2.13902C13.8639 1.41768 16.3329 1.00892 18.8032 0.706465C21.5038 0.38376 24.2196 0.211651 26.9379 0.14711ZM21.1735 1.98589C18.5222 2.23014 15.8697 2.57689 13.2805 3.2147C12.0087 3.53994 10.7305 3.91706 9.57888 4.56247C9.21947 4.78014 8.82717 5.02691 8.66645 5.43567C8.69302 5.82545 9.06129 6.05704 9.34729 6.26458C10.4723 6.99478 11.7885 7.33773 13.0616 7.71485C12.8819 7.23776 12.8743 6.686 13.1881 6.26205C13.8323 5.35721 14.932 4.95731 15.9381 4.60044C18.5513 3.76773 21.295 3.44503 24.0183 3.21724C28.8538 2.87428 33.7349 2.95148 38.5337 3.66016C40.2472 3.93098 41.9708 4.26381 43.5806 4.932C44.3981 5.29393 45.3118 5.75585 45.6383 6.65183C45.7927 7.00364 45.6813 7.38076 45.5446 7.71738C46.7747 7.39215 48.0086 7.02009 49.1184 6.3848C49.4715 6.15322 49.9423 5.88872 49.9866 5.42808C49.5361 4.60676 48.5515 4.29292 47.739 3.94111C44.6816 2.83126 41.4292 2.40351 38.2123 2.0555C32.5504 1.51513 26.8392 1.49867 21.1735 1.98589ZM22.8326 4.84721C20.6217 5.08133 18.3995 5.38632 16.2823 6.08488C15.7014 6.30634 15.0826 6.51262 14.6156 6.93657C14.4017 7.26686 14.2651 7.64652 13.9942 7.94265C16.2456 8.40835 18.5222 8.74624 20.8103 8.95379C25.5686 9.39419 30.3611 9.43974 35.1295 9.16386C38.3477 8.9791 41.5558 8.58552 44.7145 7.93885C44.4841 7.74649 44.2829 7.51743 44.1943 7.2251C44.0665 6.82394 43.6438 6.65689 43.3085 6.46959C42.129 5.92289 40.8509 5.63436 39.5828 5.38252C37.5251 4.98768 35.4358 4.77887 33.3451 4.65485C29.8422 4.45743 26.3241 4.50932 22.8326 4.84721Z" />
<path d="M26.1951 6.13892C28.8729 5.95289 31.571 5.99212 34.2374 6.31229C35.5586 6.49706 36.8988 6.69701 38.1402 7.20701C38.6401 7.37532 38.7907 8.09413 38.4022 8.44974C38.182 8.70031 37.815 8.7117 37.5265 8.58895C36.385 8.165 35.1789 7.96125 33.9767 7.81192C31.2495 7.49048 28.4895 7.46897 25.7547 7.69929C24.0336 7.86761 22.2809 8.08021 20.68 8.77371C20.1384 8.96227 19.5828 8.36495 19.7638 7.8347C19.8865 7.39684 20.3624 7.2589 20.7369 7.11083C22.4922 6.50339 24.3525 6.28319 26.1951 6.13892Z" />
<path d="M7.58072 8.87737C7.89583 8.74955 8.31345 8.82042 8.5058 9.12288C8.67918 9.4266 8.66779 9.8341 8.96772 10.0606C9.72069 10.701 10.6686 11.0452 11.5911 11.3628C14.1664 12.1854 16.8518 12.5954 19.5297 12.9118C24.9549 13.4965 30.4333 13.5686 35.8762 13.2016C38.8502 12.9877 41.8241 12.6499 44.7373 11.9969C46.0724 11.6792 47.4126 11.3249 48.6515 10.7237C49.0565 10.5162 49.4665 10.2922 49.7778 9.95432C50.0601 9.65313 49.9702 9.10516 50.3802 8.90901C50.8649 8.62047 51.5432 9.03303 51.5103 9.59618C51.4926 10.6035 50.6548 11.3274 49.8525 11.8007C48.2251 12.7207 46.3888 13.1826 44.5779 13.5863C40.2195 14.4924 35.7636 14.8215 31.3217 14.9227C26.0774 15.0113 20.8091 14.7746 15.6344 13.8888C13.4868 13.4952 11.3241 13.0308 9.33724 12.0981C8.5134 11.6767 7.64652 11.1363 7.2694 10.2504C7.06818 9.79233 7.05427 9.11782 7.58072 8.87737Z" />
<path d="M11.3849 14.312C11.6734 14.1348 12.0708 14.207 12.3074 14.4386C12.5226 14.7765 12.5428 15.2447 12.9123 15.475C13.7526 16.0774 14.7536 16.3976 15.7332 16.695C18.2553 17.41 20.8648 17.7529 23.4679 18.0048C28.3515 18.4363 33.2744 18.4388 38.1592 18.0212C40.6738 17.7896 43.1896 17.4568 45.6371 16.8177C46.7799 16.4912 47.9669 16.1609 48.935 15.4446C49.3058 15.2093 49.2767 14.7144 49.5412 14.4006C49.9728 13.9792 50.8093 14.312 50.8131 14.922C50.846 15.9597 49.9411 16.6874 49.111 17.1328C47.1266 18.1705 44.8955 18.592 42.7113 18.983C38.6566 19.6423 34.5411 19.8575 30.4371 19.8486C25.9445 19.8031 21.4279 19.5246 17.0227 18.5882C15.4408 18.2212 13.8362 17.8073 12.4264 16.9772C11.762 16.5747 11.1039 15.9812 11.0077 15.1662C10.947 14.8359 11.0786 14.4727 11.3849 14.312Z" />
<path d="M14.6536 19.7323C14.9269 19.6222 15.2673 19.6653 15.485 19.8703C15.7229 20.1247 15.7115 20.5347 15.9963 20.7523C16.5987 21.237 17.3529 21.4737 18.0768 21.7154C20.0459 22.3216 22.0935 22.6266 24.136 22.8594C27.8225 23.2543 31.5405 23.3201 35.2421 23.1518C38.349 22.9847 41.471 22.6835 44.4867 21.8875C45.3852 21.6205 46.3103 21.3497 47.0848 20.8017C47.4733 20.5613 47.4075 19.9665 47.8238 19.7564C48.2339 19.5223 48.8122 19.783 48.9071 20.2449C49.0223 20.8498 48.6705 21.4357 48.2313 21.823C47.41 22.5481 46.3444 22.8949 45.3207 23.2251C43.1111 23.8845 40.8167 24.1983 38.5287 24.4362C34.1981 24.8425 29.8308 24.8615 25.4952 24.516C23.1831 24.311 20.8698 24.025 18.6171 23.4491C17.4858 23.1429 16.3392 22.7987 15.3445 22.1609C14.7637 21.785 14.2296 21.2092 14.2094 20.4815C14.1664 20.1639 14.3866 19.8753 14.6536 19.7323Z" />
<path d="M20.6281 25.3499C21.0419 25.1069 21.5696 25.3511 21.7139 25.7928C21.886 26.2585 22.3909 26.4154 22.8073 26.5926C24.2411 27.1266 25.7635 27.3633 27.2732 27.5658C30.5927 27.9568 33.9488 28.0024 37.2809 27.7695C38.8602 27.6493 40.4383 27.4633 41.9873 27.1292C42.8681 26.9191 43.7704 26.7078 44.5639 26.256C44.9461 26.0725 44.9182 25.5245 45.303 25.3473C45.6674 25.1449 46.2015 25.3056 46.3457 25.7118C46.5507 26.237 46.2496 26.8179 45.8547 27.1671C45.0549 27.891 43.9767 28.1707 42.9656 28.4592C40.4447 29.0768 37.844 29.2995 35.2573 29.3982C32.0303 29.4919 28.7855 29.3767 25.5964 28.8553C24.3727 28.6453 23.149 28.3808 21.9986 27.9062C21.3633 27.6328 20.7078 27.2583 20.3775 26.623C20.1611 26.2104 20.1801 25.5979 20.6281 25.3499Z" />
<path d="M13.3843 26.9061C13.2514 26.3784 14.0449 25.9987 14.3866 26.3999C15.4294 27.8906 15.7964 29.8218 15.38 31.5948C16.0457 30.7089 17.0518 30.0509 18.1654 29.9281C18.4438 29.8901 18.6944 30.0787 18.8387 30.3027C19.6018 31.4493 19.7308 32.9894 19.15 34.241C18.8956 34.8421 18.4426 35.3204 17.9984 35.7836C19.5132 36.2696 20.9736 36.9859 22.1897 38.0223C21.9379 38.2944 21.681 38.5614 21.4279 38.8322C19.8245 37.5933 17.9035 36.6606 15.8597 36.5328C16.195 38.0894 16.5772 39.6371 16.9227 41.1924C17.0011 41.71 17.577 41.9062 17.8136 42.3402C18.6134 43.4994 18.087 45.2585 16.8126 45.8292C15.375 46.4215 13.926 46.9897 12.482 47.5668C11.1722 48.0755 9.53844 47.1757 9.30685 45.7824C9.16638 45.2661 9.45618 44.6764 9.1031 44.2208C8.31469 42.9059 7.56678 41.567 6.76571 40.2585C6.64042 40.3724 6.51261 40.4837 6.40377 40.6141C5.04588 42.382 4.2638 44.5789 4.21191 46.8075C4.12712 49.6536 5.24204 52.525 7.26685 54.5334C8.20459 55.5129 9.3967 56.1899 10.3825 57.1163C13.0363 59.455 15.075 62.4542 16.3912 65.7306C17.1049 65.4737 17.8098 65.1915 18.5046 64.8878C17.6655 62.7516 16.8012 60.6243 15.952 58.4932C15.9128 58.3249 15.7825 58.135 15.8824 57.968C16.0356 57.6314 16.4519 57.6048 16.767 57.5301C18.2072 57.2808 19.5853 56.7075 20.7926 55.885C21.0318 55.6913 21.338 55.666 21.6278 55.7369C22.6023 57.9769 23.4439 60.2738 24.3816 62.5302C25.0903 62.2884 25.78 61.9923 26.4722 61.7088C25.7521 59.8789 25.2042 57.9718 24.984 56.014C25.3775 56.2153 25.7673 56.4266 26.1318 56.6772C26.3457 56.7936 26.3317 57.0657 26.3925 57.272C26.662 58.783 27.1619 60.2408 27.7441 61.6582C27.9174 61.9771 27.8731 62.4567 27.4796 62.5808C26.4317 63.0212 25.3712 63.4375 24.312 63.8513C23.9931 64.0222 23.602 63.8336 23.4907 63.5033C22.6289 61.395 21.8126 59.2677 20.9407 57.1644C19.7903 57.8136 18.5678 58.3388 17.2745 58.621C18.0591 60.7863 18.9956 62.8972 19.803 65.0536C19.9283 65.3548 19.7435 65.7129 19.436 65.8053C18.3755 66.2305 17.3175 66.6696 16.2482 67.0721C15.8002 67.2771 15.48 66.8063 15.3686 66.4368C14.1006 63.0515 11.9556 59.9991 9.19042 57.6706C8.37164 56.9657 7.44402 56.3937 6.67459 55.6319C4.61814 53.6551 3.31846 50.914 3.09067 48.0704C2.8806 45.6597 3.46653 43.2147 4.64345 41.1089C3.66774 41.1329 2.67558 40.8975 1.88591 40.3053C0.991191 39.67 0.362232 38.6551 0.228088 37.5629C0.14583 37.0757 0.646972 36.8125 1.00385 36.6151C1.76568 36.1873 2.6566 36.124 3.51209 36.1709C2.13015 35.1306 1.06459 33.593 0.82794 31.8567C0.759603 31.3948 1.37464 31.119 1.73405 31.3366C2.0036 31.5821 2.17318 31.9124 2.41615 32.182C3.39439 33.2944 4.89275 33.9689 6.38226 33.8398C7.31747 33.7702 8.15144 33.302 9.01705 32.9843C10.0269 32.5502 11.1469 32.2693 11.9606 31.4872C13.1869 30.3331 13.6602 28.5424 13.3843 26.9061ZM12.9718 32.2022C13.2489 32.3047 13.5248 32.4123 13.8083 32.4996C14.1563 31.6922 14.3638 30.8216 14.341 29.9395C13.9778 30.7469 13.54 31.5189 12.9718 32.2022ZM15.804 33.655C15.7394 34.2562 15.8888 34.8585 16.1507 35.3976C17.1808 35.1382 18.0211 34.2739 18.254 33.2374C18.4375 32.5325 18.2869 31.7897 17.9844 31.1405C16.8012 31.3619 15.89 32.468 15.804 33.655ZM11.2899 33.3716C10.1674 33.7841 9.06767 34.2549 7.95782 34.6965C7.15295 35.0117 6.57209 35.8102 6.5164 36.672C6.4506 37.2744 6.65561 37.8692 6.98338 38.3665C7.98819 40.0636 8.99174 41.7619 9.97504 43.4716C10.7419 42.9211 11.6632 42.6705 12.52 42.3023C13.5754 41.9011 14.5979 41.4037 15.6977 41.1329C15.2142 39.122 14.7941 37.0972 14.3056 35.0889C14.0158 33.8056 12.5466 32.9286 11.2899 33.3716ZM3.3172 34.3928C3.86516 35.0787 4.63586 35.5875 5.47742 35.8355C5.59638 35.5697 5.71534 35.3053 5.84315 35.0446C4.96616 34.9826 4.12586 34.7244 3.3172 34.3928ZM1.4531 37.7148C1.67583 38.6158 2.34275 39.4004 3.21849 39.7244C4.01576 40.0395 4.92439 39.9421 5.68496 39.57C5.33189 37.7641 3.02866 36.7555 1.4531 37.7148ZM15.4344 42.4377C14.0614 42.9439 12.7161 43.5273 11.3494 44.0525C10.785 44.2284 10.3813 44.8105 10.4407 45.4028C10.4825 46.1937 11.4051 46.7758 12.1365 46.4632C13.497 45.9292 14.8523 45.3812 16.2089 44.8358C16.7367 44.6498 17.0644 44.074 16.986 43.526C16.9265 42.8047 16.1406 42.2162 15.4344 42.4377Z" />
<path d="M43.8932 29.3787C44.2412 29.2483 44.6879 29.4116 44.8398 29.7583C45.0056 30.076 44.8524 30.4316 44.7449 30.7404C44.0463 32.5323 42.6226 34.0282 40.8724 34.8242C40.3637 35.0886 39.7208 34.5989 39.8182 34.0421C39.8385 33.6662 40.1878 33.4751 40.4826 33.3233C41.7924 32.6487 42.8555 31.487 43.3541 30.0962C43.4528 29.8089 43.5755 29.4837 43.8932 29.3787Z" />
<path d="M47.1393 30.8538C47.5759 30.4526 48.3744 30.769 48.3896 31.3752C48.7275 34.1099 48.1985 36.9839 46.7723 39.3555C45.5473 41.2272 43.7578 42.6913 41.7786 43.7088C39.2691 45.006 36.4116 45.5274 33.6021 45.459C32.2506 45.4337 30.8142 45.1755 29.5386 45.7615C28.8337 46.0525 28.3313 46.7182 28.1946 47.4623C27.9263 48.8341 28.3288 50.2199 28.7983 51.5018C28.9678 51.9739 28.5312 52.5104 28.0352 52.4522C27.615 52.4358 27.3809 52.0333 27.1253 51.7575C25.8648 50.2186 24.5639 48.5937 24.0691 46.6271C23.7008 45.2413 24.0931 43.7253 25.0169 42.6445C26.3622 41.0563 28.2212 40.0388 30.0195 39.0543C31.3141 38.3696 32.6998 37.5458 33.325 36.1575C33.8552 34.887 33.1326 33.5139 32.2139 32.6343C31.7785 32.323 31.8342 31.5713 32.3354 31.3587C32.6543 31.1739 33.0453 31.3056 33.2858 31.5561C34.2298 32.4711 34.9436 33.6974 35.0208 35.0312C35.098 36.3119 34.4703 37.542 33.573 38.4228C32.1278 39.9199 30.0967 40.5805 28.4161 41.7498C27.2594 42.5281 25.9838 43.4114 25.5459 44.806C25.2219 46.1107 25.8699 47.4104 26.576 48.4709C26.5849 47.2788 26.8658 45.9956 27.7732 45.1528C28.9881 43.9442 30.8357 43.7759 32.4606 43.886C35.5118 44.129 38.687 43.686 41.3951 42.1978C43.1238 41.2272 44.7247 39.906 45.7143 38.1608C46.7267 36.2297 47.1304 33.9948 46.9128 31.8295C46.8761 31.4916 46.8444 31.0942 47.1393 30.8538Z" />
<path d="M44.5412 33.8246C44.8753 33.741 45.2575 33.9283 45.3916 34.2472C45.5106 34.5016 45.4321 34.7876 45.3802 35.0483C45.0601 36.3796 44.5361 37.697 43.6414 38.7499C42.705 39.861 41.5521 40.7912 40.2613 41.4568C39.769 41.7606 39.0856 41.2999 39.1565 40.7342C39.1463 40.3457 39.5159 40.1445 39.8057 39.9775C40.8636 39.3953 41.7988 38.6006 42.5632 37.6692C43.3251 36.7327 43.7072 35.5596 43.9692 34.3991C44.0148 34.1055 44.2539 33.8802 44.5412 33.8246Z" />
<path d="M12.6554 34.7349C13.4033 34.454 14.2841 35.2057 14.0563 35.9916C13.9007 36.7787 12.8111 37.0862 12.2682 36.4965C11.7126 35.9941 11.9429 34.9589 12.6554 34.7349Z" />
<path d="M7.97052 36.6231C8.57544 36.4624 9.2702 36.942 9.27273 37.5811C9.33094 38.148 8.86144 38.7036 8.28943 38.7251C7.75032 38.7681 7.21754 38.3505 7.15553 37.8076C7.06948 37.2799 7.45293 36.737 7.97052 36.6231Z" />
<path d="M35.6801 41.1758C36.042 41.158 36.4862 41.0568 36.7633 41.3618C37.1594 41.7465 36.9468 42.5425 36.3862 42.6286C35.5067 42.7602 34.6094 42.7564 33.7211 42.7121C33.4097 42.7045 33.0516 42.621 32.9023 42.316C32.6251 41.8731 32.939 41.2175 33.468 41.1884C34.2045 41.1922 34.9448 41.2593 35.6801 41.1758Z" />
<path d="M15.2966 42.7915C15.6686 42.6383 16.1419 42.6548 16.4267 42.9686C16.8683 43.3863 16.762 44.2202 16.19 44.467C15.6965 44.6948 15.0827 45.0555 14.5575 44.7138C14.026 44.4151 14.0057 43.5925 14.4474 43.2104C14.7056 43.0269 14.9979 42.8965 15.2966 42.7915Z" />
<path d="M12.1466 44.0782C12.8085 43.8668 13.4944 44.573 13.2881 45.2285C13.1337 45.8309 12.4491 45.9929 11.9365 46.1701C11.2949 46.408 10.5812 45.7436 10.7571 45.0893C10.8773 44.4389 11.61 44.2592 12.1466 44.0782Z" />
</svg>
