<svg   viewBox="0 0 64 43"  xmlns="http://www.w3.org/2000/svg">
<path d="M50.4739 1.25911C50.7456 0.772191 51.0161 0.167226 51.5977 0C51.8904 0.150012 52.215 0.362733 52.2679 0.716859C52.6847 2.38666 53.1188 4.05154 53.5454 5.71889C55.3763 4.87415 57.1347 3.88063 58.952 3.00884C59.2471 2.8367 59.5803 2.97933 59.889 3.03097C59.9357 3.331 60.0771 3.66053 59.9172 3.94949C59.1733 5.33894 58.4651 6.74684 57.7163 8.13383C57.4962 8.51255 57.3351 8.92077 57.1937 9.33269C58.7221 9.65485 60.2087 10.1491 61.7346 10.4848C62.2252 10.5906 62.7908 10.8008 62.9445 11.3357C62.7134 11.8964 62.1391 12.1829 61.6239 12.4338C60.6452 12.9748 59.6873 13.5588 58.668 14.0236C58.4602 13.6129 58.256 13.201 58.0482 12.7903C58.7872 12.3637 59.5533 11.9862 60.2849 11.546C58.9053 11.2742 57.5687 10.8193 56.1928 10.534C55.8694 10.4615 55.4526 10.3201 55.3972 9.94258C55.4612 9.05972 56.0784 8.3736 56.4264 7.59403C56.7609 6.80217 57.2429 6.08408 57.6044 5.30451C56.21 5.95128 54.8427 6.65462 53.4778 7.36041C53.1827 7.5178 52.8433 7.41205 52.5335 7.37147C52.0416 5.81725 51.7859 4.19787 51.2571 2.65471C50.8575 3.406 50.4296 4.14131 49.9808 4.86308C49.591 4.6147 49.2062 4.36017 48.8065 4.12655C49.339 3.15762 49.9046 2.20714 50.4739 1.25911Z" />
<path d="M31.8638 0.782043C32.336 0.786962 32.8069 0.785732 33.2791 0.784503C33.2816 1.48169 33.2816 2.17887 33.2791 2.87606C32.8143 2.8736 32.3508 2.88098 31.8872 2.8945C31.8835 2.18994 31.8614 1.48538 31.8638 0.782043Z" />
<path d="M39.0558 1.88004C39.9436 1.6833 40.8547 1.42263 41.7708 1.59477C42.0032 2.31778 42.1261 3.06661 42.2417 3.81544C42.3548 4.31957 42.4237 4.83355 42.4151 5.35121C41.6035 5.80247 40.6617 5.83567 39.7763 6.03856C39.9177 6.61893 40.0469 7.20422 40.2055 7.78214C40.8154 7.7723 41.4941 8.03912 41.7314 8.64409C41.9749 9.34005 42.2257 10.0594 42.2208 10.8057C42.2036 11.3418 41.7474 11.696 41.3478 11.98C41.5384 12.6292 41.788 13.26 42.0351 13.8896C42.4335 14.8966 42.7766 15.9246 43.1774 16.9304C44.8189 16.9943 46.4617 16.9009 48.1032 16.9292C47.3679 16.0955 47.3113 14.9286 47.3507 13.8724C47.3593 12.5948 47.2007 11.1832 47.9618 10.0692C48.9123 8.5531 51.101 8.12397 52.6318 8.97608C53.4618 9.4089 54.0336 10.2463 54.2586 11.1414C54.5242 12.2407 54.3619 13.3756 54.3853 14.4921C54.4246 15.354 54.202 16.2344 53.677 16.9292C55.3788 16.9501 57.0818 16.9931 58.7848 16.955C59.6332 16.971 60.5493 17.0337 61.2673 17.539C62.1576 18.1563 62.7367 19.1916 62.8154 20.27C62.8449 22.0332 62.8449 23.799 62.8277 25.5634C62.8326 26.616 63.4364 27.5849 63.3319 28.6461C63.07 29.0875 62.6666 29.5449 62.1182 29.5793C61.4161 29.6592 60.7067 29.6445 60.0046 29.5818C59.4463 29.5252 58.9409 29.0789 58.8733 28.512C58.727 27.4546 59.4672 26.4832 59.2631 25.4245C59.0024 24.0301 58.925 22.6099 58.684 21.2131C57.4863 21.2168 56.2899 21.1996 55.0923 21.1774C55.0911 24.6068 55.0874 28.0362 55.0935 31.4643C55.1329 32.1652 55.0333 32.8808 55.2202 33.5669C55.7821 35.9487 56.5174 38.2911 56.9613 40.6999C57.1457 41.5028 56.3944 42.2701 55.6087 42.259C54.2721 42.2283 52.9356 42.3192 51.6014 42.2381C51.2645 42.2467 50.9301 42.0131 50.8846 41.6688C50.8292 41.236 50.8624 40.7835 50.9731 40.3629C51.3186 39.6916 51.9826 39.2735 52.6552 38.9796C52.1339 37.5717 51.4305 36.2389 50.8465 34.8568C50.6005 34.2629 50.303 33.6776 50.2034 33.037C50.1222 32.3275 50.1726 31.6119 50.1062 30.9024C49.4435 31.5086 49.189 32.3939 48.8545 33.1956C48.8053 33.7255 48.9713 34.2518 49.0402 34.7769C49.3882 36.6987 49.6574 38.6329 49.9919 40.5572C50.1751 41.3282 49.5812 42.1864 48.7783 42.2319C47.6065 42.3242 46.4297 42.2123 45.2567 42.2713C44.7931 42.2615 44.1709 42.3697 43.8881 41.9012C43.759 41.429 43.8193 40.92 43.898 40.4441C44.2447 39.7322 44.9259 39.2231 45.6846 39.0202C45.2468 37.3959 44.6849 35.8097 44.1132 34.2297C43.9324 33.4145 43.9484 32.5205 44.3 31.7508C45.0501 30.0146 45.6735 28.2255 46.4346 26.493C46.5859 26.1623 46.6166 25.7934 46.6191 25.4331C46.5933 24.0154 46.6142 22.5989 46.6056 21.1811C45.2542 21.1676 43.9004 21.2672 42.5503 21.1713C41.3293 21.1086 40.2338 20.2946 39.6448 19.2531C38.6906 16.318 38.0869 13.2846 37.2544 10.3151C36.9507 9.19741 37.8631 8.22357 38.7853 7.7514C38.6525 7.23865 38.5246 6.72468 38.3734 6.21685C37.8618 6.39391 37.3184 6.41728 36.7933 6.52917C36.449 6.59926 36.0789 6.66197 35.7445 6.52056C35.4408 6.23284 35.4174 5.78403 35.3571 5.39671C35.2809 4.61099 34.9932 3.85232 35.0153 3.058C34.9932 2.74445 35.2772 2.53419 35.544 2.45303C36.706 2.20957 37.8852 2.08661 39.0558 1.88004ZM36.5548 3.71584C36.599 4.16587 36.6531 4.61591 36.7294 5.06102C38.1397 4.97249 39.5157 4.6405 40.9027 4.39335C40.8412 3.9261 40.7723 3.46008 40.6739 2.99898C39.3017 3.2449 37.9369 3.53017 36.5548 3.71584ZM38.6574 9.95977C38.8222 11.0787 39.3005 12.1214 39.5009 13.233C39.7407 13.1985 39.9805 13.1653 40.2215 13.1309C40.0309 12.5161 39.7075 11.9394 39.6177 11.2963C39.5538 10.9902 39.86 10.8156 40.021 10.6065C40.2952 10.6078 40.5694 10.6078 40.8436 10.6065C40.7293 10.1504 40.6223 9.69171 40.5227 9.23184C40.0899 9.21709 39.6546 9.16175 39.223 9.2134C38.8824 9.26381 38.5394 9.59211 38.6574 9.95977ZM48.8115 11.3554C50.1837 11.3099 51.5609 11.2275 52.9306 11.3787C52.5458 10.5635 51.7502 9.84295 50.796 9.91304C49.8947 9.89337 49.189 10.6016 48.8115 11.3554ZM49.1041 12.8272C48.5926 13.0879 48.6996 14.0396 49.3033 14.09C50.3632 14.1785 51.4367 14.1921 52.4966 14.0949C53.1593 13.9547 53.0696 12.7903 52.3847 12.7719C51.2953 12.7018 50.1862 12.676 49.1041 12.8272ZM39.828 14.6655C40.1145 15.4438 40.251 16.2676 40.5067 17.057C40.7158 17.7149 40.7576 18.4637 41.2383 19.001C41.6552 19.4732 42.2749 19.745 42.9045 19.7474C48.1549 19.7868 53.4065 19.7597 58.6569 19.7671C59.2951 19.7474 59.8939 20.2393 60.0205 20.8602C60.2369 21.8955 60.2935 22.9542 60.4706 23.9957C60.7878 23.9834 61.1063 23.9711 61.4247 23.9576C61.4002 22.6911 61.4776 21.4221 61.3805 20.1569C61.3018 19.1597 60.355 18.4145 59.3934 18.358C54.1049 18.3444 48.8139 18.358 43.5254 18.3739C42.977 18.3752 42.3106 18.2522 42.0376 17.7161C41.4916 16.6709 41.156 15.5336 40.749 14.4306C40.4416 14.5068 40.1354 14.588 39.828 14.6655ZM48.8066 15.4881C49.1988 16.339 50.0669 17.0509 51.0493 16.9267C51.9138 16.9058 52.5704 16.216 52.9319 15.4868C51.5572 15.5397 50.1812 15.5385 48.8066 15.4881ZM48.0528 21.1627C48.0516 21.6238 48.0516 22.0837 48.0516 22.5448C49.923 22.5853 51.7945 22.578 53.6659 22.5829C53.6807 22.1058 53.6782 21.6287 53.677 21.1528C51.8019 21.1098 49.9267 21.2217 48.0528 21.1627ZM48.0516 23.9613C48.0516 24.4334 48.0516 24.9044 48.0516 25.3765C49.9267 25.3704 51.8019 25.4011 53.677 25.3446C53.6758 24.8773 53.6758 24.4101 53.677 23.9428C51.8019 23.9994 49.9267 23.9305 48.0516 23.9613ZM60.7116 25.3778C60.805 26.3467 60.4177 27.2578 60.2296 28.1899C60.8001 28.1972 61.3719 28.1751 61.9436 28.1579C61.667 27.2517 61.4038 26.3319 61.3645 25.379C61.1456 25.3778 60.928 25.3778 60.7116 25.3778ZM47.7774 26.8484C47.2056 28.3854 46.592 29.9064 45.9674 31.4225C45.6612 32.1689 45.2468 32.9693 45.5026 33.7944C45.8985 35.0732 46.4039 36.3188 46.747 37.616C46.9093 38.237 47.2966 38.8013 47.3003 39.4592C47.2868 39.6387 47.2978 39.8686 47.1072 39.9609C46.5256 40.331 45.8075 40.3949 45.2173 40.7527C46.3498 40.8843 47.4946 40.8659 48.6332 40.8277C48.1979 38.5554 47.936 36.2548 47.5056 33.9813C47.4122 33.5448 47.379 33.0812 47.5548 32.6595C47.968 31.661 48.4881 30.7106 48.9566 29.7379C49.639 29.5732 50.3522 29.5449 51.0469 29.647C51.2768 29.674 51.4932 29.8707 51.524 30.1031C51.6531 31.0081 51.4723 31.9266 51.6064 32.8316C51.6826 33.2792 51.8916 33.6862 52.0761 34.0969C52.7819 35.7987 53.5946 37.4549 54.3066 39.1542C54.4492 39.4653 54.4025 39.8674 54.0742 40.0359C53.484 40.3506 52.8089 40.4564 52.2162 40.7675C53.329 40.9421 54.4553 40.8179 55.5743 40.8646C55.0185 38.5481 54.4935 36.2241 53.8479 33.9309C53.5909 33.1329 53.7127 32.2906 53.6918 31.4692C53.6967 29.9162 53.6868 28.362 53.6758 26.8078C51.7096 26.8742 49.7398 26.6713 47.7774 26.8484Z" />
<path d="M27.8787 2.66455C28.2107 2.33747 28.539 2.00671 28.871 1.67841C29.3309 2.14074 29.7993 2.59446 30.2432 3.07155C29.9248 3.39985 29.6469 3.77734 29.2694 4.0417C28.7566 3.64454 28.3287 3.13426 27.8787 2.66455Z" />
<path d="M26.9491 5.68567C27.6549 5.69059 28.3619 5.71026 29.0689 5.70534C29.0542 6.17259 29.0493 6.63984 29.037 7.10709C28.341 7.08004 27.6451 7.08865 26.9491 7.10586C26.9467 6.63246 26.9479 6.15907 26.9491 5.68567Z" />
<path d="M7.64804 18.0789C8.27267 16.7521 9.76049 15.9603 11.1979 15.9701C16.6475 15.9738 22.0971 15.9689 27.5455 15.9726C29.0124 15.9824 30.4941 16.8517 31.0732 18.224C31.9512 19.9344 32.8586 21.63 33.7242 23.3477C34.8247 23.3576 35.9252 23.3354 37.0257 23.3564C37.8569 23.3674 38.5886 24.1039 38.6107 24.9315C38.6168 25.636 38.623 26.3418 38.607 27.0476C38.6033 27.4964 38.3475 27.8874 38.0438 28.1985C37.5999 28.6646 37.1634 29.1379 36.7257 29.6101C36.722 32.5218 36.7232 35.4335 36.7245 38.3464C36.7097 39.2256 36.7319 40.1515 36.3138 40.9532C35.6437 42.3168 34.0821 43.1825 32.5684 42.9673C30.9134 42.7865 29.5288 41.3553 29.3628 39.7039C22.6627 39.7015 15.9638 39.7015 9.26496 39.7039C9.14938 40.5179 8.81124 41.3123 8.21365 41.8902C7.49556 42.6415 6.44671 43.0509 5.40893 42.9907C4.08095 42.9341 2.83291 42.0808 2.27836 40.877C1.923 40.1736 1.91193 39.3682 1.90947 38.5985C1.91439 35.6167 1.9021 32.6337 1.91562 29.6519C1.4078 29.1035 0.896282 28.5588 0.388456 28.0104C-0.0923193 27.4768 0.0121967 26.7156 0.00481904 26.0553C0.0281815 25.459 -0.0886305 24.8171 0.195408 24.2638C0.46715 23.6945 1.09548 23.3281 1.72381 23.349C2.78249 23.3416 3.84118 23.36 4.89987 23.3404C5.80732 21.582 6.73813 19.836 7.64804 18.0789ZM9.34366 18.1883C9.05593 18.4552 8.92682 18.8376 8.74607 19.1757C7.90625 20.7582 7.08611 22.3493 6.24875 23.933C6.11841 24.1703 6.02496 24.4372 5.83314 24.6351C5.55402 24.8872 5.15071 24.8147 4.80642 24.827C3.70716 24.8343 2.60543 24.7962 1.50617 24.8491C1.45698 25.5758 1.48526 26.3049 1.48526 27.0341C1.97587 27.5259 2.4296 28.0522 2.91283 28.5514C3.11818 28.7887 3.40836 29.0261 3.385 29.3728C3.38992 32.4493 3.38254 35.5257 3.38869 38.6022C3.40344 39.1617 3.35918 39.7556 3.62477 40.2695C4.00595 41.0762 4.9011 41.611 5.79625 41.5102C6.7701 41.4389 7.58164 40.6446 7.77714 39.7039C7.15005 39.6978 6.52295 39.7076 5.89585 39.7039C5.57738 39.7285 5.2417 39.5859 5.10767 39.2822C4.84085 38.826 5.25154 38.2026 5.76797 38.2296C14.749 38.2223 23.73 38.2309 32.7123 38.2259C33.0246 38.2026 33.3701 38.3415 33.4992 38.6465C33.7058 39.051 33.4402 39.6351 32.9717 39.6818C32.2635 39.7347 31.5515 39.683 30.842 39.7076C30.9712 40.1503 31.1605 40.5917 31.511 40.9065C32.1737 41.5828 33.3037 41.7131 34.1116 41.2225C34.8198 40.8278 35.2514 40.0199 35.2194 39.2121C35.2883 35.8922 35.2207 32.5685 35.2539 29.2486C35.2908 28.8342 35.6867 28.592 35.9326 28.2969C36.3113 27.8506 36.7589 27.4645 37.1106 26.9972C37.1696 26.3148 37.1388 25.6225 37.1266 24.9376C37.0983 24.913 37.0392 24.8626 37.011 24.8368C35.7801 24.8011 34.5481 24.8405 33.3172 24.822C33.0295 24.8393 32.7492 24.6806 32.6336 24.415C31.6069 22.4833 30.6207 20.532 29.5989 18.599C29.0862 17.6633 27.9279 17.3485 26.9282 17.4456C21.684 17.4493 16.4397 17.4456 11.1967 17.4469C10.5106 17.4333 9.83919 17.7223 9.34366 18.1883Z" />
<path d="M8.40916 23.3994C8.55425 23.36 8.70303 23.3428 8.8555 23.3477C15.8704 23.3527 22.8865 23.3453 29.9026 23.3502C30.4498 23.2973 30.8925 23.9429 30.5986 24.4249C30.4203 24.8552 29.9051 24.8442 29.5153 24.8282C22.5853 24.8196 15.6564 24.8282 8.72639 24.8233C8.40301 24.8417 8.06979 24.6425 7.97757 24.3228C7.84846 23.965 8.04519 23.5223 8.40916 23.3994Z" />
<path d="M11.3492 25.7258C11.7426 25.5623 12.1103 25.8315 12.3648 26.1082C12.8185 26.5127 13.2452 26.9505 13.7223 27.328C14.1551 27.6636 14.7146 27.7842 15.2531 27.7768C18.1194 27.7731 20.9856 27.7768 23.8518 27.7755C24.4125 27.7829 24.9941 27.6255 25.4207 27.248C25.947 26.7869 26.4425 26.2914 26.9762 25.8389C27.3746 25.4786 28.105 25.7701 28.1529 26.3037C28.2451 26.7808 27.8 27.0771 27.4951 27.3538C26.8532 27.9034 26.295 28.5859 25.5019 28.9228C24.9891 29.1576 24.4223 29.2511 23.8616 29.2511C20.9917 29.2511 18.123 29.2511 15.2531 29.2511C14.658 29.2548 14.0555 29.1588 13.512 28.9068C12.7681 28.592 12.2345 27.9624 11.6369 27.4448C11.3885 27.2087 11.0909 27.0058 10.9274 26.6972C10.7491 26.3271 10.9766 25.866 11.3492 25.7258Z" />
<path d="M5.13965 31.4237C5.30196 31.0991 5.70404 31.0192 6.03111 31.0905C7.33695 31.2713 8.64279 31.4508 9.94863 31.6303C11.145 31.8012 12.1718 32.8329 12.2972 34.0416C12.3439 34.7424 12.3033 35.4482 12.3156 36.1516C10.1355 36.1467 7.95421 36.1626 5.77535 36.1442C5.32655 36.17 4.94414 35.7065 5.04497 35.2724C5.08309 34.922 5.43107 34.649 5.77904 34.6785C7.46852 34.6711 9.15922 34.6797 10.8487 34.676C10.9434 33.9924 10.5229 33.2509 9.82198 33.112C8.42146 32.8882 7.00865 32.737 5.60813 32.5156C5.12489 32.4382 4.86422 31.8271 5.13965 31.4237Z" />
<path d="M28.6657 31.6561C30.0145 31.4705 31.3646 31.2811 32.7147 31.1053C33.1574 30.9995 33.605 31.3844 33.5939 31.832C33.6025 32.1836 33.316 32.5144 32.9656 32.55C31.5884 32.7603 30.2039 32.9189 28.8267 33.128C28.1037 33.2435 27.6906 34.0022 27.7644 34.692C29.4575 34.6957 31.1507 34.6859 32.8426 34.6945C33.3086 34.6871 33.6911 35.1888 33.546 35.6363C33.4537 35.9339 33.1562 36.1823 32.834 36.1614C30.6564 36.1761 28.48 36.1626 26.3024 36.1675C26.3196 35.4593 26.2667 34.7498 26.3294 34.044C26.4585 32.8427 27.4742 31.8246 28.6657 31.6561Z" />
<path d="M16.784 34.724C18.3616 34.6465 19.9465 34.7154 21.5278 34.6896C21.9889 34.6293 22.4476 35.0597 22.3627 35.5294C22.3086 35.8687 22.0086 36.1897 21.6446 36.1614C20.0486 36.1663 18.4489 36.1835 16.8541 36.1528C16.1077 36.063 16.0585 34.8924 16.784 34.724Z" />
</svg>
