<svg   viewBox="0 0 49 52"  xmlns="http://www.w3.org/2000/svg">
<path fill-rule="evenodd" clip-rule="evenodd" d="M35.0315 30.3063C35.3111 30.6119 35.2901 31.0863 34.9846 31.3659L33.2302 32.9716C32.3887 33.7732 31.2732 34.1582 30.1524 34.1582H19.1739C18.0352 34.1582 16.9292 33.7322 16.1026 32.9775L14.3418 31.3659C14.0362 31.0863 14.0152 30.6119 14.2949 30.3063C14.5746 30.0008 15.049 29.9798 15.3545 30.2594L17.114 31.8698C17.1141 31.8699 17.1139 31.8697 17.114 31.8698C17.6597 32.3679 18.4036 32.6582 19.1739 32.6582H30.1524C30.9382 32.6582 31.6696 32.3887 32.1997 31.8817L32.2117 31.8704L33.9719 30.2594C34.2774 29.9798 34.7518 30.0008 35.0315 30.3063Z" />
<path fill-rule="evenodd" clip-rule="evenodd" d="M41.9636 37.3936C42.0198 37.804 41.7327 38.1822 41.3223 38.2384L36.3123 38.9243C36.312 38.9243 36.3126 38.9242 36.3123 38.9243C35.4023 39.0517 34.751 39.8071 34.751 40.7173V41.2202H41.1907C41.6049 41.2202 41.9407 41.556 41.9407 41.9702C41.9407 42.3844 41.6049 42.7202 41.1907 42.7202H33.251V40.7173C33.251 39.0621 34.4498 37.6696 36.105 37.4387L36.1069 37.4384L41.1188 36.7522C41.5292 36.696 41.9074 36.9832 41.9636 37.3936Z" />
<path fill-rule="evenodd" clip-rule="evenodd" d="M6.85581 37.3936C6.91199 36.9832 7.29022 36.696 7.70061 36.7522L12.7169 37.439C14.3328 37.6698 15.5684 39.0546 15.5684 40.7173V42.7202H7.59888C7.18466 42.7202 6.84888 42.3844 6.84888 41.9702C6.84888 41.556 7.18466 41.2202 7.59888 41.2202H14.0684V40.7173C14.0684 39.8149 13.3958 39.0522 12.5067 38.9242L7.49715 38.2384C7.08676 38.1822 6.79962 37.804 6.85581 37.3936Z" />
<path fill-rule="evenodd" clip-rule="evenodd" d="M3.72058 33.6725C4.13479 33.6725 4.47058 34.0083 4.47058 34.4225V46.3557C4.47058 46.7699 4.13479 47.1057 3.72058 47.1057C3.30637 47.1057 2.97058 46.7699 2.97058 46.3557V34.4225C2.97058 34.0083 3.30637 33.6725 3.72058 33.6725Z" />
<path fill-rule="evenodd" clip-rule="evenodd" d="M11.633 20.8086L7.72623 28.2669C7.59678 28.514 7.34085 28.6689 7.06186 28.6689H2.52725C2.2976 28.6689 2.11377 28.8575 2.11377 29.0824V31.4392C2.11377 31.4915 2.12485 31.5514 2.14715 31.6057C2.16926 31.6596 2.19586 31.6928 2.21564 31.7101C2.23494 31.727 2.25335 31.7448 2.27082 31.7636L4.26962 33.9116C4.5518 34.2148 4.53473 34.6894 4.23149 34.9715C3.92826 35.2537 3.45369 35.2366 3.17152 34.9334L1.19506 32.8094C0.788037 32.4339 0.61377 31.8997 0.61377 31.4392V29.0824C0.61377 28.0543 1.44426 27.1689 2.52725 27.1689H6.60806L10.3354 20.053C10.3552 20.0153 10.3782 19.9793 10.404 19.9454C11.3166 18.7521 12.7569 18.0102 14.2814 18.0102H34.5678C36.0824 18.0102 37.5311 18.7147 38.4515 19.9538C38.4748 19.9852 38.4957 20.0183 38.5138 20.053L42.2412 27.1689H46.322C47.3501 27.1689 48.2355 27.9994 48.2355 29.0824V31.4392C48.2355 31.9393 48.0546 32.4417 47.6538 32.8098L45.8787 34.7175V46.3557C45.8787 46.7699 45.5429 47.1057 45.1287 47.1057C44.7145 47.1057 44.3787 46.7699 44.3787 46.3557V34.4225C44.3787 34.2329 44.4505 34.0504 44.5796 33.9116L46.5784 31.7636C46.5959 31.7448 46.6143 31.727 46.6336 31.7101C46.6875 31.6629 46.7355 31.5821 46.7355 31.4392V29.0824C46.7355 28.8527 46.5468 28.6689 46.322 28.6689H41.7874C41.5084 28.6689 41.2525 28.514 41.123 28.2669L37.2138 20.8038C36.5814 19.9819 35.6004 19.5102 34.5678 19.5102H14.2814C13.2604 19.5102 12.2732 20.0018 11.633 20.8086Z" />
<path fill-rule="evenodd" clip-rule="evenodd" d="M37.7898 45.6057C38.204 45.6057 38.5398 45.9414 38.5398 46.3557V46.8031C38.5398 48.3877 39.8448 49.6928 41.4294 49.6928C43.014 49.6928 44.319 48.3877 44.319 46.8031V46.3557C44.319 45.9414 44.6548 45.6057 45.069 45.6057C45.4832 45.6057 45.819 45.9414 45.819 46.3557V46.8031C45.819 49.2162 43.8424 51.1928 41.4294 51.1928C39.0164 51.1928 37.0398 49.2162 37.0398 46.8031V46.3557C37.0398 45.9414 37.3756 45.6057 37.7898 45.6057Z" />
<path fill-rule="evenodd" clip-rule="evenodd" d="M3.75037 45.6057C4.16458 45.6057 4.50037 45.9414 4.50037 46.3557V46.8031C4.50037 48.3877 5.80539 49.6928 7.38999 49.6928C8.97458 49.6928 10.2796 48.3877 10.2796 46.8031V46.3557C10.2796 45.9414 10.6154 45.6057 11.0296 45.6057C11.4438 45.6057 11.7796 45.9414 11.7796 46.3557V46.8031C11.7796 49.2162 9.803 51.1928 7.38999 51.1928C4.97696 51.1928 3.00037 49.2162 3.00037 46.8031V46.3557C3.00037 45.9414 3.33615 45.6057 3.75037 45.6057Z" />
<path fill-rule="evenodd" clip-rule="evenodd" d="M6.84888 46.3557C6.84888 45.9414 7.18466 45.6057 7.59888 45.6057H41.1908C41.605 45.6057 41.9408 45.9414 41.9408 46.3557C41.9408 46.7699 41.605 47.1057 41.1908 47.1057H7.59888C7.18466 47.1057 6.84888 46.7699 6.84888 46.3557Z" />
<path fill-rule="evenodd" clip-rule="evenodd" d="M20.7809 41.9702C20.7809 41.5559 21.1167 41.2202 21.5309 41.2202H27.2886C27.7029 41.2202 28.0386 41.5559 28.0386 41.9702C28.0386 42.3844 27.7029 42.7202 27.2886 42.7202H21.5309C21.1167 42.7202 20.7809 42.3844 20.7809 41.9702Z" />
<path fill-rule="evenodd" clip-rule="evenodd" d="M10.4585 27.919C10.4585 27.5048 10.7943 27.169 11.2085 27.169H37.6106C38.0249 27.169 38.3606 27.5048 38.3606 27.919C38.3606 28.3332 38.0249 28.669 37.6106 28.669H11.2085C10.7943 28.669 10.4585 28.3332 10.4585 27.919Z" />
<path fill-rule="evenodd" clip-rule="evenodd" d="M26.1797 3.33862C24.2065 4.0556 22.4177 5.14828 21.1635 6.7268L21.162 6.72876C18.8349 9.63755 18.0984 14.657 19.1809 18.5598C19.2916 18.9589 19.0578 19.3722 18.6586 19.483C18.2595 19.5937 17.8462 19.3598 17.7355 18.9607C16.5508 14.6897 17.3056 9.14893 19.9899 5.7927C21.8595 3.44017 24.6584 2.09543 27.4312 1.38682L29.1742 0.941376L28.264 2.4926L28.2635 2.49347L28.2603 2.49904L28.2453 2.52515C28.2317 2.54907 28.2111 2.5858 28.1846 2.63425C28.1314 2.73121 28.0548 2.8748 27.9637 3.05631C27.7811 3.42015 27.5426 3.93205 27.319 4.52313C26.86 5.73614 26.5125 7.15795 26.7148 8.30817L26.7154 8.31159C26.849 9.09294 27.4291 9.58522 28.1362 9.71847C28.8502 9.85305 29.6171 9.60387 30.0702 8.94006L30.0723 8.93707C30.2622 8.66167 30.4456 8.36992 30.636 8.06709C31.5823 6.56212 32.7006 4.78342 35.6441 3.37714C38.2037 2.13026 41.2625 1.90876 43.9759 2.73875L45.7146 3.27058L44.1066 4.11924C42.0862 5.18554 39.7492 7.46726 38.6582 9.48142L38.6525 9.49195C38.1459 10.3926 37.829 11.2668 37.8535 12.1463C37.8779 13.0251 38.2899 13.8078 38.9423 14.1573C39.7584 14.5714 40.9866 14.2266 41.8082 13.3536C42.2165 12.9199 42.6714 12.2143 43.0844 11.4243C43.4931 10.6428 43.8329 9.83284 44.0263 9.22496L44.4814 7.79481L45.3519 9.01731C46.86 11.135 47.5657 13.8254 47.2763 16.3978L47.276 16.3999C47.0842 18.0621 46.5086 19.6996 45.5716 21.0889L45.5679 21.0945C45.2095 21.6158 44.7871 22.1035 44.3311 22.5275C43.5069 23.3175 42.5302 23.8998 41.5088 24.3155L40.1122 24.9098C39.7311 25.072 39.2906 24.8945 39.1284 24.5133C38.9663 24.1322 39.1438 23.6917 39.5249 23.5296L40.9384 22.9281C41.8223 22.569 42.6319 22.0795 43.2968 21.4412L43.3058 21.4325C43.6826 21.0826 44.0336 20.6779 44.3299 20.2474C45.1219 19.072 45.6196 17.668 45.7858 16.2292C45.9788 14.512 45.6516 12.7213 44.8826 11.1526C44.7388 11.4731 44.5809 11.7996 44.4137 12.1194C43.9765 12.9554 43.4469 13.8011 42.9005 14.3817C41.8145 15.5355 39.8837 16.3248 38.2535 15.4898L38.2435 15.4847C36.9895 14.8185 36.3892 13.4549 36.3541 12.188C36.3189 10.9218 36.7761 9.76916 37.3421 8.76178C38.2932 7.00849 40.0225 5.13206 41.8046 3.81285C39.9309 3.59606 37.9831 3.90563 36.2988 4.72676L36.2933 4.72943C33.7627 5.93775 32.8713 7.34618 31.9412 8.81592C31.7379 9.13728 31.5326 9.46157 31.308 9.78734C30.4781 11.0017 29.0829 11.4233 27.8584 11.1925C26.6268 10.9604 25.4919 10.0512 25.2371 8.56621C24.9627 7.00208 25.4354 5.2624 25.916 3.99229C26.0032 3.762 26.0922 3.54305 26.1797 3.33862Z" />
</svg>
