<svg   viewBox="0 0 50 50"  xmlns="http://www.w3.org/2000/svg">
<path d="M12.6312 0.685493C12.6804 0.29483 13.0528 -0.0144181 13.4447 0.000728754C24.3 9.76345e-05 35.1558 -0.000533485 46.0111 0.000728754C46.3847 -0.0144181 46.7375 0.26643 46.8082 0.633742C46.9249 1.11213 46.5071 1.62712 46.013 1.60251C41.7258 1.59998 37.4392 1.60314 33.152 1.60062C33.1539 2.46841 33.1508 3.33556 33.1533 4.20335C33.3723 4.20272 33.6102 4.18505 33.8059 4.30496C34.0659 4.45075 34.218 4.75179 34.2092 5.04716C34.2129 6.17623 34.206 7.3053 34.2123 8.43437C35.9138 8.43185 37.6159 8.43311 39.3181 8.43374C40.201 8.44889 41.0151 8.88499 41.6759 9.44353C42.6744 10.3038 43.4203 11.4145 44.042 12.5663C44.5002 13.4101 44.8694 14.2987 45.1944 15.2019C45.3175 15.5086 45.414 15.826 45.5535 16.1258C45.9019 16.4635 46.2844 16.7658 46.6359 17.1003C46.8599 17.3376 46.8574 17.6828 46.8284 17.987C46.771 19.0927 46.3279 20.1921 45.5302 20.9709C44.7331 21.7882 43.6412 22.2578 42.5349 22.4761C41.8747 22.6099 41.2007 22.6434 40.5292 22.644C40.5248 23.0896 40.5349 23.5352 40.5254 23.9807C40.521 24.4263 40.0748 24.8081 39.6336 24.7406C39.2543 24.704 38.9306 24.3651 38.9306 23.9807C38.9217 23.5352 38.9293 23.089 38.928 22.644C36.3083 22.6396 33.6891 22.6415 31.0693 22.6428C31.0706 27.633 31.0693 32.6239 31.0706 37.6142C31.0958 38.0616 30.6768 38.4674 30.2312 38.434C29.8115 38.4207 29.4455 38.0358 29.4688 37.6129C29.4676 32.6252 29.4688 27.6374 29.4682 22.6491C27.5426 22.6535 25.6171 22.6421 23.6922 22.6548C23.6934 23.0965 23.696 23.5377 23.6928 23.9788C23.6934 24.4137 23.282 24.7917 22.8503 24.7614C22.4514 24.7412 22.0999 24.3903 22.0942 23.9889C22.0879 23.5427 22.0948 23.0965 22.0923 22.651C21.7433 22.6882 21.3438 22.5998 21.1595 22.271C20.5088 20.9817 19.8682 19.6872 19.2194 18.3966C15.8625 18.0583 12.5056 17.7263 9.14868 17.3849C8.81797 17.3679 8.52197 17.1243 8.43803 16.8049C8.11869 15.6891 7.79934 14.5739 7.48946 13.4556C6.53584 14.2968 5.58853 15.1463 4.6387 15.992C4.45757 16.1624 4.24299 16.3341 3.97981 16.3297C3.51909 16.3556 3.11139 15.9125 3.16125 15.4562C3.18334 15.2353 3.30199 15.0302 3.47365 14.8907C4.65258 13.857 5.82331 12.8131 7.00476 11.7818C6.81417 11.0971 6.61599 10.4148 6.42098 9.73132C6.35597 9.50412 6.26509 9.26493 6.33704 9.02826C6.42477 8.67609 6.77314 8.41544 7.13604 8.43248C7.84983 8.43564 8.56426 8.42806 9.27869 8.43627C9.64537 8.44005 9.865 8.76256 10.1055 8.99039C11.0515 8.15984 11.9818 7.31161 12.9278 6.48106C13.2705 6.18191 13.8625 6.28226 14.0954 6.67103C14.3207 6.99164 14.2494 7.46624 13.9502 7.71553C13.0376 8.53472 12.1225 9.35076 11.2105 10.1706C11.622 10.6263 12.0537 11.0636 12.4658 11.518C12.5302 11.6177 12.6533 11.5957 12.7549 11.5988C15.0017 11.5893 17.2491 11.6076 19.4952 11.5893C20.411 11.0668 21.3021 10.4975 22.2128 9.96358C22.3283 9.89478 22.452 9.83104 22.5404 9.72565C23.0958 9.10652 23.855 8.67609 24.6704 8.51011C25.205 8.39461 25.7541 8.44321 26.2962 8.43248C26.2968 7.36778 26.2981 6.30309 26.2956 5.23902C26.2766 4.95754 26.3126 4.64387 26.5385 4.44696C26.7424 4.22229 27.0624 4.20272 27.3457 4.21029C27.3502 3.34377 27.3394 2.47724 27.3508 1.61071C22.695 1.58799 18.038 1.61071 13.3822 1.59935C12.9259 1.5962 12.5498 1.13233 12.6312 0.685493ZM28.9469 1.60251C28.9475 2.47219 28.9494 3.34124 28.9456 4.21093C29.8191 4.21471 30.6919 4.21156 31.5648 4.21219C31.566 3.34187 31.5711 2.47093 31.5622 1.60062C30.6907 1.60377 29.8185 1.59998 28.9469 1.60251ZM27.8986 5.80639C27.8986 6.67671 27.8986 7.54702 27.8986 8.41733C29.4657 8.41797 31.0327 8.41733 32.5998 8.41733C32.6004 7.54702 32.6004 6.67671 32.5998 5.80639C31.0327 5.80639 29.4657 5.80639 27.8986 5.80639ZM8.14204 10.0033C8.69995 11.9453 9.25912 13.8872 9.81072 15.8317C13.1449 16.1662 16.4785 16.5001 19.8121 16.8365C20.067 16.8687 20.3132 17.0208 20.4249 17.2568C21.0579 18.5178 21.684 19.7819 22.3201 21.0416C23.6455 21.0391 24.9708 21.0397 26.2956 21.041C26.2987 18.4881 26.2943 15.9346 26.2981 13.3811C26.3006 12.9759 26.6704 12.6212 27.0731 12.6231C29.1772 12.6212 31.2814 12.6231 33.3862 12.6219C33.8305 12.5922 34.2256 12.9974 34.2079 13.4379C34.2123 15.9744 34.2085 18.5108 34.2098 21.0479C36.3764 21.0479 38.5424 21.0473 40.7091 21.0479C41.3484 21.0536 41.9909 20.9854 42.6094 20.8201C43.3421 20.627 44.0527 20.2641 44.5431 19.6727C44.9464 19.2044 45.149 18.5967 45.2108 17.9883C44.9874 17.7939 44.7747 17.5862 44.5437 17.4007C44.3809 17.3723 44.2149 17.3912 44.0515 17.3874C42.2641 17.3868 40.4762 17.3893 38.6888 17.3862C38.3064 17.3982 37.9277 17.1142 37.8791 16.7273C37.6096 14.4912 37.3528 12.2533 37.0833 10.0172C33.2221 10.0223 29.3609 10.0172 25.5003 10.0191C24.9405 10.0103 24.3795 10.2028 23.9516 10.5657C23.7471 10.7222 23.6177 10.9607 23.3924 11.092C22.3466 11.7276 21.2952 12.3543 20.2507 12.9911C20.0841 13.0965 19.8947 13.1772 19.694 13.1678C17.1677 13.1627 14.6413 13.1728 12.1156 13.1627C11.6902 13.1457 11.4706 12.738 11.1929 12.4792C10.4298 11.6341 9.6157 10.837 8.84006 10.0033C8.60717 10.004 8.37492 10.0033 8.14204 10.0033ZM38.6983 10.021C38.9261 11.9396 39.1502 13.8588 39.3768 15.7781C40.8132 15.7787 42.249 15.7781 43.6854 15.7781C43.368 14.8548 42.9937 13.9491 42.5122 13.0983C41.9928 12.1845 41.3844 11.3022 40.5803 10.6143C40.2925 10.3789 39.9725 10.1693 39.6103 10.0721C39.3124 9.99324 39.0025 10.0223 38.6983 10.021ZM27.903 14.2211C27.8929 16.4944 27.9011 18.7671 27.8986 21.0397C29.4657 21.0397 31.0327 21.0404 32.5998 21.0397C32.6011 18.7683 32.5998 16.4969 32.6004 14.2249C31.0346 14.2211 29.4688 14.228 27.903 14.2211Z" />
<path d="M15.3538 29.4247C15.9364 28.8144 16.7581 28.413 17.6101 28.4149C18.5132 28.3966 19.3848 28.832 19.9894 29.4897C21.3406 30.9532 21.4208 33.3691 20.2381 34.9564C21.1406 35.277 21.9724 35.8185 22.5764 36.5677C23.3135 37.4563 23.7256 38.6112 23.7073 39.7662C23.7004 40.2016 23.2756 40.5658 22.8459 40.5248C22.435 40.5008 22.0841 40.1158 22.1074 39.7024C22.1055 38.6743 21.6051 37.6683 20.7953 37.0372C20.2008 36.5658 19.4422 36.307 18.6836 36.3127C17.9894 36.3127 17.2952 36.3133 16.6009 36.3127C15.7735 36.3051 14.9474 36.615 14.3302 37.1653C13.6063 37.7946 13.1733 38.7406 13.1689 39.6999C13.1954 40.1354 12.8092 40.5279 12.3775 40.5273C11.9603 40.5425 11.5734 40.177 11.5703 39.7586C11.5457 38.4061 12.1231 37.0637 13.0988 36.1303C13.6397 35.5919 14.3201 35.2152 15.0358 34.9615C14.5397 34.2388 14.2304 33.383 14.2115 32.5026C14.1743 31.3824 14.5624 30.2312 15.3538 29.4247ZM17.4504 30.0147C17.032 30.0741 16.6558 30.3202 16.3901 30.6427C15.6233 31.585 15.6227 33.0479 16.3441 34.0154C16.6401 34.4149 17.1033 34.721 17.6132 34.7216C18.1409 34.7387 18.6268 34.4275 18.9342 34.0154C19.6663 33.0391 19.6423 31.5629 18.8616 30.6213C18.5252 30.2117 17.9881 29.9346 17.4504 30.0147Z" />
<path d="M17.1399 41.0677C18.4028 40.9124 19.7073 41.098 20.8717 41.6136C21.3715 41.82 21.8165 42.1317 22.2791 42.4075C23.7805 43.2816 25.7073 43.3504 27.2763 42.612C27.8664 42.3381 28.3744 41.9178 28.9721 41.659C30.2053 41.091 31.6032 40.8916 32.9469 41.0872C34.0173 41.2355 35.0422 41.6483 35.9359 42.2529C37.6607 43.3927 40.0445 43.4072 41.7813 42.2857C43.6431 41.1043 46.0666 40.8783 48.1146 41.6963C48.6845 41.9336 49.2449 42.2182 49.7239 42.6126C50.0244 42.8594 50.0736 43.3403 49.8413 43.6496C49.6072 43.9923 49.0897 44.0869 48.7514 43.8459C47.0133 42.5268 44.4655 42.4637 42.6453 43.6553C40.5424 44.9939 37.7118 45.0904 35.5364 43.8635C35.1198 43.6306 34.7336 43.3435 34.2994 43.1415C32.7494 42.393 30.839 42.4435 29.3356 43.2848C28.8251 43.577 28.3391 43.9172 27.7925 44.1418C25.8279 44.9983 23.4719 44.896 21.5962 43.8541C21.1399 43.5997 20.7196 43.2797 20.2362 43.0759C18.9121 42.4877 17.3513 42.4612 16.007 43.002C15.3425 43.2431 14.7991 43.7146 14.1623 44.0106C12.0707 45.0437 9.46106 44.9396 7.46609 43.7272C7.00663 43.4394 6.52067 43.1876 5.99811 43.0368C4.42031 42.5502 2.61972 42.8329 1.28617 43.813C0.92075 44.104 0.323711 43.9809 0.0996638 43.5745C-0.0934587 43.2362 0.00247169 42.7704 0.314876 42.5375C2.3212 41.0386 5.16061 40.7963 7.41244 41.8768C7.77723 42.044 8.11677 42.2592 8.46263 42.4624C9.96848 43.2905 11.8764 43.3397 13.4207 42.583C13.8701 42.3728 14.2664 42.0686 14.7044 41.8383C15.4592 41.4331 16.2904 41.175 17.1399 41.0677Z" />
<path d="M17.1967 46.3698C18.5227 46.2152 19.8985 46.414 21.1058 46.9902C21.7325 47.271 22.2639 47.7267 22.9064 47.9779C24.2766 48.5383 25.8727 48.5219 27.2308 47.9331C27.5868 47.7772 27.9162 47.5702 28.2438 47.3626C29.9579 46.2789 32.1529 46.0227 34.0823 46.6292C34.3038 46.7018 34.5581 46.7567 34.7058 46.9536C34.9816 47.2786 34.9135 47.8264 34.5682 48.077C34.3448 48.2474 34.0343 48.3067 33.7699 48.2032C32.4552 47.7488 30.969 47.8088 29.701 48.3824C29.275 48.5718 28.8957 48.8457 28.495 49.0792C26.3927 50.2985 23.6417 50.3105 21.535 49.0943C21.215 48.9132 20.9146 48.6993 20.5902 48.5263C18.8565 47.6068 16.6249 47.7198 15.0004 48.8242C12.7353 50.3446 9.56644 50.3717 7.28179 48.8791C6.35783 48.2985 5.24959 48.0505 4.16532 48.0883C3.75573 48.1035 3.40924 47.7349 3.40293 47.3342C3.36822 46.9069 3.73175 46.4859 4.16974 46.4992C5.41431 46.45 6.67339 46.7365 7.77154 47.3266C8.20764 47.5664 8.62797 47.8409 9.09626 48.0183C10.7239 48.6431 12.657 48.4758 14.1137 47.4989C15.0332 46.8848 16.0973 46.491 17.1967 46.3698Z" />
<path d="M45.1534 46.4813C45.5636 46.482 46.0622 46.3898 46.379 46.7199C46.6807 46.9906 46.6958 47.505 46.4093 47.7928C46.2231 48.0213 45.9151 48.1058 45.6305 48.0699C44.5727 48.0421 43.5131 48.3564 42.6276 48.932C42.3682 49.1011 42.0508 49.257 41.7371 49.1472C41.2739 49.0191 41.0151 48.4264 41.2594 48.0061C41.3793 47.7467 41.6614 47.6451 41.8867 47.5012C42.8674 46.8941 44.0022 46.5451 45.1534 46.4813Z" />
<path d="M37.5812 48.3824C38.011 48.1703 38.5897 48.4423 38.6957 48.9112C38.8068 49.3284 38.5197 49.7961 38.0955 49.8813C37.6437 49.9968 37.1495 49.6339 37.116 49.1719C37.0883 48.845 37.282 48.5168 37.5812 48.3824Z" />
</svg>
