<svg   viewBox="0 0 59 58"  xmlns="http://www.w3.org/2000/svg">
<path d="M33.9832 0.0534728C37.6686 -0.0669002 41.3624 0.0121331 45.0356 0.32948C47.8018 0.579953 50.5667 0.947152 53.2624 1.63656C54.4247 1.94418 55.5823 2.30895 56.6498 2.87312C57.2869 3.216 57.9143 3.65129 58.2767 4.29693C58.5843 4.83678 58.5697 5.53592 58.2463 6.06605C57.7611 6.90136 56.859 7.35732 56.0163 7.75249C54.1487 8.55862 52.145 8.9854 50.1497 9.338C47.1732 9.84503 44.1578 10.1064 41.1424 10.2353C36.9621 10.4056 32.7685 10.3168 28.6029 9.91798C26.0751 9.66143 23.5472 9.30882 21.0826 8.67048C19.7524 8.30936 18.4089 7.89475 17.2356 7.15305C16.6082 6.73843 15.9844 6.15359 15.8932 5.36569C15.7911 4.63859 16.2166 3.95405 16.7614 3.51146C17.7183 2.73208 18.8989 2.31138 20.0588 1.93932C22.087 1.318 24.1844 0.952016 26.283 0.666282C28.8376 0.329481 31.4092 0.139801 33.9832 0.0534728ZM26.2429 2.14237C24.2707 2.42689 22.2949 2.76369 20.3908 3.36556C19.519 3.65251 18.6338 3.95526 17.8788 4.49269C17.6514 4.65805 17.407 4.85259 17.334 5.13954C17.4204 5.55416 17.8253 5.78396 18.1487 6.00525C19.2187 6.64603 20.4382 6.96702 21.6249 7.31963C21.5276 7.08983 21.3684 6.85516 21.434 6.59253C21.5289 5.78882 22.2329 5.25383 22.8955 4.89636C24.143 4.26045 25.5182 3.93702 26.8812 3.65372C30.7319 2.91932 34.6678 2.7491 38.5793 2.8026C41.7673 2.87798 44.9663 3.1163 48.09 3.77896C49.4955 4.11576 50.957 4.46351 52.1413 5.33287C52.7395 5.76815 53.2161 6.63752 52.7322 7.32571C54.06 6.93054 55.4497 6.57794 56.5915 5.75721C56.814 5.57847 57.1641 5.28545 56.9793 4.97296C56.6826 4.53159 56.189 4.28112 55.733 4.03673C54.0806 3.26585 52.2872 2.86704 50.5059 2.52295C47.1659 1.91135 43.7736 1.63534 40.3824 1.51254C35.6636 1.36299 30.9265 1.51984 26.2429 2.14237ZM32.2469 4.42946C29.8237 4.62887 27.3882 4.90974 25.0501 5.60644C24.3388 5.84476 23.5825 6.07577 23.0135 6.58523C22.8396 6.92568 22.7338 7.32692 22.3484 7.4935C26.6052 8.39934 30.9605 8.74344 35.3049 8.83949C40.8931 8.9246 46.5239 8.65103 52.0051 7.49715C51.717 7.31233 51.475 7.05821 51.4568 6.69709C51.0324 6.22776 50.4281 5.99796 49.8493 5.78639C47.8602 5.0982 45.7615 4.80639 43.6799 4.56929C39.8827 4.18507 36.0527 4.15832 32.2469 4.42946Z" />
<path d="M33.5431 5.83627C36.1414 5.61255 38.7629 5.62471 41.3588 5.88734C42.6841 6.04176 44.018 6.23508 45.2873 6.66551C45.5415 6.76035 45.8357 6.84303 45.9962 7.08134C46.243 7.42179 46.1081 7.96894 45.7202 8.14038C45.3931 8.32155 45.0417 8.11485 44.7232 8.02244C43.3334 7.56527 41.8695 7.3999 40.4201 7.26494C38.0674 7.08377 35.6988 7.0935 33.351 7.32087C32.1691 7.44854 30.9848 7.61268 29.8443 7.95678C29.499 8.05892 29.1768 8.22063 28.8339 8.32763C28.3464 8.45894 27.8491 7.92638 27.9937 7.44611C28.0776 7.02784 28.5275 6.8868 28.8728 6.74697C30.3696 6.1986 31.9648 5.99434 33.5431 5.83627Z" />
<path d="M16.2483 8.44674C16.5583 8.27409 16.996 8.35798 17.1954 8.65952C17.3413 8.95742 17.3438 9.33799 17.6307 9.5532C18.2679 10.1174 19.0849 10.4177 19.8728 10.7071C22.1465 11.4853 24.5297 11.8731 26.9055 12.188C31.3788 12.74 35.897 12.875 40.4007 12.7315C43.3748 12.6245 46.3476 12.3923 49.2888 11.9291C51.1978 11.6166 53.1092 11.236 54.9245 10.5527C55.5932 10.2888 56.2778 9.997 56.803 9.49119C57.1216 9.22978 56.9915 8.69843 57.3636 8.482C57.7563 8.18897 58.3983 8.43823 58.4797 8.92337C58.5904 9.68574 58.0773 10.3715 57.5058 10.8165C56.4966 11.5874 55.2759 12.0057 54.0746 12.3777C51.8301 13.0392 49.5126 13.4088 47.1939 13.6921C43.4489 14.131 39.6748 14.2806 35.9068 14.238C32.0427 14.1748 28.1725 13.9268 24.3582 13.286C22.1867 12.9042 19.9969 12.4507 17.9882 11.5132C17.193 11.1035 16.354 10.5843 15.9929 9.72343C15.8154 9.30395 15.785 8.69479 16.2483 8.44674Z" />
<path d="M20.0212 13.5948C20.3191 13.4684 20.6948 13.5681 20.8844 13.8319C21.0559 14.1176 21.0474 14.5165 21.3586 14.7086C22.397 15.4648 23.6664 15.8004 24.8896 16.1324C28.4534 16.9932 32.1253 17.3057 35.7815 17.4467C39.5119 17.5683 43.2519 17.4735 46.9653 17.0735C49.0846 16.8327 51.2051 16.5166 53.2599 15.9342C54.2533 15.6217 55.2905 15.3165 56.1148 14.6538C56.4516 14.4119 56.3313 13.8757 56.696 13.6593C57.1046 13.3662 57.7478 13.6471 57.8207 14.1407C57.8937 14.756 57.5386 15.3457 57.09 15.7396C56.1963 16.5081 55.0594 16.8947 53.9554 17.2486C51.6343 17.9404 49.228 18.2942 46.8254 18.5569C43.6957 18.8791 40.5466 18.9897 37.4023 18.9484C34.1838 18.8912 30.9617 18.687 27.7785 18.1921C25.793 17.8711 23.7941 17.4808 21.9313 16.6978C21.0814 16.3221 20.1756 15.8466 19.7366 14.9821C19.5032 14.531 19.4813 13.8307 20.0212 13.5948Z" />
<path d="M23.1837 18.8122C23.3989 18.7527 23.6433 18.7891 23.8233 18.929C24.0883 19.1028 24.0786 19.4615 24.2537 19.701C24.5005 19.96 24.8215 20.1315 25.1401 20.2847C26.1468 20.737 27.2217 21.013 28.2977 21.244C31.0821 21.8228 33.9249 22.0599 36.7628 22.1705C40.1259 22.2812 43.5012 22.1912 46.8461 21.8082C48.732 21.5796 50.6203 21.2841 52.4356 20.7139C53.0739 20.4987 53.7196 20.2604 54.2667 19.8579C54.6534 19.6342 54.5427 19.0384 54.9719 18.8597C55.4194 18.6153 56.0212 18.9837 56.0285 19.4858C56.0528 20.2373 55.4741 20.8221 54.8917 21.2075C53.7451 21.92 52.421 22.269 51.12 22.5791C48.5204 23.159 45.8613 23.4265 43.2058 23.5749C38.9015 23.7852 34.5717 23.6807 30.3027 23.0788C28.3172 22.7712 26.3025 22.4161 24.464 21.5723C23.7163 21.2148 22.9101 20.6932 22.6973 19.8372C22.5685 19.4348 22.763 18.9387 23.1837 18.8122Z" />
<path d="M28.4619 24.961C28.3694 24.3944 29.0747 23.9408 29.5525 24.2533C29.82 24.3701 29.8699 24.6838 29.9683 24.9257C30.6809 25.4461 31.5526 25.6638 32.394 25.879C35.2137 26.5234 38.1184 26.6802 41.0025 26.7058C43.8198 26.6863 46.654 26.5319 49.4141 25.9386C50.3479 25.71 51.3303 25.4948 52.1109 24.9026C52.1972 24.5524 52.3991 24.1634 52.8137 24.1573C53.4131 24.0843 53.7852 24.8017 53.5359 25.3051C53.1785 26.2097 52.1887 26.6134 51.3364 26.9186C48.9484 27.6955 46.4242 27.9338 43.9304 28.0858C40.9016 28.2415 37.8558 28.1709 34.8441 27.7928C33.1649 27.5642 31.4651 27.2797 29.9063 26.5891C29.2449 26.2705 28.5093 25.7647 28.4619 24.961Z" />
<path d="M51.1175 28.1405C51.4872 27.9496 51.9808 28.1551 52.1194 28.543C52.2252 28.7934 52.1255 29.0634 52.0441 29.3041C51.3972 31.0781 50.0038 32.5603 48.2906 33.3445C47.7678 33.6266 47.1173 33.0624 47.2814 32.508C47.3215 32.2016 47.6219 32.0545 47.8638 31.9244C49.2086 31.2532 50.2822 30.0373 50.7431 28.6026C50.8063 28.4092 50.9291 28.2293 51.1175 28.1405Z" />
<path d="M54.0624 30.1796C53.9737 29.7176 54.4223 29.3005 54.8746 29.3649C55.2576 29.3856 55.4972 29.7625 55.5215 30.1164C55.7841 32.3852 55.4145 34.727 54.443 36.7952C53.5967 38.5996 52.1 40.0137 50.4707 41.1165C47.5246 43.0704 43.8867 43.7744 40.3946 43.5264C39.2322 43.4462 37.9397 43.4109 36.9451 44.1137C36.2047 44.6414 35.9858 45.6129 36.0186 46.4737C36.0466 47.337 36.2509 48.1857 36.5561 48.9918C36.6436 49.2472 36.7822 49.5256 36.6764 49.7992C36.5305 50.2807 35.8156 50.457 35.4812 50.0667C34.9839 49.5463 34.5498 48.9699 34.1085 48.4046C33.1297 47.078 32.1618 45.6117 32.022 43.9252C31.9041 42.685 32.4524 41.4691 33.2914 40.5815C34.8052 38.9607 36.8381 37.988 38.7434 36.9168C39.7502 36.2992 40.7886 35.4967 41.1314 34.3124C41.4342 33.1524 40.7545 32.018 39.952 31.235C39.6918 31.0064 39.5763 30.6051 39.7769 30.3024C39.9836 29.8878 40.6135 29.8014 40.9235 30.148C41.85 31.0125 42.5553 32.1822 42.6562 33.4649C42.751 34.62 42.2476 35.7569 41.4707 36.591C40.425 37.7777 38.972 38.4537 37.6151 39.2064C36.415 39.9006 35.1991 40.6302 34.2677 41.677C33.7777 42.2218 33.4373 42.9343 33.4713 43.6808C33.5017 44.7131 34.0319 45.6372 34.5425 46.5041C34.5413 45.3296 34.8271 44.0711 35.7195 43.2455C36.8783 42.1172 38.617 41.9482 40.1551 42.0491C43.1097 42.2959 46.1859 41.8594 48.8074 40.4162C50.3722 39.5395 51.8094 38.3552 52.7724 36.8256C53.9238 34.834 54.3324 32.4545 54.0624 30.1796Z" />
<path d="M10.2442 31.1705C15.5516 30.7632 20.8577 30.351 26.1638 29.9473C27.387 29.8512 28.6467 30.3546 29.4492 31.2836C29.8237 31.6958 29.5258 32.4374 28.9713 32.4739C28.6078 32.542 28.3622 32.2307 28.119 32.0192C27.601 31.5462 26.8763 31.3431 26.1857 31.4088C20.9112 31.8137 15.6367 32.2186 10.3634 32.6259C9.48913 32.677 8.59788 33.1925 8.27446 34.0327C7.40874 36.1009 6.50655 38.1533 5.64327 40.2228C4.24865 40.3359 2.85281 40.4258 1.4594 40.5547C1.48979 41.2563 1.55059 41.9566 1.61138 42.657C2.2169 43.2443 2.8601 43.7939 3.45102 44.3969C3.64435 44.5903 3.63341 44.8784 3.66137 45.1313C3.89361 48.3303 4.16475 51.5269 4.38483 54.7259C4.52587 55.9467 5.86092 56.8087 7.03547 56.478C7.92428 56.2871 8.5456 55.4786 8.68056 54.6055C7.98386 54.6372 7.28959 54.7429 6.59167 54.7405C6.08829 54.7271 5.77094 54.1107 6.02141 53.6815C6.16003 53.3641 6.53087 53.2875 6.84093 53.2766C15.5978 52.6163 24.3534 51.916 33.1102 51.2691C33.8568 51.2035 34.1218 52.3683 33.4336 52.6419C32.7126 52.8243 31.9515 52.772 31.2159 52.8693C31.4262 53.42 31.7533 53.966 32.3102 54.2238C32.7321 54.4888 33.2403 54.4523 33.7145 54.5034C34.2264 54.5751 34.4526 55.2609 34.1267 55.65C33.8276 56.0379 33.2756 55.9345 32.8524 55.909C31.3216 55.7363 30.0364 54.4803 29.7544 52.9762C23.2165 53.4833 16.6787 53.9854 10.1408 54.49C10.0752 55.6366 9.49521 56.7662 8.51885 57.3948C7.25676 58.2654 5.44265 58.1888 4.25716 57.2161C3.51425 56.6324 3.02303 55.7424 2.92211 54.8037C2.70568 51.6011 2.44548 48.3996 2.19258 45.1994C1.80593 44.8492 1.43873 44.476 1.04478 44.1319C0.68366 43.7975 0.269042 43.4461 0.187577 42.9318C0.0805789 42.2132 0.05383 41.4849 0.00397856 40.7602C-0.0592477 39.9261 0.639889 39.1297 1.4752 39.0835C2.52938 38.9874 3.5872 38.9242 4.6426 38.8342C5.3393 37.2013 6.03722 35.5696 6.73393 33.9379C6.92482 33.5038 7.07194 33.0405 7.3747 32.6672C8.06289 31.7918 9.13409 31.2374 10.2442 31.1705Z" />
<path d="M51.6355 32.4387C52.1462 32.1603 52.8234 32.6734 52.6702 33.2412C52.3735 34.8839 51.6489 36.4864 50.4476 37.6658C49.6621 38.4829 48.738 39.165 47.7434 39.7037C47.3823 39.9213 46.8364 39.7815 46.6929 39.3681C46.5142 39.0179 46.7087 38.5863 47.048 38.4233C48.0195 37.8908 48.9131 37.2147 49.6487 36.3831C50.4658 35.5015 50.9376 34.3537 51.1917 33.1914C51.2561 32.9056 51.334 32.564 51.6355 32.4387Z" />
<path d="M27.4503 37.081C28.0388 37.0469 28.6248 36.9642 29.2145 36.9606C29.7714 36.9521 30.0985 37.7096 29.7422 38.1242C29.5744 38.3698 29.2595 38.4063 28.9884 38.4282C22.1757 38.9449 15.3643 39.4799 8.55169 39.9967C8.0775 40.1037 7.5729 39.6769 7.66166 39.1844C7.69206 38.8002 8.06412 38.5485 8.42767 38.5461C14.7673 38.0537 21.1094 37.5697 27.4503 37.081Z" />
<path d="M26.593 39.4799C27.1524 39.2014 27.8187 39.8653 27.5414 40.4271C27.1827 40.9852 26.6478 41.4046 26.2198 41.908C25.5717 42.6631 24.6197 43.1446 23.6251 43.1993C20.7847 43.4169 17.9456 43.637 15.1053 43.8546C14.2153 43.9361 13.3009 43.6978 12.5738 43.1762C12.1082 42.8382 11.6692 42.4649 11.206 42.122C10.9591 41.936 10.6734 41.7171 10.6673 41.3767C10.6065 40.7906 11.3725 40.3687 11.8236 40.7602C12.4462 41.1894 12.9909 41.7244 13.6365 42.1196C14.1132 42.409 14.6883 42.4406 15.2293 42.3834C18.0697 42.1512 20.9136 41.9615 23.7527 41.7135C25.0562 41.5335 25.5997 40.1523 26.593 39.4799Z" />
<path d="M41.0463 39.4787C41.7601 39.4313 42.4811 39.5407 43.196 39.4556C43.5961 39.4337 44.1213 39.3012 44.3876 39.7012C44.7305 40.1134 44.4411 40.8113 43.9049 40.8575C42.9516 40.9621 41.9753 41.0071 41.0244 40.866C40.363 40.6873 40.3788 39.6404 41.0463 39.4787Z" />
<path d="M28.3926 45.1642C28.8692 45.0474 29.3495 44.9356 29.8346 44.8626C30.372 44.7653 30.8365 45.4195 30.5727 45.8961C30.4097 46.2682 29.9659 46.3156 29.617 46.391C29.1014 46.5053 28.4971 46.5393 28.1263 46.9698C27.832 47.3029 27.8077 47.7662 27.8296 48.1893C28.6187 48.1443 29.403 48.0458 30.1933 48.0215C30.6274 48.0166 30.9727 48.4835 30.8718 48.8994C30.8049 49.2106 30.5265 49.4611 30.2042 49.4672C28.9701 49.5754 27.7348 49.6605 26.4994 49.7554C26.4642 49.1073 26.3864 48.4616 26.3657 47.8136C26.3353 46.6074 27.2217 45.4523 28.3926 45.1642Z" />
<path d="M5.40377 46.9686C5.42565 46.56 5.83906 46.2561 6.23544 46.3156C7.57535 46.3898 8.91647 46.4628 10.2552 46.5491C11.3045 46.6318 12.2456 47.3966 12.5812 48.3863C12.817 49.1681 12.7611 49.9986 12.8596 50.8023C10.7306 50.9725 8.60034 51.1403 6.4701 51.2923C6.02509 51.3555 5.6056 50.9336 5.67856 50.4886C5.70531 50.1311 6.0263 49.8612 6.37405 49.8442C8.01793 49.708 9.66546 49.5961 11.3106 49.4587C11.3008 48.8021 10.8972 48.1115 10.2017 48.0167C8.83987 47.9036 7.472 47.861 6.10898 47.765C5.70045 47.7662 5.35148 47.3747 5.40377 46.9686Z" />
<path d="M21.3307 48.6879C21.6966 48.6648 22.1514 48.5687 22.4189 48.897C22.8299 49.3067 22.5198 50.0934 21.9362 50.1032C20.4333 50.2296 18.9281 50.3439 17.4228 50.4509C16.9377 50.5166 16.506 49.9767 16.6799 49.5171C16.7541 49.2083 17.0544 49.0064 17.3632 48.9979C18.6849 48.8873 20.009 48.8009 21.3307 48.6879Z" />
</svg>
