<svg   viewBox="0 0 50 58"  xmlns="http://www.w3.org/2000/svg">
<path fill-rule="evenodd" clip-rule="evenodd" d="M40.5341 2.69483C40.3712 2.31403 39.9303 2.13745 39.5495 2.30044C16.8682 12.0082 2.65382 30.626 2.65382 51.0998C2.65382 51.514 2.98961 51.8498 3.40382 51.8498C3.81804 51.8498 4.15382 51.514 4.15382 51.0998C4.15382 31.3751 17.8593 13.2156 40.1398 3.67944C40.5206 3.51645 40.6971 3.07563 40.5341 2.69483Z" />
<path fill-rule="evenodd" clip-rule="evenodd" d="M49.6891 15.9504C49.5254 15.5699 49.0843 15.3941 48.7038 15.5578C38.9699 19.7455 31.4062 26.1862 26.7826 33.8932C26.5695 34.2484 26.6847 34.7091 27.0399 34.9222C27.3951 35.1353 27.8558 35.0201 28.0689 34.6649C32.5102 27.2618 39.8129 21.0158 49.2966 16.9357C49.6771 16.772 49.8528 16.3309 49.6891 15.9504Z" />
<path fill-rule="evenodd" clip-rule="evenodd" d="M27.8162 33.6386C27.4626 33.4229 27.0011 33.5348 26.7854 33.8884C23.5435 39.205 21.8714 45.0414 21.8714 51.0995C21.8714 51.5138 22.2071 51.8495 22.6214 51.8495C23.0356 51.8495 23.3714 51.5138 23.3714 51.0995C23.3714 45.3263 24.9626 39.7588 28.0661 34.6694C28.2817 34.3157 28.1699 33.8542 27.8162 33.6386Z" />
<path fill-rule="evenodd" clip-rule="evenodd" d="M22.6214 0.743164C22.2072 0.743164 21.8714 1.07895 21.8714 1.49316V57.0868C21.8714 57.501 22.2072 57.8368 22.6214 57.8368C23.0356 57.8368 23.3714 57.501 23.3714 57.0868V1.49316C23.3714 1.07895 23.0356 0.743164 22.6214 0.743164Z" />
<path fill-rule="evenodd" clip-rule="evenodd" d="M3.40384 0.743164C2.98963 0.743164 2.65384 1.07895 2.65384 1.49316V57.0868C2.65384 57.501 2.98963 57.8368 3.40384 57.8368C3.81805 57.8368 4.15384 57.501 4.15384 57.0868V1.49316C4.15384 1.07895 3.81805 0.743164 3.40384 0.743164Z" />
<path fill-rule="evenodd" clip-rule="evenodd" d="M23.3714 6.69629C23.3714 6.28208 23.0356 5.94629 22.6214 5.94629H1.50021C1.08599 5.94629 0.750208 6.28208 0.750208 6.69629C0.750208 7.1105 1.08599 7.44629 1.50021 7.44629H22.6214C23.0356 7.44629 23.3714 7.1105 23.3714 6.69629Z" />
<path fill-rule="evenodd" clip-rule="evenodd" d="M23.3714 17.3164C23.3714 16.9022 23.0356 16.5664 22.6214 16.5664H1.50021C1.08599 16.5664 0.750208 16.9022 0.750208 17.3164C0.750208 17.7306 1.08599 18.0664 1.50021 18.0664H22.6214C23.0356 18.0664 23.3714 17.7306 23.3714 17.3164Z" />
<path fill-rule="evenodd" clip-rule="evenodd" d="M23.3714 28.0073C23.3714 27.5931 23.0356 27.2573 22.6214 27.2573H1.50021C1.08599 27.2573 0.750208 27.5931 0.750208 28.0073C0.750208 28.4215 1.08599 28.7573 1.50021 28.7573H22.6214C23.0356 28.7573 23.3714 28.4215 23.3714 28.0073Z" />
<path fill-rule="evenodd" clip-rule="evenodd" d="M23.3714 38.627C23.3714 38.2127 23.0356 37.877 22.6214 37.877H1.50021C1.08599 37.877 0.750208 38.2127 0.750208 38.627C0.750208 39.0412 1.08599 39.377 1.50021 39.377H22.6214C23.0356 39.377 23.3714 39.0412 23.3714 38.627Z" />
<path fill-rule="evenodd" clip-rule="evenodd" d="M23.3714 49.3184C23.3714 48.9041 23.0356 48.5684 22.6214 48.5684H1.50021C1.08599 48.5684 0.750208 48.9041 0.750208 49.3184C0.750208 49.7326 1.08599 50.0684 1.50021 50.0684H22.6214C23.0356 50.0684 23.3714 49.7326 23.3714 49.3184Z" />
<path fill-rule="evenodd" clip-rule="evenodd" d="M25.275 6.69629C25.275 6.28208 24.9392 5.94629 24.525 5.94629H22.6214C22.2071 5.94629 21.8714 6.28208 21.8714 6.69629C21.8714 7.1105 22.2071 7.44629 22.6214 7.44629H24.525C24.9392 7.44629 25.275 7.1105 25.275 6.69629Z" />
<path fill-rule="evenodd" clip-rule="evenodd" d="M25.275 17.3164C25.275 16.9022 24.9392 16.5664 24.525 16.5664H22.6214C22.2071 16.5664 21.8714 16.9022 21.8714 17.3164C21.8714 17.7306 22.2071 18.0664 22.6214 18.0664H24.525C24.9392 18.0664 25.275 17.7306 25.275 17.3164Z" />
<path fill-rule="evenodd" clip-rule="evenodd" d="M25.275 28.0073C25.275 27.5931 24.9392 27.2573 24.525 27.2573H22.6214C22.2071 27.2573 21.8714 27.5931 21.8714 28.0073C21.8714 28.4215 22.2071 28.7573 22.6214 28.7573H24.525C24.9392 28.7573 25.275 28.4215 25.275 28.0073Z" />
<path fill-rule="evenodd" clip-rule="evenodd" d="M25.275 49.3184C25.275 48.9041 24.9392 48.5684 24.525 48.5684H22.6214C22.2071 48.5684 21.8714 48.9041 21.8714 49.3184C21.8714 49.7326 22.2071 50.0684 22.6214 50.0684H24.525C24.9392 50.0684 25.275 49.7326 25.275 49.3184Z" />
<path fill-rule="evenodd" clip-rule="evenodd" d="M25.1743 32.36C24.941 32.7023 25.0294 33.1688 25.3717 33.4021L28.0912 35.2552C28.4335 35.4885 28.9001 35.4001 29.1333 35.0578C29.3666 34.7155 29.2782 34.2489 28.9359 34.0156L26.2164 32.1625C25.8741 31.9293 25.4075 32.0177 25.1743 32.36Z" />
<path fill-rule="evenodd" clip-rule="evenodd" d="M26.758 19.4029C26.4935 19.7216 26.5374 20.1944 26.8561 20.459L35.0145 27.23C35.3333 27.4945 35.8061 27.4506 36.0706 27.1319C36.3352 26.8131 36.2912 26.3403 35.9725 26.0757L27.8141 19.3047C27.4954 19.0402 27.0225 19.0841 26.758 19.4029Z" />
<path fill-rule="evenodd" clip-rule="evenodd" d="M32.3928 4.68755C32.0709 4.94815 32.0211 5.42041 32.2817 5.74238L32.9162 6.52637C33.1768 6.84834 33.6491 6.8981 33.9711 6.63751C34.293 6.37691 34.3428 5.90465 34.0822 5.58268L33.4477 4.79869C33.1871 4.47672 32.7148 4.42696 32.3928 4.68755Z" />
<path fill-rule="evenodd" clip-rule="evenodd" d="M33.0282 5.47106C32.7059 5.73119 32.6554 6.20338 32.9156 6.52572L44.2467 20.5667C44.5068 20.889 44.979 20.9395 45.3013 20.6793C45.6237 20.4192 45.6741 19.947 45.414 19.6247L34.0829 5.5837C33.8227 5.26136 33.3506 5.21093 33.0282 5.47106Z" />
</svg>
