<svg   viewBox="0 0 57 49"  xmlns="http://www.w3.org/2000/svg">
<path d="M23.6479 4.50105e-05C24.1403 0.00127614 24.6328 -0.00180152 25.1252 0.00189186C25.1258 0.823053 25.1246 1.64483 25.1252 2.46599C25.1098 2.75961 25.2637 3.0674 25.5395 3.18866C25.718 3.26314 25.9088 3.30069 26.091 3.36594C27.1621 3.73036 28.1132 4.44379 28.7607 5.37206C29.3868 6.26278 29.7216 7.35602 29.7007 8.44372C29.6896 8.86969 29.2433 9.20579 28.8303 9.11653C28.4585 9.05806 28.192 8.68933 28.2252 8.31876C28.2203 6.91528 27.3517 5.57027 26.0892 4.96579C25.7642 4.79036 25.4028 4.70541 25.0544 4.58968C24.2191 4.28252 23.6442 3.41704 23.6485 2.53186C23.6466 1.68792 23.6485 0.843982 23.6479 4.50105e-05Z" />
<path d="M40.1222 7.12153C40.582 6.87161 41.1348 7.3419 41.0627 7.82881C40.7667 9.69705 40.4552 11.5634 40.156 13.4317C40.1289 13.6022 40.1 13.7862 39.98 13.9198C39.7867 14.1543 39.4284 14.2744 39.1477 14.1322C38.8689 13.9992 38.6971 13.6717 38.7556 13.3664C39.0609 11.476 39.3687 9.58563 39.6771 7.69585C39.7067 7.44101 39.8895 7.22125 40.1222 7.12153Z" />
<path d="M19.5703 7.69038C20.0191 7.51925 20.5688 7.89597 20.5466 8.38227C20.5509 9.21943 20.8255 10.0566 21.3419 10.7177C22.0412 11.6429 23.1794 12.2228 24.341 12.2277C24.6537 12.2098 24.9578 12.4044 25.0759 12.6937C25.2631 13.1276 24.9319 13.6767 24.4573 13.7007C23.1745 13.734 21.8916 13.2557 20.924 12.4154C19.7606 11.4262 19.06 9.91317 19.0717 8.38412C19.0705 8.07695 19.2804 7.78948 19.5703 7.69038Z" />
<path d="M51.4473 9.82876C51.744 9.73089 52.1016 9.85339 52.2543 10.131C52.4125 10.3902 52.3891 10.7527 52.1786 10.9768C50.1515 13.1165 48.1275 15.2593 46.0999 17.3983C45.8506 17.6236 45.6745 17.9714 45.3187 18.0428C44.8749 18.1715 44.3702 17.7621 44.4249 17.2986C44.4354 17.0819 44.5985 16.925 44.7389 16.7779C46.7548 14.6474 48.7708 12.5182 50.7862 10.3877C50.9893 10.1858 51.1617 9.91925 51.4473 9.82876Z" />
<path d="M17.9545 11.5318C18.2014 11.4401 18.4987 11.4345 18.7153 11.6032C19.0601 11.834 19.129 12.3696 18.8508 12.678C18.6895 12.8768 18.4285 12.9322 18.197 13.0067C15.0257 13.9947 11.8561 14.99 8.68475 15.9768C8.75677 16.2002 8.88296 16.4015 8.9556 16.6243C9.05655 16.9229 9.10518 17.2381 9.1058 17.5526C9.10641 18.0678 9.10333 18.5831 9.10703 19.0983C14.1313 19.0983 19.1555 19.0952 24.1797 19.0995C24.1939 19.0718 24.2216 19.0158 24.2351 18.9881C25.3554 18.3658 26.6173 17.9509 27.9082 17.9515C29.9992 17.9509 32.0909 17.9509 34.182 17.9521C34.8092 17.9435 35.4291 18.3264 35.6692 18.9118C35.8028 19.2534 35.8705 19.616 35.9757 19.9675C36.6313 19.9675 37.2869 19.9675 37.9431 19.9662C38.4743 19.957 38.9963 20.1835 39.3786 20.5479C39.5712 20.7271 39.7165 20.9481 39.8741 21.1573C40.2945 21.7224 40.7143 22.2888 41.1354 22.8538C41.2056 22.956 41.3225 23.0354 41.4524 23.0127C41.943 22.9689 42.4324 22.9216 42.923 22.8766C43.2517 22.8489 43.5847 22.7898 43.9147 22.8428C44.4028 22.9203 44.8774 23.1524 45.1999 23.5328C46.4132 24.8686 47.576 26.2499 48.6816 27.6749C48.7548 27.7937 48.7764 27.9365 48.7782 28.075C48.7782 34.7231 48.7788 41.3718 48.7776 48.0205C48.8035 48.4262 48.4538 48.8091 48.0432 48.798C32.2836 48.7998 16.5233 48.7986 0.763685 48.7986C0.368493 48.8226 -0.00022902 48.4822 0.00284879 48.0845C0.00100211 38.8099 0.00284819 29.5345 0.00223263 20.2599C0.00531045 20.0555 -0.0131566 19.8493 0.0213149 19.6474C0.0982603 19.3217 0.427587 19.0774 0.762453 19.0971C1.52452 19.0977 2.28659 19.0983 3.04927 19.0977C3.05173 18.5609 3.04496 18.0247 3.05173 17.488C3.06404 16.6465 3.47155 15.8327 4.10127 15.2824C4.89904 14.5604 6.10369 14.3024 7.11014 14.7112C7.23448 14.7475 7.35698 14.8583 7.4924 14.8017C10.9802 13.7133 14.468 12.6244 17.9545 11.5318ZM4.53031 17.488C4.52047 18.0247 4.5297 18.5615 4.52662 19.0983C5.56015 19.0971 6.59368 19.0983 7.62721 19.0977C7.62598 18.5634 7.63152 18.0284 7.62598 17.4941C7.61921 17.0989 7.41977 16.7376 7.15569 16.4538C6.83314 16.5529 6.51489 16.6699 6.18618 16.7493C5.80699 16.8201 5.4592 16.5412 5.34717 16.1916C4.89534 16.4661 4.54632 16.9469 4.53031 17.488ZM24.2031 20.9C24.2012 20.7917 24.2006 20.684 24.2 20.5763C16.6274 20.5738 9.05409 20.5756 1.48082 20.575C1.47774 29.4902 1.48143 38.4054 1.47897 47.3206C16.7529 47.3225 32.0263 47.3206 47.3003 47.3219C47.3015 40.9058 47.3009 34.4904 47.3003 28.075C47.2836 27.8621 47.384 27.6694 47.5089 27.505C47.2011 27.5112 46.8934 27.5075 46.5856 27.5081C45.8334 26.5786 45.0516 25.6743 44.2532 24.7855C44.1166 24.639 43.9934 24.4518 43.7829 24.41C42.9464 24.4518 42.1166 24.6297 41.2782 24.6217C40.9538 24.9381 40.6165 25.241 40.2976 25.5623C40.3481 25.6977 40.3899 25.8387 40.3844 25.9858C40.3826 31.0636 40.3838 36.1414 40.3838 41.2192C40.891 41.2198 41.3995 41.2185 41.9073 41.2204C41.9067 41.7122 41.9073 42.2047 41.9067 42.6971C41.1409 42.6941 40.3752 42.7033 39.6094 42.6934C39.2136 42.6904 38.8824 42.3173 38.9064 41.9264C38.9058 36.8431 38.9046 31.7598 38.907 26.6765C38.3986 26.6777 37.8901 26.6765 37.3823 26.6771C37.3829 26.2887 37.3817 25.9009 37.3829 25.5125C37.005 25.3161 36.6313 25.1111 36.2564 24.9086C35.7763 24.642 35.7714 23.8744 36.2152 23.5704C36.4768 23.3783 36.8449 23.3894 37.1201 23.5482C37.7369 23.8861 38.3604 24.2142 38.9754 24.5565C39.2739 24.2979 39.5398 24.0049 39.839 23.7476C39.3675 23.1038 38.8849 22.4679 38.4134 21.8246C38.3192 21.6917 38.1905 21.5568 38.0151 21.5556C37.2967 21.5439 36.5778 21.5618 35.8594 21.5476C35.2358 22.1226 34.6393 22.7264 34.0152 23.3014C34.0078 24.2573 34.0152 25.2139 34.0115 26.1705C34.0146 26.3976 33.929 26.6272 33.7609 26.7836C33.4962 27.0489 33.0715 27.0606 32.7545 26.8845C32.7631 31.6625 32.7557 36.4405 32.7582 41.2192C33.266 41.2204 33.7739 41.2192 34.2817 41.2198C34.2817 41.7122 34.2817 42.2047 34.2817 42.6971C33.5313 42.6965 32.7816 42.699 32.0318 42.6965C31.6237 42.7137 31.2476 42.3401 31.2802 41.9289C31.2815 36.845 31.2802 31.761 31.2802 26.6771C30.7699 26.6771 30.2596 26.6771 29.7493 26.6771C29.7505 26.1847 29.7475 25.6922 29.7512 25.1997C30.3483 25.1991 30.9454 25.1997 31.5425 25.1997C31.8281 25.2041 32.1254 25.1634 32.3944 25.2853C32.4012 24.5134 32.3907 23.7409 32.3993 22.9683C32.3944 22.7246 32.5144 22.4962 32.6942 22.3362C33.298 21.7581 33.9025 21.1807 34.5058 20.6015C34.3999 20.2482 34.3063 19.8911 34.2097 19.5353C32.0878 19.539 29.9666 19.5341 27.8454 19.5378C26.5195 19.5655 25.2729 20.1515 24.2031 20.9Z" />
<path d="M55.9452 19.4961C56.229 19.3988 56.5719 19.4874 56.743 19.7411C56.9843 20.0556 56.8895 20.5573 56.5522 20.7635C56.3767 20.8577 56.1804 20.9026 55.992 20.9617C53.8326 21.6308 51.6738 22.3 49.5144 22.9678C49.3298 23.0232 49.1488 23.0946 48.958 23.123C48.6619 23.1587 48.3596 22.9826 48.2347 22.7148C48.1269 22.4317 48.2205 22.0937 48.4433 21.8925C48.5892 21.7484 48.7979 21.7102 48.9863 21.6499C51.3063 20.9334 53.6252 20.212 55.9452 19.4961Z" />
<path d="M6.86699 25.2004C7.62474 25.1992 8.3825 25.1985 9.14087 25.2004C9.5256 25.1905 9.87216 25.5365 9.86601 25.9212C9.87216 31.0211 9.85862 36.1217 9.87278 41.2223C10.3812 41.2167 10.8897 41.2198 11.3988 41.2204C11.3969 41.7129 11.4 42.2053 11.3969 42.6984C10.6422 42.6947 9.88755 42.7008 9.13287 42.6959C8.72599 42.707 8.36404 42.3364 8.38989 41.9289C8.38927 36.845 8.38927 31.7604 8.38989 26.6759C7.88205 26.6784 7.37359 26.6753 6.86575 26.6777C6.86637 26.1853 6.86452 25.6928 6.86699 25.2004Z" />
<path d="M14.492 25.1992C15.2522 25.2011 16.0124 25.198 16.7733 25.2005C17.158 25.19 17.4978 25.5409 17.4978 25.9219C17.5045 31.0212 17.4941 36.1212 17.5033 41.2211C18.0099 41.218 18.5159 41.2205 19.0225 41.2192C19.0238 41.7123 19.0238 42.2048 19.0225 42.6978C18.2722 42.6954 17.5212 42.7003 16.7708 42.696C16.3614 42.712 15.9946 42.3383 16.0223 41.929C16.0229 36.8444 16.0217 31.7605 16.0229 26.6766C15.5126 26.6778 15.0017 26.6766 14.4914 26.6772C14.4914 26.1841 14.4907 25.6917 14.492 25.1992Z" />
<path d="M22.125 25.1993C22.8852 25.2011 23.646 25.1974 24.4063 25.2005C24.7897 25.1937 25.1302 25.5421 25.124 25.9238C25.1271 31.0225 25.1246 36.1206 25.1252 41.2193C25.6331 41.2205 26.1409 41.2193 26.6487 41.2199C26.6487 41.7124 26.6487 42.2048 26.6487 42.6973C25.9002 42.6966 25.1523 42.6991 24.4044 42.6966C24.1262 42.704 23.8566 42.5403 23.731 42.2935C23.6189 42.0872 23.6516 41.8441 23.6466 41.6194C23.6485 36.6383 23.6473 31.6578 23.6479 26.6772C23.14 26.6772 22.6322 26.6772 22.1244 26.6772C22.1244 26.1848 22.1237 25.6917 22.125 25.1993Z" />
</svg>
