<svg   viewBox="0 0 44 46"  xmlns="http://www.w3.org/2000/svg">
<path fill-rule="evenodd" clip-rule="evenodd" d="M7.40863 26.4897V42.0054C7.40863 43.1423 8.33514 44.0679 9.45433 44.0679H31.8199C32.9391 44.0679 33.8656 43.1423 33.8656 42.0054V34.9272H35.3656V42.0054C35.3656 43.9622 33.776 45.5679 31.8199 45.5679H9.45433C7.49825 45.5679 5.90863 43.9622 5.90863 42.0054V26.4897H7.40863Z" />
<path fill-rule="evenodd" clip-rule="evenodd" d="M9.45433 1.97412C8.33514 1.97412 7.40863 2.89972 7.40863 4.03662V15.3335H5.90863V4.03662C5.90863 2.07978 7.49825 0.474121 9.45433 0.474121H31.8199C33.776 0.474121 35.3656 2.07978 35.3656 4.03662V6.896H33.8656V4.03662C33.8656 2.89972 32.9391 1.97412 31.8199 1.97412H9.45433Z" />
<path fill-rule="evenodd" clip-rule="evenodd" d="M10.1022 5.44287C10.1022 5.02866 10.438 4.69287 10.8522 4.69287H30.4221C30.8363 4.69287 31.1721 5.02866 31.1721 5.44287V6.896H29.6721V6.19287H11.6022V13.9272H10.1022V5.44287Z" />
<path fill-rule="evenodd" clip-rule="evenodd" d="M11.6022 27.896V35.6304H29.6721V34.9272H31.1721V36.3804C31.1721 36.7946 30.8363 37.1304 30.4221 37.1304H10.8522C10.438 37.1304 10.1022 36.7946 10.1022 36.3804V27.896H11.6022Z" />
<path fill-rule="evenodd" clip-rule="evenodd" d="M17.0914 40.5991C17.0914 40.1849 17.4272 39.8491 17.8414 39.8491H23.4328C23.847 39.8491 24.1828 40.1849 24.1828 40.5991C24.1828 41.0133 23.847 41.3491 23.4328 41.3491H17.8414C17.4272 41.3491 17.0914 41.0133 17.0914 40.5991Z" />
<path fill-rule="evenodd" clip-rule="evenodd" d="M0.3172 18.8022C0.3172 18.388 0.652986 18.0522 1.0672 18.0522H3.16397C3.57819 18.0522 3.91397 18.388 3.91397 18.8022C3.91397 19.2165 3.57819 19.5522 3.16397 19.5522H1.0672C0.652986 19.5522 0.3172 19.2165 0.3172 18.8022Z" />
<path fill-rule="evenodd" clip-rule="evenodd" d="M6.60754 18.8022C6.60754 18.388 6.94333 18.0522 7.35754 18.0522H15.0457C15.4599 18.0522 15.7957 18.388 15.7957 18.8022C15.7957 19.2165 15.4599 19.5522 15.0457 19.5522H7.35754C6.94333 19.5522 6.60754 19.2165 6.60754 18.8022Z" />
<path fill-rule="evenodd" clip-rule="evenodd" d="M2.414 23.021C2.414 22.6068 2.74979 22.271 3.164 22.271H5.26078C5.67499 22.271 6.01078 22.6068 6.01078 23.021C6.01078 23.4352 5.67499 23.771 5.26078 23.771H3.164C2.74979 23.771 2.414 23.4352 2.414 23.021Z" />
<path fill-rule="evenodd" clip-rule="evenodd" d="M8.70428 23.021C8.70428 22.6068 9.04007 22.271 9.45428 22.271H17.1425C17.5567 22.271 17.8925 22.6068 17.8925 23.021C17.8925 23.4352 17.5567 23.771 17.1425 23.771H9.45428C9.04007 23.771 8.70428 23.4352 8.70428 23.021Z" />
<path fill-rule="evenodd" clip-rule="evenodd" d="M28.2742 10.3647C28.2742 9.95053 28.6099 9.61475 29.0242 9.61475H36.0134C36.4276 9.61475 36.7634 9.95053 36.7634 10.3647V16.646H43.0027C43.4169 16.646 43.7527 16.9818 43.7527 17.396V24.4272C43.7527 24.8415 43.4169 25.1772 43.0027 25.1772H36.7634V31.4585C36.7634 31.8727 36.4276 32.2085 36.0134 32.2085H29.0242C28.6099 32.2085 28.2742 31.8727 28.2742 31.4585V25.1772H22.0349C21.6207 25.1772 21.2849 24.8415 21.2849 24.4272V17.396C21.2849 16.9818 21.6207 16.646 22.0349 16.646H28.2742V10.3647ZM29.7742 11.1147V17.396C29.7742 17.8102 29.4384 18.146 29.0242 18.146H22.7849V23.6772H29.0242C29.4384 23.6772 29.7742 24.013 29.7742 24.4272V30.7085H35.2634V24.4272C35.2634 24.013 35.5992 23.6772 36.0134 23.6772H42.2527V18.146H36.0134C35.5992 18.146 35.2634 17.8102 35.2634 17.396V11.1147H29.7742Z" />
</svg>
