<svg   viewBox="0 0 47 48"  xmlns="http://www.w3.org/2000/svg">
<path fill-rule="evenodd" clip-rule="evenodd" d="M16.3294 13.0337C15.3215 13.0337 14.4937 13.8615 14.4937 14.8694C14.4937 15.8773 15.3215 16.7051 16.3294 16.7051H18.0532C19.8895 16.7051 21.3889 18.2044 21.3889 20.0407C21.3889 21.8771 19.8895 23.3764 18.0532 23.3764H16.3294V22.6264C16.3294 23.3764 16.329 23.3764 16.3286 23.3764L16.3278 23.3764L16.3261 23.3764L16.3222 23.3764L16.3124 23.3763L16.2852 23.3756C16.2638 23.3749 16.2359 23.3736 16.202 23.3713C16.1344 23.3666 16.0428 23.3577 15.9325 23.3408C15.713 23.307 15.4136 23.2403 15.0812 23.1073C14.4086 22.8383 13.602 22.2964 13.0729 21.2381C12.8876 20.8676 13.0378 20.4171 13.4083 20.2318C13.7788 20.0466 14.2293 20.1967 14.4145 20.5672C14.7473 21.2327 15.2336 21.5527 15.6383 21.7146C15.8446 21.7971 16.03 21.8381 16.1606 21.8582C16.2254 21.8682 16.2752 21.8728 16.3052 21.8748C16.3202 21.8759 16.3301 21.8763 16.3344 21.8764C16.3346 21.8764 16.3348 21.8764 16.335 21.8764H18.0532C19.0611 21.8764 19.8889 21.0487 19.8889 20.0407C19.8889 19.0328 19.0611 18.2051 18.0532 18.2051H16.3294C14.493 18.2051 12.9937 16.7057 12.9937 14.8694C12.9937 13.033 14.493 11.5337 16.3294 11.5337H18.0532V12.2837C18.0532 11.5337 18.0535 11.5337 18.0539 11.5337L18.0547 11.5337L18.0564 11.5337L18.0604 11.5337L18.0701 11.5338L18.0973 11.5345C18.1187 11.5352 18.1467 11.5365 18.1805 11.5388C18.2481 11.5435 18.3398 11.5524 18.45 11.5693C18.6696 11.6031 18.9689 11.6698 19.3013 11.8028C19.974 12.0719 20.7805 12.6138 21.3097 13.6721C21.4949 14.0426 21.3447 14.4931 20.9743 14.6783C20.6038 14.8635 20.1533 14.7134 19.968 14.3429C19.6353 13.6774 19.149 13.3574 18.7443 13.1955C18.538 13.113 18.3525 13.072 18.2219 13.0519C18.1571 13.0419 18.1074 13.0374 18.0773 13.0353C18.0623 13.0342 18.0524 13.0338 18.0482 13.0337L18.0461 13.0336L18.0458 13.0336C18.0458 13.0336 18.0464 13.0337 18.0476 13.0337H16.3294ZM18.0476 13.0337C18.0478 13.0337 18.048 13.0337 18.0482 13.0337Z" />
<path fill-rule="evenodd" clip-rule="evenodd" d="M17.1913 9.37891C17.6055 9.37891 17.9413 9.71469 17.9413 10.1289V12.2836C17.9413 12.6979 17.6055 13.0336 17.1913 13.0336C16.7771 13.0336 16.4413 12.6979 16.4413 12.2836V10.1289C16.4413 9.71469 16.7771 9.37891 17.1913 9.37891Z" />
<path fill-rule="evenodd" clip-rule="evenodd" d="M17.1913 21.8765C17.6055 21.8765 17.9413 22.2123 17.9413 22.6265V23.9193C17.9413 24.3335 17.6055 24.6693 17.1913 24.6693C16.7771 24.6693 16.4413 24.3335 16.4413 23.9193V22.6265C16.4413 22.2123 16.7771 21.8765 17.1913 21.8765Z" />
<path fill-rule="evenodd" clip-rule="evenodd" d="M23.8445 3.125C23.8445 2.71079 24.1803 2.375 24.5945 2.375C29.7735 2.375 33.909 6.89661 33.909 12.2702C33.909 17.8583 29.6687 22.7174 25.6578 26.0901C23.6271 27.7978 21.6001 29.1703 20.0827 30.1152C19.3232 30.5882 18.6894 30.9552 18.244 31.2048C18.0213 31.3296 17.8455 31.4252 17.7246 31.4899C17.6641 31.5223 17.6174 31.547 17.5853 31.5638L17.5482 31.5831L17.5382 31.5883L17.5353 31.5898C17.535 31.59 17.5339 31.5905 17.1913 30.9234C16.8455 31.5889 16.8454 31.5889 16.8453 31.5888L16.8399 31.586L16.8262 31.5788L16.7752 31.5519C16.731 31.5283 16.6664 31.4937 16.5832 31.4484C16.4168 31.3576 16.1756 31.2239 15.8726 31.0496C15.2668 30.7011 14.4128 30.19 13.4147 29.5368C11.4218 28.2327 8.83768 26.3514 6.5039 24.0547C6.20867 23.7642 6.20487 23.2893 6.49541 22.9941C6.78595 22.6989 7.26081 22.6951 7.55604 22.9856C9.79484 25.1889 12.2914 27.0092 14.236 28.2817C15.2066 28.9168 16.0356 29.4128 16.6205 29.7493C16.8518 29.8824 17.0448 29.9904 17.1931 30.0721C17.283 30.023 17.3894 29.9643 17.5107 29.8963C17.9386 29.6565 18.5523 29.3012 19.2898 28.8419C20.7663 27.9224 22.7313 26.5913 24.6924 24.9421C28.6654 21.6012 32.409 17.1337 32.409 12.2702C32.409 7.62759 28.8509 3.875 24.5945 3.875C24.1803 3.875 23.8445 3.53921 23.8445 3.125ZM17.1913 30.9234L16.8453 31.5888C17.0609 31.7008 17.3178 31.7016 17.5339 31.5905L17.1913 30.9234Z" />
<path fill-rule="evenodd" clip-rule="evenodd" d="M0.473511 12.2702C0.473511 6.89661 4.60897 2.375 9.78803 2.375C10.2022 2.375 10.538 2.71079 10.538 3.125C10.538 3.53921 10.2022 3.875 9.78803 3.875C5.5316 3.875 1.97351 7.62759 1.97351 12.2702C1.97351 14.7499 2.97942 17.1426 4.52703 19.3937C4.76169 19.735 4.67522 20.2019 4.33389 20.4366C3.99256 20.6712 3.52563 20.5848 3.29096 20.2434C1.64502 17.8493 0.473511 15.1614 0.473511 12.2702Z" />
<path fill-rule="evenodd" clip-rule="evenodd" d="M12.1106 2.42334C11.3222 2.42334 10.6832 3.06242 10.6832 3.85076C10.6832 4.6391 11.3222 5.27818 12.1106 5.27818C12.8989 5.27818 13.538 4.6391 13.538 3.85076C13.538 3.06242 12.8989 2.42334 12.1106 2.42334ZM9.18317 3.85076C9.18317 2.23399 10.4938 0.92334 12.1106 0.92334C13.7274 0.92334 15.038 2.23399 15.038 3.85076C15.038 5.46753 13.7274 6.77818 12.1106 6.77818C10.4938 6.77818 9.18317 5.46753 9.18317 3.85076Z" />
<path fill-rule="evenodd" clip-rule="evenodd" d="M22.2719 2.42334C21.4836 2.42334 20.8445 3.06242 20.8445 3.85076C20.8445 4.6391 21.4836 5.27818 22.2719 5.27818C23.0602 5.27818 23.6993 4.6391 23.6993 3.85076C23.6993 3.06242 23.0602 2.42334 22.2719 2.42334ZM19.3445 3.85076C19.3445 2.23399 20.6551 0.92334 22.2719 0.92334C23.8887 0.92334 25.1993 2.23399 25.1993 3.85076C25.1993 5.46753 23.8887 6.77818 22.2719 6.77818C20.6551 6.77818 19.3445 5.46753 19.3445 3.85076Z" />
<path fill-rule="evenodd" clip-rule="evenodd" d="M17.1912 30.6814C17.6054 30.6814 17.9412 31.0172 17.9412 31.4314V35.4233C17.9412 41.1785 22.6861 45.9233 28.4412 45.9233C34.1964 45.9233 38.9412 41.1785 38.9412 35.4233V34.3346C38.9412 33.9204 39.277 33.5846 39.6912 33.5846C40.1054 33.5846 40.4412 33.9204 40.4412 34.3346V35.4233C40.4412 42.0069 35.0248 47.4233 28.4412 47.4233C21.8577 47.4233 16.4412 42.0069 16.4412 35.4233V31.4314C16.4412 31.0172 16.777 30.6814 17.1912 30.6814Z" />
<path fill-rule="evenodd" clip-rule="evenodd" d="M39.6913 24.9233C36.4764 24.9233 33.909 27.4908 33.909 30.7056C33.909 33.0238 35.1905 34.9473 37.1234 35.9138C37.4939 36.0991 37.6441 36.5496 37.4588 36.92C37.2736 37.2905 36.8231 37.4407 36.4526 37.2555C34.0307 36.0445 32.409 33.6132 32.409 30.7056C32.409 26.6624 35.648 23.4233 39.6913 23.4233C43.7345 23.4233 46.9735 26.6624 46.9735 30.7056C46.9735 33.5359 45.3561 36.0423 42.9299 37.2555C42.5594 37.4407 42.1089 37.2905 41.9237 36.92C41.7384 36.5496 41.8886 36.0991 42.2591 35.9138C44.1877 34.9495 45.4735 32.956 45.4735 30.7056C45.4735 27.4908 42.9061 24.9233 39.6913 24.9233Z" />
<path fill-rule="evenodd" clip-rule="evenodd" d="M39.6913 28.5525C38.5021 28.5525 37.538 29.5165 37.538 30.7057C37.538 31.8949 38.5021 32.8589 39.6913 32.8589C40.8804 32.8589 41.8445 31.8949 41.8445 30.7057C41.8445 29.5165 40.8804 28.5525 39.6913 28.5525ZM36.038 30.7057C36.038 28.6881 37.6736 27.0525 39.6913 27.0525C41.7089 27.0525 43.3445 28.6881 43.3445 30.7057C43.3445 32.7233 41.7089 34.3589 39.6913 34.3589C37.6736 34.3589 36.038 32.7233 36.038 30.7057Z" />
</svg>
