<svg   viewBox="0 0 46 46"  xmlns="http://www.w3.org/2000/svg">
<path fill-rule="evenodd" clip-rule="evenodd" d="M20.096 0.832275C20.096 0.418062 20.4318 0.0822754 20.846 0.0822754H25.0648C25.479 0.0822754 25.8148 0.418062 25.8148 0.832275V4.30103H29.2835C29.6977 4.30103 30.0335 4.63681 30.0335 5.05103V9.26978C30.0335 9.68399 29.6977 10.0198 29.2835 10.0198H25.8148V13.4885C25.8148 13.9027 25.479 14.2385 25.0648 14.2385H20.846C20.4318 14.2385 20.096 13.9027 20.096 13.4885V10.0198H16.6273C16.213 10.0198 15.8773 9.68399 15.8773 9.26978V5.05103C15.8773 4.63681 16.213 4.30103 16.6273 4.30103H20.096V0.832275ZM21.596 1.58228V5.05103C21.596 5.46524 21.2602 5.80103 20.846 5.80103H17.3773V8.51978H20.846C21.2602 8.51978 21.596 8.85556 21.596 9.26978V12.7385H24.3148V9.26978C24.3148 8.85556 24.6505 8.51978 25.0648 8.51978H28.5335V5.80103H25.0648C24.6505 5.80103 24.3148 5.46524 24.3148 5.05103V1.58228H21.596Z" />
<path fill-rule="evenodd" clip-rule="evenodd" d="M9.54913 7.1604C9.54913 6.74619 9.88492 6.4104 10.2991 6.4104H13.8616V7.9104H11.0491V45.176H9.54913V7.1604Z" />
<path fill-rule="evenodd" clip-rule="evenodd" d="M32.0491 6.4104H35.6116C36.0258 6.4104 36.3616 6.74619 36.3616 7.1604V45.176H34.8616V7.9104H32.0491V6.4104Z" />
<path fill-rule="evenodd" clip-rule="evenodd" d="M19.4866 16.9573V45.176H17.9866V16.9573H19.4866Z" />
<path fill-rule="evenodd" clip-rule="evenodd" d="M27.9241 16.9573V45.176H26.4241V16.9573H27.9241Z" />
<path fill-rule="evenodd" clip-rule="evenodd" d="M17.9866 20.4729H27.9241V21.9729H17.9866V20.4729Z" />
<path fill-rule="evenodd" clip-rule="evenodd" d="M17.9866 30.3167H27.9241V31.8167H17.9866V30.3167Z" />
<path fill-rule="evenodd" clip-rule="evenodd" d="M17.9866 40.1604H27.9241V41.6604H17.9866V40.1604Z" />
<path fill-rule="evenodd" clip-rule="evenodd" d="M0.408508 13.4885C0.408508 13.0743 0.744295 12.7385 1.15851 12.7385H7.53351V14.2385H1.90851V45.176H0.408508V13.4885Z" />
<path fill-rule="evenodd" clip-rule="evenodd" d="M3.92413 28.2542C3.92413 27.8399 4.25992 27.5042 4.67413 27.5042H7.53351V29.0042H5.42413V31.7229H7.53351V33.2229H4.67413C4.25992 33.2229 3.92413 32.8871 3.92413 32.4729V28.2542Z" />
<path fill-rule="evenodd" clip-rule="evenodd" d="M3.92413 19.8167C3.92413 19.4024 4.25992 19.0667 4.67413 19.0667H7.53351V20.5667H5.42413V23.2854H7.53351V24.7854H4.67413C4.25992 24.7854 3.92413 24.4496 3.92413 24.0354V19.8167Z" />
<path fill-rule="evenodd" clip-rule="evenodd" d="M3.92413 36.6917C3.92413 36.2774 4.25992 35.9417 4.67413 35.9417H7.53351V37.4417H5.42413V40.1604H7.53351V41.6604H4.67413C4.25992 41.6604 3.92413 41.3246 3.92413 40.9104V36.6917Z" />
<path fill-rule="evenodd" clip-rule="evenodd" d="M38.3773 12.7385H44.7523C45.1665 12.7385 45.5023 13.0743 45.5023 13.4885V45.176H44.0023V14.2385H38.3773V12.7385Z" />
<path fill-rule="evenodd" clip-rule="evenodd" d="M38.3773 27.5042H41.2366C41.6508 27.5042 41.9866 27.8399 41.9866 28.2542V32.4729C41.9866 32.8871 41.6508 33.2229 41.2366 33.2229H38.3773V31.7229H40.4866V29.0042H38.3773V27.5042Z" />
<path fill-rule="evenodd" clip-rule="evenodd" d="M38.3773 19.0667H41.2366C41.6508 19.0667 41.9866 19.4024 41.9866 19.8167V24.0354C41.9866 24.4496 41.6508 24.7854 41.2366 24.7854H38.3773V23.2854H40.4866V20.5667H38.3773V19.0667Z" />
<path fill-rule="evenodd" clip-rule="evenodd" d="M38.3773 35.9417H41.2366C41.6508 35.9417 41.9866 36.2774 41.9866 36.6917V40.9104C41.9866 41.3246 41.6508 41.6604 41.2366 41.6604H38.3773V40.1604H40.4866V37.4417H38.3773V35.9417Z" />
</svg>
