<svg   viewBox="0 0 51 45"  xmlns="http://www.w3.org/2000/svg">
<path d="M29.308 0.200291C29.5388 -0.0563521 29.972 -0.0658107 30.2211 0.168763C31.503 1.45009 32.7844 2.73267 34.0663 4.014C34.3249 4.25803 34.3217 4.71015 34.0575 4.94914C33.3815 5.63016 32.9906 6.58295 33.0038 7.54332C33.0126 8.46521 33.3847 9.3827 34.0348 10.0379C34.6937 10.7264 35.6383 11.1294 36.5905 11.1344C37.5534 11.1533 38.5106 10.7599 39.1935 10.082C39.43 9.82032 39.8777 9.81401 40.1217 10.0694C41.6773 11.6244 43.2323 13.18 44.788 14.735C44.957 14.8926 45.0421 15.1398 44.9803 15.3662C44.9368 15.5838 44.7571 15.7319 44.6108 15.8839C42.767 17.7258 40.9238 19.5683 39.0819 21.4121C42.7285 21.4109 46.3745 21.4128 50.0205 21.4109C50.2298 21.4153 50.4562 21.3869 50.6479 21.4922C50.8553 21.5925 50.9934 21.8201 50.9909 22.0503C50.9915 24.3405 50.9909 26.6308 50.9915 28.921C51.0035 29.1877 50.82 29.4356 50.5779 29.5333C50.4404 29.5882 50.2897 29.5743 50.1453 29.5844C49.1099 29.6298 48.1073 30.155 47.4774 30.9779C46.9136 31.6873 46.645 32.6193 46.7257 33.5204C46.7944 34.3641 47.1722 35.1826 47.7807 35.7728C48.4453 36.4538 49.393 36.8334 50.3421 36.8372C50.6945 36.8215 51.0124 37.1456 50.9915 37.4981C50.9915 39.7051 50.9903 41.9121 50.9922 44.1185C51.0035 44.3524 50.9978 44.6153 50.815 44.7881C50.6378 45.0044 50.3395 45.0082 50.0848 44.9962C33.7529 44.9943 17.4211 44.9962 1.08925 44.9956C0.900707 44.9924 0.710904 45.0069 0.523624 44.9823C0.212751 44.9294 -0.0192996 44.6223 0.00150932 44.3089C0.000878751 42.0407 0.00150932 39.7719 0.00150932 37.5037C-0.0174079 37.2168 0.190051 36.9501 0.456152 36.8618C0.619471 36.8208 0.790356 36.8379 0.956828 36.8221C1.99538 36.7401 2.9898 36.1833 3.59388 35.3333C4.04033 34.7223 4.28499 33.9675 4.28247 33.2114C4.29004 32.2567 3.89782 31.3052 3.21554 30.6374C2.54713 29.9577 1.59875 29.5743 0.647216 29.5762C0.301031 29.5863 -0.00794914 29.2691 0.00214003 28.9248C-0.00101283 26.7165 0.00340125 24.5089 0.000248389 22.3006C0.00214011 22.0976 -0.0192997 21.8693 0.113751 21.6997C0.246172 21.5067 0.476961 21.3989 0.710273 21.4121C3.17014 21.4128 5.63001 21.409 8.08987 21.414C15.1668 14.3466 22.2349 7.27091 29.308 0.200291ZM17.5012 13.8673C14.9921 16.384 12.4667 18.8848 9.96835 21.4121C11.0586 21.4103 12.1489 21.4134 13.2391 21.4103C17.4419 17.2018 21.651 12.999 25.855 8.79122C26.0126 8.61592 26.2611 8.52197 26.4944 8.57998C26.7227 8.62601 26.8765 8.81455 27.0335 8.9703C30.1007 12.0399 33.1709 15.1058 36.2374 18.176C36.5016 18.4207 36.4903 18.8697 36.2323 19.1156C35.4744 19.8862 34.7038 20.6441 33.9427 21.4115C35.0362 21.4134 36.1302 21.409 37.2242 21.4134C39.2925 19.3527 41.3539 17.2838 43.4209 15.2205C42.1566 13.9607 40.8998 12.6926 39.6318 11.4371C38.4778 12.3218 36.9317 12.6617 35.5148 12.3281C34.3532 12.0639 33.3027 11.3583 32.6091 10.391C31.9072 9.41738 31.5863 8.17956 31.7143 6.98715C31.807 6.08921 32.1614 5.22722 32.7043 4.50837C31.7345 3.53035 30.7571 2.55927 29.7841 1.58503C25.6892 5.67808 21.5955 9.77302 17.5012 13.8673ZM15.0974 21.4115C20.7625 21.4115 26.4282 21.4134 32.0933 21.4103C33.012 20.4858 33.9358 19.5677 34.8558 18.6452C32.0239 15.8127 29.1914 12.9801 26.3588 10.1482C22.605 13.9026 18.85 17.6558 15.0974 21.4115ZM1.31058 22.7288C1.30995 24.5883 1.30932 26.4479 1.31058 28.3075C2.64235 28.4859 3.88899 29.2256 4.66838 30.3215C5.39732 31.3266 5.72081 32.6143 5.55812 33.8452C5.42885 34.849 4.97736 35.8062 4.29319 36.5509C3.52137 37.3984 2.44309 37.9496 1.30932 38.1053C1.31121 39.9655 1.30932 41.8257 1.31058 43.6865C3.73072 43.684 6.15023 43.6922 8.57037 43.6821C8.56785 43.3977 8.56911 43.1127 8.56911 42.8283C9.00546 42.8264 9.44182 42.827 9.87818 42.8283C9.87692 43.1114 9.88133 43.3939 9.87376 43.6777C10.1405 43.6953 10.4079 43.6834 10.6752 43.6865C20.8243 43.6865 30.9734 43.6859 41.1224 43.6871C41.1237 42.5439 41.1212 41.4013 41.1237 40.2581C41.5582 40.2556 41.9933 40.2612 42.4277 40.2556C42.4353 41.3988 42.4284 42.5426 42.4315 43.6865C44.8485 43.6834 47.2661 43.6928 49.6837 43.6821C49.6812 41.8232 49.6825 39.9649 49.6831 38.1066C48.304 37.9174 47.0221 37.1304 46.2446 35.9746C45.5648 34.9701 45.2691 33.7102 45.4457 32.509C45.6077 31.3418 46.2086 30.2427 47.1015 29.474C47.8204 28.8409 48.7322 28.4399 49.68 28.31C49.6837 26.4485 49.6844 24.5871 49.6793 22.7256C36.4152 22.7288 23.1511 22.7319 9.887 22.7237C9.86557 23.5813 9.88385 24.4395 9.87818 25.2971C9.44182 25.2984 9.00546 25.2984 8.56911 25.2971C8.56658 24.4395 8.57415 23.5826 8.56532 22.725C6.14708 22.7326 3.72883 22.7256 1.31058 22.7288Z" />
<path d="M15.9304 24.8563C16.7609 24.8198 17.5945 24.8507 18.4262 24.8406C23.9147 24.8399 29.4032 24.8412 34.8917 24.8399C35.1295 24.8298 35.3697 24.956 35.4857 25.1666C35.6131 25.3684 35.5576 25.6168 35.6062 25.84C35.7386 26.6308 36.4202 27.2872 37.2148 27.39C37.3762 27.4152 37.5439 27.3975 37.7022 27.4455C37.9525 27.5293 38.1449 27.7765 38.1423 28.0439C38.1449 31.4698 38.1417 34.8957 38.1436 38.3216C38.1644 38.6369 37.9191 38.9515 37.6007 38.9868C37.3239 39.0089 37.0388 39.0209 36.7816 39.1369C36.0892 39.4011 35.5942 40.1011 35.5784 40.8426C35.5936 41.1024 35.4656 41.3748 35.2266 41.4934C35.0481 41.5987 34.8343 41.5608 34.6376 41.5672C28.54 41.5665 22.4423 41.5665 16.3447 41.5672C16.1505 41.5615 15.938 41.5981 15.7633 41.4883C15.5533 41.3773 15.4133 41.1478 15.4209 40.9082C15.419 40.4069 15.2153 39.9106 14.8559 39.5607C14.5053 39.2 14.0053 39.0032 13.5052 38.9988C13.1426 39.0159 12.828 38.6766 12.8494 38.3191C12.8494 34.9133 12.8494 31.507 12.8494 28.1013C12.8261 27.7645 13.0991 27.4329 13.4409 27.4177C13.7152 27.4051 13.9939 27.3761 14.2468 27.2613C14.9423 26.982 15.4215 26.2606 15.4203 25.5128C15.4076 25.2088 15.6309 24.9162 15.9304 24.8563ZM16.6707 26.149C16.414 27.3748 15.4032 28.4134 14.1661 28.6499C14.1471 31.6835 14.1629 34.7185 14.1579 37.7528C15.3925 38.0038 16.4153 39.0241 16.6694 40.2581C22.5527 40.2593 28.4366 40.2549 34.3204 40.2606C34.427 39.8766 34.5556 39.4919 34.7864 39.1628C35.2417 38.4395 36.0041 37.9369 36.8345 37.7516C36.8352 34.7204 36.8345 31.6892 36.8345 28.6581C35.6005 28.4065 34.5783 27.3837 34.3267 26.1496C28.441 26.1484 22.5558 26.1496 16.6707 26.149Z" />
<path d="M41.125 24.8405C41.5607 24.8398 41.9964 24.8405 42.4322 24.8398C42.4233 25.8507 42.4441 26.8615 42.4221 27.8716C41.9889 27.8622 41.5557 27.8697 41.1225 27.8672C41.1244 26.8583 41.1193 25.8494 41.125 24.8405Z" />
<path d="M8.56909 27.4102C9.00545 27.4096 9.4418 27.4102 9.87753 27.4102C9.87816 28.4191 9.87816 29.428 9.87753 30.4369C9.4418 30.4369 9.00545 30.4369 8.56909 30.4369C8.56909 29.428 8.56909 28.4191 8.56909 27.4102Z" />
<path d="M41.1237 29.9798C41.5582 29.9779 41.9933 29.9823 42.4284 29.9773C42.4341 30.9868 42.4303 31.9964 42.4303 33.0053C41.9939 33.0078 41.5576 33.0059 41.1218 33.0066C41.1243 31.9976 41.1206 30.9887 41.1237 29.9798Z" />
<path d="M8.56848 32.5506C9.00484 32.548 9.4412 32.5487 9.87818 32.5499C9.87818 33.5582 9.87755 34.5665 9.87818 35.5754C9.44183 35.5767 9.00547 35.5767 8.56911 35.5754C8.56911 34.5671 8.56974 33.5588 8.56848 32.5506Z" />
<path d="M41.125 35.1188C41.5607 35.1182 41.9964 35.1194 42.4321 35.1182C42.422 36.129 42.4466 37.141 42.4202 38.1519C41.9876 38.138 41.555 38.1487 41.1224 38.1455C41.1243 37.1366 41.1199 36.1277 41.125 35.1188Z" />
<path d="M8.56909 37.6885C9.00545 37.6885 9.4418 37.6885 9.87753 37.6885C9.87816 38.6974 9.87816 39.7063 9.87753 40.7152C9.4418 40.7152 9.00545 40.7152 8.56909 40.7152C8.56909 39.7063 8.56909 38.6974 8.56909 37.6885Z" />
</svg>
